%!PS-Adobe-3.0 EPSF-30.
%%BoundingBox: 0 0 612 792
%%Title: Astrolabe Front
%%Creator: Richard Wymarc
%%CreationDate: Mon Dec 11 20:27:56 CET 2023
%%EndComments
%% Astrolabe Generator Postscript file
%% for Latitude: 58.47361111111111
%% for Longitude: -15.636944444444444

mark
/Astrolabe 10 dict def %local variable dictionary
Astrolabe begin

%% setup
%% ================ Draw Registration Marks =================
% Fill Background
1 setgray
newpath
0 0 moveto
0 792 lineto
612 792 lineto
612 0 lineto
0 0 lineto
fill
0 setgray
% Registration Marks
.1 setlinewidth
36 36 5 0 360 arc stroke
30 36 moveto
50 36 lineto stroke
36 30 moveto
36 50 lineto stroke
576 36 5 0 360 arc stroke
582 36 moveto
562 36 lineto stroke
576 30 moveto
576 50 lineto stroke
576 756 5 0 360 arc stroke
582 756 moveto
562 756 lineto stroke
576 762 moveto
576 742 lineto stroke
36 756 5 0 360 arc stroke
30 756 moveto
50 756 lineto stroke
36 762 moveto
36 742 lineto stroke
%% ================ End Registration Marks =================
306 396 translate
.1 setlinewidth

%% ================ Set Up Fonts =================
/NormalFont /Times-Roman findfont
dup length dict begin {1 index /FID ne {def} {pop pop} ifelse} forall
/Encoding ISOLatin1Encoding def currentdict end
/Times-Roman-ISOLatin1 exch definefont
def
/NormalFont5 NormalFont 5 scalefont def
/NormalFont6 NormalFont 6 scalefont def
/NormalFont7 NormalFont 7 scalefont def
/NormalFont8 NormalFont 8 scalefont def
/NormalFont10 NormalFont 10 scalefont def
/NormalFont12 NormalFont 12 scalefont def
/NormalFont14 NormalFont 14 scalefont def
/NormalFont16 NormalFont 16 scalefont def
/NormalFont18 NormalFont 18 scalefont def
/NormalFont20 NormalFont 20 scalefont def
%% ================ End Set Up Fonts =================
%% ================ Set Up Circular Text Routine =================
/outsidecircletext
{ circtextdict begin
/radius exch def
/centerangle exch def
/ptsize exch def
/str exch def
/xradius radius ptsize 4 div add def

gsave
centerangle str findhalfangle add rotate

str
{ /charcode exch def
( ) dup 0 charcode put outsideplacechar
} forall
grestore
end
} def

/insidecircletext
{ circtextdict begin
/radius exch def /centerangle exch def
/ptsize exch def /str exch def
/xradius radius ptsize 3 div sub def
gsave
centerangle str findhalfangle sub rotate
str
{ /charcode exch def
( ) dup 0 charcode put insideplacechar
} forall
grestore
end
} def

/circtextdict 16 dict def
circtextdict begin
/findhalfangle
{ stringwidth pop 2 div
2 xradius mul pi mul div 360 mul
} def

/outsideplacechar
{ /char exch def
/halfangle char findhalfangle def
gsave
halfangle neg rotate
radius 0 translate
-90 rotate
char stringwidth pop 2 div neg 0 moveto
char show
grestore
halfangle 2 mul neg rotate
} def

/insideplacechar
{ /char exch def
/halfangle char findhalfangle def
gsave
halfangle rotate
radius 0 translate
90 rotate
char stringwidth pop 2 div neg 0 moveto
char show
grestore
halfangle 2 mul rotate
} def
/pi 3.1415923 def
end

%% ================ End Circular Text Routine =================
gsave
%% ================ Draw Throne =================
0 280.0 7 0 360 arc stroke
0 280.0 38 0 180 arc stroke
-38 242.0 38 90 270 arc stroke
38 242.0 38 -90 90 arc stroke
.1 setlinewidth
0 277.0 moveto
0 283.0 lineto stroke
-3 280.0 moveto
3 280.0 lineto stroke
%% ================ Draw Throne =================
grestore

gsave
%% ==================== Create Mater Limb ====================
% Draw outer circle
1 setgray
0 0 252.0 0 360 arc fill
0 setgray
0 0 252.0 0 360 arc stroke
0 0 216.0 0 360 arc stroke
0 0 236.0 0 360 arc stroke
231.0 0 moveto
236.0 0 lineto stroke
1.0 rotate
231.0 0 moveto
236.0 0 lineto stroke
1.0 rotate
231.0 0 moveto
236.0 0 lineto stroke
1.0 rotate
231.0 0 moveto
236.0 0 lineto stroke
1.0 rotate
231.0 0 moveto
236.0 0 lineto stroke
1.0 rotate
231.0 0 moveto
236.0 0 lineto stroke
1.0 rotate
231.0 0 moveto
236.0 0 lineto stroke
1.0 rotate
231.0 0 moveto
236.0 0 lineto stroke
1.0 rotate
231.0 0 moveto
236.0 0 lineto stroke
1.0 rotate
231.0 0 moveto
236.0 0 lineto stroke
1.0 rotate
231.0 0 moveto
236.0 0 lineto stroke
1.0 rotate
231.0 0 moveto
236.0 0 lineto stroke
1.0 rotate
231.0 0 moveto
236.0 0 lineto stroke
1.0 rotate
231.0 0 moveto
236.0 0 lineto stroke
1.0 rotate
231.0 0 moveto
236.0 0 lineto stroke
1.0 rotate
231.0 0 moveto
236.0 0 lineto stroke
1.0 rotate
231.0 0 moveto
236.0 0 lineto stroke
1.0 rotate
231.0 0 moveto
236.0 0 lineto stroke
1.0 rotate
231.0 0 moveto
236.0 0 lineto stroke
1.0 rotate
231.0 0 moveto
236.0 0 lineto stroke
1.0 rotate
231.0 0 moveto
236.0 0 lineto stroke
1.0 rotate
231.0 0 moveto
236.0 0 lineto stroke
1.0 rotate
231.0 0 moveto
236.0 0 lineto stroke
1.0 rotate
231.0 0 moveto
236.0 0 lineto stroke
1.0 rotate
231.0 0 moveto
236.0 0 lineto stroke
1.0 rotate
231.0 0 moveto
236.0 0 lineto stroke
1.0 rotate
231.0 0 moveto
236.0 0 lineto stroke
1.0 rotate
231.0 0 moveto
236.0 0 lineto stroke
1.0 rotate
231.0 0 moveto
236.0 0 lineto stroke
1.0 rotate
231.0 0 moveto
236.0 0 lineto stroke
1.0 rotate
231.0 0 moveto
236.0 0 lineto stroke
1.0 rotate
231.0 0 moveto
236.0 0 lineto stroke
1.0 rotate
231.0 0 moveto
236.0 0 lineto stroke
1.0 rotate
231.0 0 moveto
236.0 0 lineto stroke
1.0 rotate
231.0 0 moveto
236.0 0 lineto stroke
1.0 rotate
231.0 0 moveto
236.0 0 lineto stroke
1.0 rotate
231.0 0 moveto
236.0 0 lineto stroke
1.0 rotate
231.0 0 moveto
236.0 0 lineto stroke
1.0 rotate
231.0 0 moveto
236.0 0 lineto stroke
1.0 rotate
231.0 0 moveto
236.0 0 lineto stroke
1.0 rotate
231.0 0 moveto
236.0 0 lineto stroke
1.0 rotate
231.0 0 moveto
236.0 0 lineto stroke
1.0 rotate
231.0 0 moveto
236.0 0 lineto stroke
1.0 rotate
231.0 0 moveto
236.0 0 lineto stroke
1.0 rotate
231.0 0 moveto
236.0 0 lineto stroke
1.0 rotate
231.0 0 moveto
236.0 0 lineto stroke
1.0 rotate
231.0 0 moveto
236.0 0 lineto stroke
1.0 rotate
231.0 0 moveto
236.0 0 lineto stroke
1.0 rotate
231.0 0 moveto
236.0 0 lineto stroke
1.0 rotate
231.0 0 moveto
236.0 0 lineto stroke
1.0 rotate
231.0 0 moveto
236.0 0 lineto stroke
1.0 rotate
231.0 0 moveto
236.0 0 lineto stroke
1.0 rotate
231.0 0 moveto
236.0 0 lineto stroke
1.0 rotate
231.0 0 moveto
236.0 0 lineto stroke
1.0 rotate
231.0 0 moveto
236.0 0 lineto stroke
1.0 rotate
231.0 0 moveto
236.0 0 lineto stroke
1.0 rotate
231.0 0 moveto
236.0 0 lineto stroke
1.0 rotate
231.0 0 moveto
236.0 0 lineto stroke
1.0 rotate
231.0 0 moveto
236.0 0 lineto stroke
1.0 rotate
231.0 0 moveto
236.0 0 lineto stroke
1.0 rotate
231.0 0 moveto
236.0 0 lineto stroke
1.0 rotate
231.0 0 moveto
236.0 0 lineto stroke
1.0 rotate
231.0 0 moveto
236.0 0 lineto stroke
1.0 rotate
231.0 0 moveto
236.0 0 lineto stroke
1.0 rotate
231.0 0 moveto
236.0 0 lineto stroke
1.0 rotate
231.0 0 moveto
236.0 0 lineto stroke
1.0 rotate
231.0 0 moveto
236.0 0 lineto stroke
1.0 rotate
231.0 0 moveto
236.0 0 lineto stroke
1.0 rotate
231.0 0 moveto
236.0 0 lineto stroke
1.0 rotate
231.0 0 moveto
236.0 0 lineto stroke
1.0 rotate
231.0 0 moveto
236.0 0 lineto stroke
1.0 rotate
231.0 0 moveto
236.0 0 lineto stroke
1.0 rotate
231.0 0 moveto
236.0 0 lineto stroke
1.0 rotate
231.0 0 moveto
236.0 0 lineto stroke
1.0 rotate
231.0 0 moveto
236.0 0 lineto stroke
1.0 rotate
231.0 0 moveto
236.0 0 lineto stroke
1.0 rotate
231.0 0 moveto
236.0 0 lineto stroke
1.0 rotate
231.0 0 moveto
236.0 0 lineto stroke
1.0 rotate
231.0 0 moveto
236.0 0 lineto stroke
1.0 rotate
231.0 0 moveto
236.0 0 lineto stroke
1.0 rotate
231.0 0 moveto
236.0 0 lineto stroke
1.0 rotate
231.0 0 moveto
236.0 0 lineto stroke
1.0 rotate
231.0 0 moveto
236.0 0 lineto stroke
1.0 rotate
231.0 0 moveto
236.0 0 lineto stroke
1.0 rotate
231.0 0 moveto
236.0 0 lineto stroke
1.0 rotate
231.0 0 moveto
236.0 0 lineto stroke
1.0 rotate
231.0 0 moveto
236.0 0 lineto stroke
1.0 rotate
231.0 0 moveto
236.0 0 lineto stroke
1.0 rotate
231.0 0 moveto
236.0 0 lineto stroke
1.0 rotate
231.0 0 moveto
236.0 0 lineto stroke
1.0 rotate
231.0 0 moveto
236.0 0 lineto stroke
1.0 rotate
231.0 0 moveto
236.0 0 lineto stroke
1.0 rotate
231.0 0 moveto
236.0 0 lineto stroke
1.0 rotate
231.0 0 moveto
236.0 0 lineto stroke
1.0 rotate
231.0 0 moveto
236.0 0 lineto stroke
1.0 rotate
231.0 0 moveto
236.0 0 lineto stroke
1.0 rotate
231.0 0 moveto
236.0 0 lineto stroke
1.0 rotate
231.0 0 moveto
236.0 0 lineto stroke
1.0 rotate
231.0 0 moveto
236.0 0 lineto stroke
1.0 rotate
231.0 0 moveto
236.0 0 lineto stroke
1.0 rotate
231.0 0 moveto
236.0 0 lineto stroke
1.0 rotate
231.0 0 moveto
236.0 0 lineto stroke
1.0 rotate
231.0 0 moveto
236.0 0 lineto stroke
1.0 rotate
231.0 0 moveto
236.0 0 lineto stroke
1.0 rotate
231.0 0 moveto
236.0 0 lineto stroke
1.0 rotate
231.0 0 moveto
236.0 0 lineto stroke
1.0 rotate
231.0 0 moveto
236.0 0 lineto stroke
1.0 rotate
231.0 0 moveto
236.0 0 lineto stroke
1.0 rotate
231.0 0 moveto
236.0 0 lineto stroke
1.0 rotate
231.0 0 moveto
236.0 0 lineto stroke
1.0 rotate
231.0 0 moveto
236.0 0 lineto stroke
1.0 rotate
231.0 0 moveto
236.0 0 lineto stroke
1.0 rotate
231.0 0 moveto
236.0 0 lineto stroke
1.0 rotate
231.0 0 moveto
236.0 0 lineto stroke
1.0 rotate
231.0 0 moveto
236.0 0 lineto stroke
1.0 rotate
231.0 0 moveto
236.0 0 lineto stroke
1.0 rotate
231.0 0 moveto
236.0 0 lineto stroke
1.0 rotate
231.0 0 moveto
236.0 0 lineto stroke
1.0 rotate
231.0 0 moveto
236.0 0 lineto stroke
1.0 rotate
231.0 0 moveto
236.0 0 lineto stroke
1.0 rotate
231.0 0 moveto
236.0 0 lineto stroke
1.0 rotate
231.0 0 moveto
236.0 0 lineto stroke
1.0 rotate
231.0 0 moveto
236.0 0 lineto stroke
1.0 rotate
231.0 0 moveto
236.0 0 lineto stroke
1.0 rotate
231.0 0 moveto
236.0 0 lineto stroke
1.0 rotate
231.0 0 moveto
236.0 0 lineto stroke
1.0 rotate
231.0 0 moveto
236.0 0 lineto stroke
1.0 rotate
231.0 0 moveto
236.0 0 lineto stroke
1.0 rotate
231.0 0 moveto
236.0 0 lineto stroke
1.0 rotate
231.0 0 moveto
236.0 0 lineto stroke
1.0 rotate
231.0 0 moveto
236.0 0 lineto stroke
1.0 rotate
231.0 0 moveto
236.0 0 lineto stroke
1.0 rotate
231.0 0 moveto
236.0 0 lineto stroke
1.0 rotate
231.0 0 moveto
236.0 0 lineto stroke
1.0 rotate
231.0 0 moveto
236.0 0 lineto stroke
1.0 rotate
231.0 0 moveto
236.0 0 lineto stroke
1.0 rotate
231.0 0 moveto
236.0 0 lineto stroke
1.0 rotate
231.0 0 moveto
236.0 0 lineto stroke
1.0 rotate
231.0 0 moveto
236.0 0 lineto stroke
1.0 rotate
231.0 0 moveto
236.0 0 lineto stroke
1.0 rotate
231.0 0 moveto
236.0 0 lineto stroke
1.0 rotate
231.0 0 moveto
236.0 0 lineto stroke
1.0 rotate
231.0 0 moveto
236.0 0 lineto stroke
1.0 rotate
231.0 0 moveto
236.0 0 lineto stroke
1.0 rotate
231.0 0 moveto
236.0 0 lineto stroke
1.0 rotate
231.0 0 moveto
236.0 0 lineto stroke
1.0 rotate
231.0 0 moveto
236.0 0 lineto stroke
1.0 rotate
231.0 0 moveto
236.0 0 lineto stroke
1.0 rotate
231.0 0 moveto
236.0 0 lineto stroke
1.0 rotate
231.0 0 moveto
236.0 0 lineto stroke
1.0 rotate
231.0 0 moveto
236.0 0 lineto stroke
1.0 rotate
231.0 0 moveto
236.0 0 lineto stroke
1.0 rotate
231.0 0 moveto
236.0 0 lineto stroke
1.0 rotate
231.0 0 moveto
236.0 0 lineto stroke
1.0 rotate
231.0 0 moveto
236.0 0 lineto stroke
1.0 rotate
231.0 0 moveto
236.0 0 lineto stroke
1.0 rotate
231.0 0 moveto
236.0 0 lineto stroke
1.0 rotate
231.0 0 moveto
236.0 0 lineto stroke
1.0 rotate
231.0 0 moveto
236.0 0 lineto stroke
1.0 rotate
231.0 0 moveto
236.0 0 lineto stroke
1.0 rotate
231.0 0 moveto
236.0 0 lineto stroke
1.0 rotate
231.0 0 moveto
236.0 0 lineto stroke
1.0 rotate
231.0 0 moveto
236.0 0 lineto stroke
1.0 rotate
231.0 0 moveto
236.0 0 lineto stroke
1.0 rotate
231.0 0 moveto
236.0 0 lineto stroke
1.0 rotate
231.0 0 moveto
236.0 0 lineto stroke
1.0 rotate
231.0 0 moveto
236.0 0 lineto stroke
1.0 rotate
231.0 0 moveto
236.0 0 lineto stroke
1.0 rotate
231.0 0 moveto
236.0 0 lineto stroke
1.0 rotate
231.0 0 moveto
236.0 0 lineto stroke
1.0 rotate
231.0 0 moveto
236.0 0 lineto stroke
1.0 rotate
231.0 0 moveto
236.0 0 lineto stroke
1.0 rotate
231.0 0 moveto
236.0 0 lineto stroke
1.0 rotate
231.0 0 moveto
236.0 0 lineto stroke
1.0 rotate
231.0 0 moveto
236.0 0 lineto stroke
1.0 rotate
231.0 0 moveto
236.0 0 lineto stroke
1.0 rotate
231.0 0 moveto
236.0 0 lineto stroke
1.0 rotate
231.0 0 moveto
236.0 0 lineto stroke
1.0 rotate
231.0 0 moveto
236.0 0 lineto stroke
1.0 rotate
231.0 0 moveto
236.0 0 lineto stroke
1.0 rotate
231.0 0 moveto
236.0 0 lineto stroke
1.0 rotate
231.0 0 moveto
236.0 0 lineto stroke
1.0 rotate
231.0 0 moveto
236.0 0 lineto stroke
1.0 rotate
231.0 0 moveto
236.0 0 lineto stroke
1.0 rotate
231.0 0 moveto
236.0 0 lineto stroke
1.0 rotate
231.0 0 moveto
236.0 0 lineto stroke
1.0 rotate
231.0 0 moveto
236.0 0 lineto stroke
1.0 rotate
231.0 0 moveto
236.0 0 lineto stroke
1.0 rotate
231.0 0 moveto
236.0 0 lineto stroke
1.0 rotate
231.0 0 moveto
236.0 0 lineto stroke
1.0 rotate
231.0 0 moveto
236.0 0 lineto stroke
1.0 rotate
231.0 0 moveto
236.0 0 lineto stroke
1.0 rotate
231.0 0 moveto
236.0 0 lineto stroke
1.0 rotate
231.0 0 moveto
236.0 0 lineto stroke
1.0 rotate
231.0 0 moveto
236.0 0 lineto stroke
1.0 rotate
231.0 0 moveto
236.0 0 lineto stroke
1.0 rotate
231.0 0 moveto
236.0 0 lineto stroke
1.0 rotate
231.0 0 moveto
236.0 0 lineto stroke
1.0 rotate
231.0 0 moveto
236.0 0 lineto stroke
1.0 rotate
231.0 0 moveto
236.0 0 lineto stroke
1.0 rotate
231.0 0 moveto
236.0 0 lineto stroke
1.0 rotate
231.0 0 moveto
236.0 0 lineto stroke
1.0 rotate
231.0 0 moveto
236.0 0 lineto stroke
1.0 rotate
231.0 0 moveto
236.0 0 lineto stroke
1.0 rotate
231.0 0 moveto
236.0 0 lineto stroke
1.0 rotate
231.0 0 moveto
236.0 0 lineto stroke
1.0 rotate
231.0 0 moveto
236.0 0 lineto stroke
1.0 rotate
231.0 0 moveto
236.0 0 lineto stroke
1.0 rotate
231.0 0 moveto
236.0 0 lineto stroke
1.0 rotate
231.0 0 moveto
236.0 0 lineto stroke
1.0 rotate
231.0 0 moveto
236.0 0 lineto stroke
1.0 rotate
231.0 0 moveto
236.0 0 lineto stroke
1.0 rotate
231.0 0 moveto
236.0 0 lineto stroke
1.0 rotate
231.0 0 moveto
236.0 0 lineto stroke
1.0 rotate
231.0 0 moveto
236.0 0 lineto stroke
1.0 rotate
231.0 0 moveto
236.0 0 lineto stroke
1.0 rotate
231.0 0 moveto
236.0 0 lineto stroke
1.0 rotate
231.0 0 moveto
236.0 0 lineto stroke
1.0 rotate
231.0 0 moveto
236.0 0 lineto stroke
1.0 rotate
231.0 0 moveto
236.0 0 lineto stroke
1.0 rotate
231.0 0 moveto
236.0 0 lineto stroke
1.0 rotate
231.0 0 moveto
236.0 0 lineto stroke
1.0 rotate
231.0 0 moveto
236.0 0 lineto stroke
1.0 rotate
231.0 0 moveto
236.0 0 lineto stroke
1.0 rotate
231.0 0 moveto
236.0 0 lineto stroke
1.0 rotate
231.0 0 moveto
236.0 0 lineto stroke
1.0 rotate
231.0 0 moveto
236.0 0 lineto stroke
1.0 rotate
231.0 0 moveto
236.0 0 lineto stroke
1.0 rotate
231.0 0 moveto
236.0 0 lineto stroke
1.0 rotate
231.0 0 moveto
236.0 0 lineto stroke
1.0 rotate
231.0 0 moveto
236.0 0 lineto stroke
1.0 rotate
231.0 0 moveto
236.0 0 lineto stroke
1.0 rotate
231.0 0 moveto
236.0 0 lineto stroke
1.0 rotate
231.0 0 moveto
236.0 0 lineto stroke
1.0 rotate
231.0 0 moveto
236.0 0 lineto stroke
1.0 rotate
231.0 0 moveto
236.0 0 lineto stroke
1.0 rotate
231.0 0 moveto
236.0 0 lineto stroke
1.0 rotate
231.0 0 moveto
236.0 0 lineto stroke
1.0 rotate
231.0 0 moveto
236.0 0 lineto stroke
1.0 rotate
231.0 0 moveto
236.0 0 lineto stroke
1.0 rotate
231.0 0 moveto
236.0 0 lineto stroke
1.0 rotate
231.0 0 moveto
236.0 0 lineto stroke
1.0 rotate
231.0 0 moveto
236.0 0 lineto stroke
1.0 rotate
231.0 0 moveto
236.0 0 lineto stroke
1.0 rotate
231.0 0 moveto
236.0 0 lineto stroke
1.0 rotate
231.0 0 moveto
236.0 0 lineto stroke
1.0 rotate
231.0 0 moveto
236.0 0 lineto stroke
1.0 rotate
231.0 0 moveto
236.0 0 lineto stroke
1.0 rotate
231.0 0 moveto
236.0 0 lineto stroke
1.0 rotate
231.0 0 moveto
236.0 0 lineto stroke
1.0 rotate
231.0 0 moveto
236.0 0 lineto stroke
1.0 rotate
231.0 0 moveto
236.0 0 lineto stroke
1.0 rotate
231.0 0 moveto
236.0 0 lineto stroke
1.0 rotate
231.0 0 moveto
236.0 0 lineto stroke
1.0 rotate
231.0 0 moveto
236.0 0 lineto stroke
1.0 rotate
231.0 0 moveto
236.0 0 lineto stroke
1.0 rotate
231.0 0 moveto
236.0 0 lineto stroke
1.0 rotate
231.0 0 moveto
236.0 0 lineto stroke
1.0 rotate
231.0 0 moveto
236.0 0 lineto stroke
1.0 rotate
231.0 0 moveto
236.0 0 lineto stroke
1.0 rotate
231.0 0 moveto
236.0 0 lineto stroke
1.0 rotate
231.0 0 moveto
236.0 0 lineto stroke
1.0 rotate
231.0 0 moveto
236.0 0 lineto stroke
1.0 rotate
231.0 0 moveto
236.0 0 lineto stroke
1.0 rotate
231.0 0 moveto
236.0 0 lineto stroke
1.0 rotate
231.0 0 moveto
236.0 0 lineto stroke
1.0 rotate
231.0 0 moveto
236.0 0 lineto stroke
1.0 rotate
231.0 0 moveto
236.0 0 lineto stroke
1.0 rotate
231.0 0 moveto
236.0 0 lineto stroke
1.0 rotate
231.0 0 moveto
236.0 0 lineto stroke
1.0 rotate
231.0 0 moveto
236.0 0 lineto stroke
1.0 rotate
231.0 0 moveto
236.0 0 lineto stroke
1.0 rotate
231.0 0 moveto
236.0 0 lineto stroke
1.0 rotate
231.0 0 moveto
236.0 0 lineto stroke
1.0 rotate
231.0 0 moveto
236.0 0 lineto stroke
1.0 rotate
231.0 0 moveto
236.0 0 lineto stroke
1.0 rotate
231.0 0 moveto
236.0 0 lineto stroke
1.0 rotate
231.0 0 moveto
236.0 0 lineto stroke
1.0 rotate
231.0 0 moveto
236.0 0 lineto stroke
1.0 rotate
231.0 0 moveto
236.0 0 lineto stroke
1.0 rotate
231.0 0 moveto
236.0 0 lineto stroke
1.0 rotate
231.0 0 moveto
236.0 0 lineto stroke
1.0 rotate
231.0 0 moveto
236.0 0 lineto stroke
1.0 rotate
231.0 0 moveto
236.0 0 lineto stroke
1.0 rotate
231.0 0 moveto
236.0 0 lineto stroke
1.0 rotate
231.0 0 moveto
236.0 0 lineto stroke
1.0 rotate
231.0 0 moveto
236.0 0 lineto stroke
1.0 rotate
231.0 0 moveto
236.0 0 lineto stroke
1.0 rotate
231.0 0 moveto
236.0 0 lineto stroke
1.0 rotate
231.0 0 moveto
236.0 0 lineto stroke
1.0 rotate
231.0 0 moveto
236.0 0 lineto stroke
1.0 rotate
231.0 0 moveto
236.0 0 lineto stroke
1.0 rotate
231.0 0 moveto
236.0 0 lineto stroke
1.0 rotate
231.0 0 moveto
236.0 0 lineto stroke
1.0 rotate
231.0 0 moveto
236.0 0 lineto stroke
1.0 rotate
231.0 0 moveto
236.0 0 lineto stroke
1.0 rotate
231.0 0 moveto
236.0 0 lineto stroke
1.0 rotate
231.0 0 moveto
236.0 0 lineto stroke
1.0 rotate
231.0 0 moveto
236.0 0 lineto stroke
1.0 rotate
231.0 0 moveto
236.0 0 lineto stroke
1.0 rotate
231.0 0 moveto
236.0 0 lineto stroke
1.0 rotate
231.0 0 moveto
236.0 0 lineto stroke
1.0 rotate
231.0 0 moveto
236.0 0 lineto stroke
1.0 rotate
231.0 0 moveto
236.0 0 lineto stroke
1.0 rotate
231.0 0 moveto
236.0 0 lineto stroke
1.0 rotate
231.0 0 moveto
236.0 0 lineto stroke
1.0 rotate
231.0 0 moveto
236.0 0 lineto stroke
1.0 rotate
231.0 0 moveto
236.0 0 lineto stroke
1.0 rotate
231.0 0 moveto
236.0 0 lineto stroke
1.0 rotate
231.0 0 moveto
236.0 0 lineto stroke
1.0 rotate
231.0 0 moveto
236.0 0 lineto stroke
1.0 rotate
231.0 0 moveto
236.0 0 lineto stroke
1.0 rotate
231.0 0 moveto
236.0 0 lineto stroke
1.0 rotate
231.0 0 moveto
236.0 0 lineto stroke
1.0 rotate
231.0 0 moveto
236.0 0 lineto stroke
1.0 rotate
231.0 0 moveto
236.0 0 lineto stroke
1.0 rotate
231.0 0 moveto
236.0 0 lineto stroke
1.0 rotate
231.0 0 moveto
236.0 0 lineto stroke
1.0 rotate
231.0 0 moveto
236.0 0 lineto stroke
1.0 rotate
231.0 0 moveto
236.0 0 lineto stroke
1.0 rotate
231.0 0 moveto
236.0 0 lineto stroke
1.0 rotate
231.0 0 moveto
236.0 0 lineto stroke
1.0 rotate
231.0 0 moveto
236.0 0 lineto stroke
1.0 rotate
231.0 0 moveto
236.0 0 lineto stroke
1.0 rotate
231.0 0 moveto
236.0 0 lineto stroke
1.0 rotate
231.0 0 moveto
236.0 0 lineto stroke
1.0 rotate
231.0 0 moveto
236.0 0 lineto stroke
1.0 rotate
231.0 0 moveto
236.0 0 lineto stroke
1.0 rotate
231.0 0 moveto
236.0 0 lineto stroke
1.0 rotate
231.0 0 moveto
236.0 0 lineto stroke
1.0 rotate
231.0 0 moveto
236.0 0 lineto stroke
1.0 rotate
231.0 0 moveto
236.0 0 lineto stroke
1.0 rotate
231.0 0 moveto
236.0 0 lineto stroke
1.0 rotate
231.0 0 moveto
236.0 0 lineto stroke
1.0 rotate
231.0 0 moveto
236.0 0 lineto stroke
1.0 rotate
231.0 0 moveto
236.0 0 lineto stroke
1.0 rotate
231.0 0 moveto
236.0 0 lineto stroke
1.0 rotate
231.0 0 moveto
236.0 0 lineto stroke
1.0 rotate
231.0 0 moveto
236.0 0 lineto stroke
1.0 rotate
231.0 0 moveto
236.0 0 lineto stroke
1.0 rotate
231.0 0 moveto
236.0 0 lineto stroke
1.0 rotate
231.0 0 moveto
236.0 0 lineto stroke
1.0 rotate
231.0 0 moveto
236.0 0 lineto stroke
1.0 rotate
231.0 0 moveto
236.0 0 lineto stroke
1.0 rotate
231.0 0 moveto
236.0 0 lineto stroke
1.0 rotate
231.0 0 moveto
236.0 0 lineto stroke
1.0 rotate
231.0 0 moveto
236.0 0 lineto stroke
1.0 rotate
231.0 0 moveto
236.0 0 lineto stroke
1.0 rotate
231.0 0 moveto
236.0 0 lineto stroke
1.0 rotate
231.0 0 moveto
236.0 0 lineto stroke
1.0 rotate
231.0 0 moveto
236.0 0 lineto stroke
1.0 rotate
231.0 0 moveto
236.0 0 lineto stroke
1.0 rotate
231.0 0 moveto
236.0 0 lineto stroke
1.0 rotate
231.0 0 moveto
236.0 0 lineto stroke
1.0 rotate
231.0 0 moveto
236.0 0 lineto stroke
1.0 rotate
231.0 0 moveto
236.0 0 lineto stroke
1.0 rotate
231.0 0 moveto
236.0 0 lineto stroke
1.0 rotate
231.0 0 moveto
236.0 0 lineto stroke
1.0 rotate
231.0 0 moveto
236.0 0 lineto stroke
1.0 rotate
231.0 0 moveto
236.0 0 lineto stroke
1.0 rotate
236.0 0 moveto
216.0 0 lineto stroke
10.0 rotate
236.0 0 moveto
216.0 0 lineto stroke
10.0 rotate
236.0 0 moveto
216.0 0 lineto stroke
10.0 rotate
236.0 0 moveto
216.0 0 lineto stroke
10.0 rotate
236.0 0 moveto
216.0 0 lineto stroke
10.0 rotate
236.0 0 moveto
216.0 0 lineto stroke
10.0 rotate
236.0 0 moveto
216.0 0 lineto stroke
10.0 rotate
236.0 0 moveto
216.0 0 lineto stroke
10.0 rotate
236.0 0 moveto
216.0 0 lineto stroke
10.0 rotate
236.0 0 moveto
216.0 0 lineto stroke
10.0 rotate
236.0 0 moveto
216.0 0 lineto stroke
10.0 rotate
236.0 0 moveto
216.0 0 lineto stroke
10.0 rotate
236.0 0 moveto
216.0 0 lineto stroke
10.0 rotate
236.0 0 moveto
216.0 0 lineto stroke
10.0 rotate
236.0 0 moveto
216.0 0 lineto stroke
10.0 rotate
236.0 0 moveto
216.0 0 lineto stroke
10.0 rotate
236.0 0 moveto
216.0 0 lineto stroke
10.0 rotate
236.0 0 moveto
216.0 0 lineto stroke
10.0 rotate
236.0 0 moveto
216.0 0 lineto stroke
10.0 rotate
236.0 0 moveto
216.0 0 lineto stroke
10.0 rotate
236.0 0 moveto
216.0 0 lineto stroke
10.0 rotate
236.0 0 moveto
216.0 0 lineto stroke
10.0 rotate
236.0 0 moveto
216.0 0 lineto stroke
10.0 rotate
236.0 0 moveto
216.0 0 lineto stroke
10.0 rotate
236.0 0 moveto
216.0 0 lineto stroke
10.0 rotate
236.0 0 moveto
216.0 0 lineto stroke
10.0 rotate
236.0 0 moveto
216.0 0 lineto stroke
10.0 rotate
236.0 0 moveto
216.0 0 lineto stroke
10.0 rotate
236.0 0 moveto
216.0 0 lineto stroke
10.0 rotate
236.0 0 moveto
216.0 0 lineto stroke
10.0 rotate
236.0 0 moveto
216.0 0 lineto stroke
10.0 rotate
236.0 0 moveto
216.0 0 lineto stroke
10.0 rotate
236.0 0 moveto
216.0 0 lineto stroke
10.0 rotate
236.0 0 moveto
216.0 0 lineto stroke
10.0 rotate
236.0 0 moveto
216.0 0 lineto stroke
10.0 rotate
236.0 0 moveto
216.0 0 lineto stroke
10.0 rotate
5 rotate
226.0 0 moveto
236.0 0 lineto stroke
10.0 rotate
226.0 0 moveto
236.0 0 lineto stroke
10.0 rotate
226.0 0 moveto
236.0 0 lineto stroke
10.0 rotate
226.0 0 moveto
236.0 0 lineto stroke
10.0 rotate
226.0 0 moveto
236.0 0 lineto stroke
10.0 rotate
226.0 0 moveto
236.0 0 lineto stroke
10.0 rotate
226.0 0 moveto
236.0 0 lineto stroke
10.0 rotate
226.0 0 moveto
236.0 0 lineto stroke
10.0 rotate
226.0 0 moveto
236.0 0 lineto stroke
10.0 rotate
226.0 0 moveto
236.0 0 lineto stroke
10.0 rotate
226.0 0 moveto
236.0 0 lineto stroke
10.0 rotate
226.0 0 moveto
236.0 0 lineto stroke
10.0 rotate
226.0 0 moveto
236.0 0 lineto stroke
10.0 rotate
226.0 0 moveto
236.0 0 lineto stroke
10.0 rotate
226.0 0 moveto
236.0 0 lineto stroke
10.0 rotate
226.0 0 moveto
236.0 0 lineto stroke
10.0 rotate
226.0 0 moveto
236.0 0 lineto stroke
10.0 rotate
226.0 0 moveto
236.0 0 lineto stroke
10.0 rotate
226.0 0 moveto
236.0 0 lineto stroke
10.0 rotate
226.0 0 moveto
236.0 0 lineto stroke
10.0 rotate
226.0 0 moveto
236.0 0 lineto stroke
10.0 rotate
226.0 0 moveto
236.0 0 lineto stroke
10.0 rotate
226.0 0 moveto
236.0 0 lineto stroke
10.0 rotate
226.0 0 moveto
236.0 0 lineto stroke
10.0 rotate
226.0 0 moveto
236.0 0 lineto stroke
10.0 rotate
226.0 0 moveto
236.0 0 lineto stroke
10.0 rotate
226.0 0 moveto
236.0 0 lineto stroke
10.0 rotate
226.0 0 moveto
236.0 0 lineto stroke
10.0 rotate
226.0 0 moveto
236.0 0 lineto stroke
10.0 rotate
226.0 0 moveto
236.0 0 lineto stroke
10.0 rotate
226.0 0 moveto
236.0 0 lineto stroke
10.0 rotate
226.0 0 moveto
236.0 0 lineto stroke
10.0 rotate
226.0 0 moveto
236.0 0 lineto stroke
10.0 rotate
226.0 0 moveto
236.0 0 lineto stroke
10.0 rotate
226.0 0 moveto
236.0 0 lineto stroke
10.0 rotate
226.0 0 moveto
236.0 0 lineto stroke
10.0 rotate
-5 rotate
236.0 0 moveto
241.0 0 lineto stroke
15.0 rotate
236.0 0 moveto
241.0 0 lineto stroke
15.0 rotate
236.0 0 moveto
241.0 0 lineto stroke
15.0 rotate
236.0 0 moveto
241.0 0 lineto stroke
15.0 rotate
236.0 0 moveto
241.0 0 lineto stroke
15.0 rotate
236.0 0 moveto
241.0 0 lineto stroke
15.0 rotate
236.0 0 moveto
241.0 0 lineto stroke
15.0 rotate
236.0 0 moveto
241.0 0 lineto stroke
15.0 rotate
236.0 0 moveto
241.0 0 lineto stroke
15.0 rotate
236.0 0 moveto
241.0 0 lineto stroke
15.0 rotate
236.0 0 moveto
241.0 0 lineto stroke
15.0 rotate
236.0 0 moveto
241.0 0 lineto stroke
15.0 rotate
236.0 0 moveto
241.0 0 lineto stroke
15.0 rotate
236.0 0 moveto
241.0 0 lineto stroke
15.0 rotate
236.0 0 moveto
241.0 0 lineto stroke
15.0 rotate
236.0 0 moveto
241.0 0 lineto stroke
15.0 rotate
236.0 0 moveto
241.0 0 lineto stroke
15.0 rotate
236.0 0 moveto
241.0 0 lineto stroke
15.0 rotate
236.0 0 moveto
241.0 0 lineto stroke
15.0 rotate
236.0 0 moveto
241.0 0 lineto stroke
15.0 rotate
236.0 0 moveto
241.0 0 lineto stroke
15.0 rotate
236.0 0 moveto
241.0 0 lineto stroke
15.0 rotate
236.0 0 moveto
241.0 0 lineto stroke
15.0 rotate
236.0 0 moveto
241.0 0 lineto stroke
15.0 rotate
NormalFont8 setfont
(12) 10.0 -90.0 244.0 outsidecircletext
(11) 10.0 -75.0 244.0 outsidecircletext
(10) 10.0 -60.0 244.0 outsidecircletext
(9) 10.0 -45.0 244.0 outsidecircletext
(8) 10.0 -30.0 244.0 outsidecircletext
(7) 10.0 -15.0 244.0 outsidecircletext
(6) 10.0 0.0 244.0 outsidecircletext
(5) 10.0 15.0 244.0 outsidecircletext
(4) 10.0 30.0 244.0 outsidecircletext
(3) 10.0 45.0 244.0 outsidecircletext
(2) 10.0 60.0 244.0 outsidecircletext
(1) 10.0 75.0 244.0 outsidecircletext
(12) 10.0 -270.0 244.0 outsidecircletext
(11) 10.0 -255.0 244.0 outsidecircletext
(10) 10.0 -240.0 244.0 outsidecircletext
(9) 10.0 -225.0 244.0 outsidecircletext
(8) 10.0 -210.0 244.0 outsidecircletext
(7) 10.0 -195.0 244.0 outsidecircletext
(6) 10.0 -180.0 244.0 outsidecircletext
(5) 10.0 -165.0 244.0 outsidecircletext
(4) 10.0 -150.0 244.0 outsidecircletext
(3) 10.0 -135.0 244.0 outsidecircletext
(2) 10.0 -120.0 244.0 outsidecircletext
(1) 10.0 -105.0 244.0 outsidecircletext
NormalFont8 setfont
(10) 8.0 10.0 221.0 outsidecircletext
(20) 8.0 20.0 221.0 outsidecircletext
(30) 8.0 30.0 221.0 outsidecircletext
(40) 8.0 40.0 221.0 outsidecircletext
(50) 8.0 50.0 221.0 outsidecircletext
(60) 8.0 60.0 221.0 outsidecircletext
(70) 8.0 70.0 221.0 outsidecircletext
(80) 8.0 80.0 221.0 outsidecircletext
(90) 8.0 90.0 221.0 outsidecircletext
(10) 8.0 170.0 221.0 outsidecircletext
(20) 8.0 160.0 221.0 outsidecircletext
(30) 8.0 150.0 221.0 outsidecircletext
(40) 8.0 140.0 221.0 outsidecircletext
(50) 8.0 130.0 221.0 outsidecircletext
(60) 8.0 120.0 221.0 outsidecircletext
(70) 8.0 110.0 221.0 outsidecircletext
(80) 8.0 100.0 221.0 outsidecircletext
(10) 8.0 -10.0 221.0 outsidecircletext
(20) 8.0 -20.0 221.0 outsidecircletext
(30) 8.0 -30.0 221.0 outsidecircletext
(40) 8.0 -40.0 221.0 outsidecircletext
(50) 8.0 -50.0 221.0 outsidecircletext
(60) 8.0 -60.0 221.0 outsidecircletext
(70) 8.0 -70.0 221.0 outsidecircletext
(80) 8.0 -80.0 221.0 outsidecircletext
(90) 8.0 -90.0 221.0 outsidecircletext
(10) 8.0 -170.0 221.0 outsidecircletext
(20) 8.0 -160.0 221.0 outsidecircletext
(30) 8.0 -150.0 221.0 outsidecircletext
(40) 8.0 -140.0 221.0 outsidecircletext
(50) 8.0 -130.0 221.0 outsidecircletext
(60) 8.0 -120.0 221.0 outsidecircletext
(70) 8.0 -110.0 221.0 outsidecircletext
(80) 8.0 -100.0 221.0 outsidecircletext
(00) 8.0 0.0 221.0 outsidecircletext
(00) 8.0 180.0 221.0 outsidecircletext
%% ==================== End Create Mater Limb ====================

grestore

gsave
%% ==================== Build Plate ====================
%% Set Clipping
0 0 202.0 0 360 arc clip

%% Find center of page and mark it
0 0 5 0 360 arc stroke

%% draw The Tropics
newpath
%% ================ Draw Tropics =================
0 0 202.0 0 360 arc stroke
0 0 132.58828599945423 0 360 arc stroke
0 0 87.02798804095579 0 360 arc stroke
%% ================ End Tropics =================

%% Label the Plate
newpath
%% ================ Draw Front Labels =================
%% Label latitude of plate
NormalFont12 setfont
 0 -167.29414299972711 moveto
(58\260 28') dup stringwidth pop 2 div neg 0 rmoveto show

%% ================ End Front Labels =================

%% draw The Almucantars
newpath
%% ================ Draw Almucantars =================
newpath
.4 setlinewidth
0 81.33422848040703 155.54713210720448 0 360 arc stroke
newpath
.1 setlinewidth
0 67.56923305706998 127.25917554527868 0 360 arc stroke
newpath
.4 setlinewidth
0 58.04430154415983 104.31194970314067 0 360 arc stroke
%% Label Almucantar
NormalFont6 setfont
0 163.3562512473005 moveto
(2 0) dup stringwidth pop 2 div neg 0 rmoveto show
0 -45.26764815898084 moveto
(2 0) dup stringwidth pop 2 div neg 0 rmoveto show
newpath
.1 setlinewidth
0 51.26388573811035 84.90451990757948 0 360 arc stroke
newpath
.4 setlinewidth
0 46.3682790099852 67.93031061853871 0 360 arc stroke
%% Label Almucantar
NormalFont6 setfont
0 115.29858962852391 moveto
(4 0) dup stringwidth pop 2 div neg 0 rmoveto show
0 -20.56203160855351 moveto
(4 0) dup stringwidth pop 2 div neg 0 rmoveto show
newpath
.1 setlinewidth
0 42.83698122798419 52.65929149499978 0 360 arc stroke
newpath
.4 setlinewidth
0 40.344650773403266 38.57843641549585 0 360 arc stroke
%% Label Almucantar
NormalFont6 setfont
0 79.92308718889912 moveto
(6 0) dup stringwidth pop 2 div neg 0 rmoveto show
0 2.7662143579074154 moveto
(6 0) dup stringwidth pop 2 div neg 0 rmoveto show
newpath
.1 setlinewidth
0 38.68621020946435 25.30442824209319 0 360 arc stroke
newpath
.4 setlinewidth
0 37.73621746524144 12.531909583659706 0 360 arc stroke
[4 4] 0 setdash
0 92.7021546961376 176.31645057507006 280.832628179986 259.167371820014 arc stroke
0 107.57264398876127 201.23100396998336 0 360 arc stroke
0 127.58831657583656 232.0629932643817 0 360 arc stroke
[] 0 setdash
%% ================ End Almucantars =================

%% draw The azimuth Lines
newpath
%% ================ Draw Azimuth Lines =================
.1 setlinewidth
-4.1410736747333591E18 -216.14090294724946 4.1410736747333586E18 0.0 0.0 arc stroke
.1 setlinewidth
-1438.053495959428 -216.14090294724946 1460.237789112533 5.607017218280114 17.767657543025827 arc stroke
.1 setlinewidth
-696.6713405863931 -216.14090294724946 741.3821553730352 11.273051364495734 34.9714217426923 arc stroke
.1 setlinewidth
-439.1920201157758 -216.14090294724946 507.13526207955744 17.05903324594399 51.16239309874744 arc stroke
.1 setlinewidth
-302.19013525725944 -216.14090294724946 394.4812053291337 23.029789214482946 66.06922729379338 arc stroke
.1 setlinewidth
-212.76850568397498 -216.14090294724946 331.00903389804495 29.256148615116338 79.59550924295809 arc stroke
.1 setlinewidth
-146.39734003859198 -216.14090294724946 292.79468007718395 35.81720928150349 91.7761453353913 arc stroke
.1 setlinewidth
-92.29107007187424 -216.14090294724946 269.84103677190575 42.80273715061519 102.72446324321177 arc stroke
.1 setlinewidth
-44.71081478664224 -216.14090294724946 257.4793204706172 50.315561914717215 112.58917338518668 arc stroke
.4 setlinewidth
0.0 -216.14090294724946 253.56763103977877 58.473611111111104 121.5263888888889 arc stroke
.1 setlinewidth
44.71081478664224 -216.14090294724946 257.4793204706172 67.41082661481333 129.6844380852828 arc stroke
.1 setlinewidth
92.29107007187424 -216.14090294724946 269.84103677190575 77.27553675678824 137.19726284938483 arc stroke
.1 setlinewidth
146.39734003859198 -216.14090294724946 292.79468007718395 88.22385466460872 144.1827907184965 arc stroke
.1 setlinewidth
212.76850568397498 -216.14090294724946 331.00903389804495 100.40449075704194 150.74385138488367 arc stroke
.1 setlinewidth
302.19013525725944 -216.14090294724946 394.4812053291337 113.93077270620662 156.97021078551705 arc stroke
.1 setlinewidth
439.1920201157758 -216.14090294724946 507.13526207955744 128.83760690125257 162.94096675405603 arc stroke
.1 setlinewidth
696.6713405863931 -216.14090294724946 741.3821553730352 145.0285782573077 168.72694863550427 arc stroke
.1 setlinewidth
1438.053495959428 -216.14090294724946 1460.237789112533 162.2323424569742 174.3929827817199 arc stroke
%% ================ End Azimuth Lines =================

%% Clear zenith circle
1 setgray
0 37.73621746524144 12.531909583659706 0 360 arc fill
0 setgray
0 37.73621746524144 12.531909583659706 0 360 arc stroke
.4 setlinewidth
0.0 -216.14090294724946 253.56763103977877 58.473611111111104 121.5263888888889 arc stroke
.1 setlinewidth
%% draw compass points
.4 setlinewidth
newpath
-202.0 0 moveto
202.0 0 lineto
0 -202.0 moveto
0 202.0 lineto
stroke
.1 setlinewidth

%% ==================== End Build Plate ====================

grestore

%% Mark pivot
1 setgray
0 0 5 0 360 arc fill
0 setgray
0 0 5 0 360 arc stroke
newpath
-5 0 moveto
5 0 lineto stroke
newpath
0 5 moveto
0 -5 lineto stroke

% Eject the page
end cleartomark
showpage