%!PS-Adobe-3.0 EPSF-30.
%%BoundingBox: 0 0 612 792
%%Title: Astrolabe Rete
%%Creator: Richard Wymarc
%%CreationDate: Mon Dec 11 20:27:56 CET 2023
%%EndComments
%% Astrolabe Generator Postscript file
%% for Latitude: 58.47361111111111
%% for Longitude: -15.636944444444444

mark
/Astrolabe 10 dict def %local variable dictionary
Astrolabe begin

%% setup
.1 setlinewidth

%% ================ Set Up Fonts =================
/NormalFont /Times-Roman findfont
dup length dict begin {1 index /FID ne {def} {pop pop} ifelse} forall
/Encoding ISOLatin1Encoding def currentdict end
/Times-Roman-ISOLatin1 exch definefont
def
/NormalFont5 NormalFont 5 scalefont def
/NormalFont6 NormalFont 6 scalefont def
/NormalFont7 NormalFont 7 scalefont def
/NormalFont8 NormalFont 8 scalefont def
/NormalFont10 NormalFont 10 scalefont def
/NormalFont12 NormalFont 12 scalefont def
/NormalFont14 NormalFont 14 scalefont def
/NormalFont16 NormalFont 16 scalefont def
/NormalFont18 NormalFont 18 scalefont def
/NormalFont20 NormalFont 20 scalefont def
%% ================ End Set Up Fonts =================
%% ================ Set Up Circular Text Routine =================
/outsidecircletext
{ circtextdict begin
/radius exch def
/centerangle exch def
/ptsize exch def
/str exch def
/xradius radius ptsize 4 div add def

gsave
centerangle str findhalfangle add rotate

str
{ /charcode exch def
( ) dup 0 charcode put outsideplacechar
} forall
grestore
end
} def

/insidecircletext
{ circtextdict begin
/radius exch def /centerangle exch def
/ptsize exch def /str exch def
/xradius radius ptsize 3 div sub def
gsave
centerangle str findhalfangle sub rotate
str
{ /charcode exch def
( ) dup 0 charcode put insideplacechar
} forall
grestore
end
} def

/circtextdict 16 dict def
circtextdict begin
/findhalfangle
{ stringwidth pop 2 div
2 xradius mul pi mul div 360 mul
} def

/outsideplacechar
{ /char exch def
/halfangle char findhalfangle def
gsave
halfangle neg rotate
radius 0 translate
-90 rotate
char stringwidth pop 2 div neg 0 moveto
char show
grestore
halfangle 2 mul neg rotate
} def

/insideplacechar
{ /char exch def
/halfangle char findhalfangle def
gsave
halfangle rotate
radius 0 translate
90 rotate
char stringwidth pop 2 div neg 0 moveto
char show
grestore
halfangle 2 mul rotate
} def
/pi 3.1415923 def
end

%% ================ End Circular Text Routine =================
%% ================ Set Up Rotated Text Routine =================
% text rotation function
% x y fontsize rotation (text) outputtext
% ex: 20 300 12 80 (text1) outputtext
/outputtext {
   /data exch def
   /rot exch def
   /xfont exch def
   /y1 exch def
   /x1 exch def
   /Times-Roman findfont
   xfont scalefont
   setfont
   x1 y1 moveto
   rot rotate
   data show
   rot neg rotate
} def

gsave
%% ================ Draw Registration Marks =================
% Fill Background
1 setgray
newpath
0 0 moveto
0 792 lineto
612 792 lineto
612 0 lineto
0 0 lineto
fill
0 setgray
% Registration Marks
.1 setlinewidth
36 36 5 0 360 arc stroke
30 36 moveto
50 36 lineto stroke
36 30 moveto
36 50 lineto stroke
576 36 5 0 360 arc stroke
582 36 moveto
562 36 lineto stroke
576 30 moveto
576 50 lineto stroke
576 756 5 0 360 arc stroke
582 756 moveto
562 756 lineto stroke
576 762 moveto
576 742 lineto stroke
36 756 5 0 360 arc stroke
30 756 moveto
50 756 lineto stroke
36 762 moveto
36 742 lineto stroke
%% ================ End Registration Marks =================
grestore
gsave
306 396 translate

%% ==================== Create Rete ====================

%% Mark pivot
1 setgray
0 0 5 0 360 arc fill
0 setgray
0 0 5 0 360 arc stroke
newpath
-5 0 moveto
5 0 lineto stroke
newpath
0 5 moveto
0 -5 lineto stroke

0 setgray
0 0 216.0 0 360 arc stroke
%% ==================== End Create Rete ====================

%% ================ Draw Stars =================
newpath
-53.18277980041325 100.13866848704993 1 0 360 arc fill
newpath
%% Label Star
NormalFont6 setfont
-53.18277980041325 100.13866848704993 moveto
( Altair) show
newpath
-9.667620530724335 -52.6599519555638 1 0 360 arc fill
newpath
%% Label Star
NormalFont6 setfont
-9.667620530724335 -52.6599519555638 moveto
( Capella) show
newpath
78.12435095037779 53.0630175282108 1 0 360 arc fill
newpath
%% Label Star
NormalFont6 setfont
78.12435095037779 53.0630175282108 moveto
( Arcturus) show
newpath
35.68961076387503 -174.7322345210432 1 0 360 arc fill
newpath
%% Label Star
NormalFont6 setfont
35.68961076387503 -174.7322345210432 moveto
( Sirius) show
newpath
51.442596550512725 -109.66532615917964 1 0 360 arc fill
newpath
%% Label Star
NormalFont6 setfont
51.442596550512725 -109.66532615917964 moveto
( Procyon) show
newpath
-35.38687638289052 41.35421242433973 1 0 360 arc fill
newpath
%% Label Star
NormalFont6 setfont
-35.38687638289052 41.35421242433973 moveto
( Deneb) show
newpath
-10.404228505460809 62.66156568717478 1 0 360 arc fill
newpath
%% Label Star
NormalFont6 setfont
-10.404228505460809 62.66156568717478 moveto
( Vega) show
newpath
-1.8206620960105417 -116.44837139020626 1 0 360 arc fill
newpath
%% Label Star
NormalFont6 setfont
-1.8206620960105417 -116.44837139020626 moveto
( Betelg) show
newpath
-29.427846884221214 -150.14462369173452 1 0 360 arc fill
newpath
%% Label Star
NormalFont6 setfont
-29.427846884221214 -150.14462369173452 moveto
( Rigel) show
newpath
-17.345093489524462 -117.33754318486656 1 0 360 arc fill
newpath
%% Label Star
NormalFont6 setfont
-17.345093489524462 -117.33754318486656 moveto
( Bellatrix) show
newpath
-98.32998871499679 23.648957526429058 1 0 360 arc fill
newpath
%% Label Star
NormalFont6 setfont
-98.32998871499679 23.648957526429058 moveto
( Markab) show
newpath
-34.94561171196418 -92.53074703180776 1 0 360 arc fill
newpath
%% Label Star
NormalFont6 setfont
-34.94561171196418 -92.53074703180776 moveto
( Aldeb) show
newpath
150.29378316579246 59.51128696525201 1 0 360 arc fill
newpath
%% Label Star
NormalFont6 setfont
150.29378316579246 59.51128696525201 moveto
( Spica) show
newpath
39.575848286707114 9.689122659151161 1 0 360 arc fill
newpath
%% Label Star
NormalFont6 setfont
39.575848286707114 9.689122659151161 moveto
( Alioth) show
newpath
122.11052761920502 -94.78875692165695 1 0 360 arc fill
newpath
%% Label Star
NormalFont6 setfont
122.11052761920502 -94.78875692165695 moveto
( Aliphard) show
newpath
48.19426432392379 66.12687031786669 1 0 360 arc fill
newpath
%% Label Star
NormalFont6 setfont
48.19426432392379 66.12687031786669 moveto
( Alpheca) show
newpath
11.113836456882284 105.7428190195524 1 0 360 arc fill
newpath
%% Label Star
NormalFont6 setfont
11.113836456882284 105.7428190195524 moveto
( Rosalhague) show
%% ================ END Stars =================
%% ================ Draw Ecliptic Zodiac =================
newpath
%% Draw Zodiac
0 57.486005979522105 translate
0 setgray
0 0 144.5139940204779 0 360 arc stroke
0 -57.486005979522105 translate
newpath
-216.0 0.0 moveto
-112.58828599945423 0.0 lineto stroke
newpath
-131.65408846569298 -2.1084187430826917 moveto
-126.6547295298786 -2.0283548255354393 lineto stroke
newpath
-130.6931276915665 -4.187333819345701 moveto
-125.69569203076955 -4.027218810071082 lineto stroke
newpath
-129.70623030520375 -6.2367394710951265 moveto
-124.71200037755897 -5.996599033398528 lineto stroke
newpath
-128.69420376568624 -8.25664672682029 moveto
-123.70446244024123 -7.93651940036019 lineto stroke
newpath
-127.65783644276824 -10.247082407928206 moveto
-120.68027944805439 -9.686994570602963 lineto stroke
newpath
-126.5978977249087 -12.208088170443524 moveto
-121.62098465821558 -11.728154501506557 lineto stroke
newpath
-125.51513815326356 -14.139719581325668 moveto
-120.54656635807434 -13.57999257996688 lineto stroke
newpath
-124.41028957940539 -16.042045228973908 moveto
-119.45134514558421 -15.402615715834166 lineto stroke
newpath
-123.28406534465431 -17.91514586742071 moveto
-118.33603553883451 -17.19611802323182 lineto stroke
newpath
-122.1371604790164 -19.75911359365036 moveto
-112.26550728281455 -18.16209663258888 lineto stroke
newpath
-120.97025191783803 -21.574051057426253 moveto
-116.04791854879247 -20.696193321810444 lineto stroke
newpath
-119.78399873439012 -23.360070702963537 moveto
-114.87645017717165 -22.40300897112857 lineto stroke
newpath
-118.57904238670338 -25.117294041742916 moveto
-113.68757189567212 -24.081187659477838 lineto stroke
newpath
-117.35600697707414 -26.84585095572892 moveto
-112.48190957771659 -25.730873583054496 lineto stroke
newpath
-116.11549952275838 -28.545879030228896 moveto
-109.31790113040911 -26.87475482888098 lineto stroke
newpath
-114.85811023646654 -30.217522915605148 moveto
-110.02265160870364 -28.945383041537323 lineto stroke
newpath
-113.58441281535968 -31.86093371703758 moveto
-108.77022379846183 -30.510532254664263 lineto stroke
newpath
-112.29496473733583 -33.47626841151997 moveto
-107.50334819067515 -32.04783889986472 lineto stroke
newpath
-110.99030756347575 -35.06368929126622 moveto
-106.22256842222244 -33.55748097866101 lineto stroke
newpath
-109.67096724559936 -36.623363432696316 moveto
-100.18585782680908 -33.455919776752914 lineto stroke
newpath
-108.33745443795597 -38.155462190171605 moveto
-103.62139327617545 -36.49450851280871 lineto stroke
newpath
-106.99026481214582 -39.66016071365025 moveto
-102.30200838261328 -37.92227359103647 lineto stroke
newpath
-105.62987937443685 -41.137637489438426 moveto
-100.97074089078374 -39.32313243567236 lineto stroke
newpath
-104.25676478470619 -42.588073903218586 moveto
-99.62805942923673 -40.697283927507826 lineto stroke
newpath
-102.87137367629714 -44.011653824546094 moveto
-96.43563645499428 -41.25824023077979 lineto stroke
newpath
-101.4741449761399 -45.40856321201522 moveto
-96.91025886739097 -43.36627440130098 lineto stroke
newpath
-100.06550422453951 -46.77898973830922 moveto
-95.53600767216093 -44.66152404036026 lineto stroke
newpath
-98.64586389408643 -48.12312243436121 moveto
-94.15207890826633 -45.93088693122341 lineto stroke
newpath
-97.21562370719376 -49.44115135186881 moveto
-92.75887362395748 -47.17457271975091 lineto stroke
newpath
-95.77517095181096 -50.73326724342146 moveto
-78.10160806236244 -41.37136707343949 lineto stroke
newpath
-94.32488079490689 -51.999661259515754 moveto
-89.9461747832207 -49.58575702296799 lineto stroke
newpath
-92.86511659335682 -53.24052466175177 moveto
-88.5274212748367 -50.753679406475804 lineto stroke
newpath
-91.39623020190439 -54.45604855152186 moveto
-87.10087190397886 -51.89677187784192 lineto stroke
newpath
-89.91856227790626 -55.6464236135217 moveto
-85.66686735544447 -53.01524701619635 lineto stroke
newpath
-88.43244258260013 -56.81183987343286 moveto
-82.54305486480071 -53.028308149047135 lineto stroke
newpath
-86.93819027866807 -57.95248646914437 moveto
-82.77779951011519 -55.17919444468319 lineto stroke
newpath
-85.43611422389655 -59.0685514349009 moveto
-81.32336242282015 -56.22509005433972 lineto stroke
newpath
-83.92651326076013 -60.16022149778451 moveto
-79.86272309559078 -57.24721454731687 lineto stroke
newpath
-82.40967650178379 -61.227681885955576 moveto
-78.39616860916377 -58.245777394548 lineto stroke
newpath
-80.88588361055903 -62.271116148098415 moveto
-72.96206855912293 -56.17085754451163 lineto stroke
newpath
-79.35540507831342 -63.29070598353603 moveto
-75.44641292705803 -60.17304975466413 lineto stroke
newpath
-77.81850249595158 -64.28663108249727 moveto
-73.96373706110795 -61.10217140425753 lineto stroke
newpath
-76.2754288215055 -65.2590689760384 moveto
-72.47619716605202 -62.00855535074777 lineto stroke
newpath
-74.72642864294843 -66.20819489513917 moveto
-70.98403290287305 -62.89240326648312 lineto stroke
newpath
-73.17173843634362 -67.13418163851206 moveto
-68.01376981859418 -62.40180805453626 lineto stroke
newpath
-71.61158681931208 -68.0371994486809 moveto
-67.9867461619622 -64.59328739858098 lineto stroke
newpath
-70.04619479981969 -68.91741589590195 moveto
-66.4820599043223 -65.41071624427825 lineto stroke
newpath
-68.47577602029399 -69.77499576951826 moveto
-64.97362214331957 -66.20639405147897 lineto stroke
newpath
-66.9005369970933 -70.61010097635408 moveto
-63.46163071209259 -66.98051097705903 lineto stroke
newpath
-65.32067735536224 -71.4228904457727 moveto
-58.57187404590544 -64.04361853790365 lineto stroke
newpath
-63.736390059315504 -72.2135200410363 moveto
-60.42773965400947 -68.46480926325306 lineto stroke
newpath
-62.1478616380019 -72.98214247662213 moveto
-58.90619776700356 -69.17535704170936 lineto stroke
newpath
-60.55527240660743 -73.7289072411644 moveto
-57.381818075406265 -69.86507655028512 lineto stroke
newpath
-58.95879668336497 -74.45396052570464 moveto
-55.85476164417812 -70.53414337748202 lineto stroke
newpath
-57.35860300214297 -75.15744515694857 moveto
-53.11181465296795 -69.59284375906647 lineto stroke
newpath
-55.75485432079238 -75.83950053524026 moveto
-52.7932290775853 -71.8110050445144 lineto stroke
newpath
-54.14770822533658 -76.5002625769779 moveto
-51.259041872634334 -72.41913446054171 lineto stroke
newpath
-52.53731713009317 -77.13986366120754 moveto
-49.72275614732459 -73.00728015034214 lineto stroke
newpath
-50.923828473821125 -77.75843258014498 moveto
-48.18450084297306 -73.57560050954112 lineto stroke
newpath
-49.30738491199091 -78.35609449338538 moveto
-38.65544129410955 -61.428717343883555 lineto stroke
newpath
-47.68812450527853 -78.93297088557456 moveto
-45.10256796898019 -74.65338008765883 lineto stroke
newpath
-46.06618090438674 -79.48917952732448 moveto
-43.559119507852074 -75.16313709179457 lineto stroke
newpath
-44.44168353130089 -80.02483443916786 moveto
-42.01416002877178 -75.65366415597495 lineto stroke
newpath
-42.81475775708693 -80.54004585835625 moveto
-40.467790731651505 -76.1251001303185 lineto stroke
newpath
-41.185525076344064 -81.03492020831622 moveto
-38.013940865062246 -74.79464348442426 lineto stroke
newpath
-39.55410327842424 -81.50956007058781 moveto
-37.37120248466654 -77.01123325669224 lineto stroke
newpath
-37.92060661553195 -81.96406415907911 moveto
-35.82116144924666 -77.4261869027222 lineto stroke
newpath
-36.28514596782151 -82.3985272964788 moveto
-34.27006676737353 -77.82256228176092 lineto stroke
newpath
-34.64782900560759 -82.81304039267852 moveto
-32.71799618210814 -78.20047654235144 lineto stroke
newpath
-33.00876034880701 -83.20769042506367 moveto
-29.32128617444053 -73.91239407619021 lineto stroke
newpath
-31.368041723730382 -83.58256042054106 moveto
-29.611217573365842 -78.90136731357613 lineto stroke
newpath
-29.72577211734315 -83.93772943917804 moveto
-28.05664485942061 -79.22455490423242 lineto stroke
newpath
-28.08204792911456 -84.27327255933628 moveto
-26.50136721323649 -79.52970338892766 lineto stroke
newpath
-26.43696312057625 -84.58926086419005 moveto
-24.945443257820255 -79.8169062567657 lineto stroke
newpath
-24.79060936271029 -84.88576142952647 moveto
-22.828255910633953 -78.16644830026064 lineto stroke
newpath
-23.143076181286343 -85.1628373127314 moveto
-21.831874639421482 -80.33782430584621 lineto stroke
newpath
-21.494451100270624 -85.42054754287167 moveto
-20.274331496568376 -80.57170147884145 lineto stroke
newpath
-19.844819783426228 -85.65894711179041 moveto
-18.71634545279167 -80.78795689571537 lineto stroke
newpath
-18.19426617422614 -85.87808696613891 moveto
-17.15796050940827 -80.98665869118011 lineto stroke
newpath
-16.542872634200524 -86.07801400027415 moveto
-14.655563969061497 -76.25772551151319 lineto stroke
newpath
-14.89072007983781 -86.25877104995689 moveto
-14.040158288704815 -81.33164768642473 lineto stroke
newpath
-13.23788811816221 -86.42039688679145 moveto
-12.480817945708157 -81.47804473887844 lineto stroke
newpath
-11.58445518110724 -86.56292621335338 moveto
-10.921232956944381 -81.60710778635502 lineto stroke
newpath
-9.930498658806455 -86.68638965895705 moveto
-9.361437410825205 -81.71887828040481 lineto stroke
newpath
-8.276095031921871 -86.79081377602049 moveto
-7.611611581818072 -79.82242359287646 lineto stroke
newpath
-6.621320003131098 -86.87622103698958 moveto
-6.241344199532292 -81.8906801045852 lineto stroke
newpath
-4.966248627892333 -86.94262983179019 moveto
-4.681108504172831 -81.95076694206202 lineto stroke
newpath
-3.3109554446096805 -86.99005446577982 moveto
-3.1207865892397346 -81.99367219393079 lineto stroke
newpath
-1.6555146043166231 -87.01850515817773 moveto
-1.5604075302610099 -82.01940977556454 lineto stroke
newpath
0.0 -87.02798804095579 moveto
0.0 -67.02798804095579 lineto stroke
newpath
1.655514604316588 -87.01850515817773 moveto
1.5604075302609797 -82.01940977556454 lineto stroke
newpath
3.3109554446096436 -86.99005446577978 moveto
3.1207865892396303 -81.99367219393075 lineto stroke
newpath
4.9662486278922975 -86.94262983179017 moveto
4.681108504172727 -81.950766942062 lineto stroke
newpath
6.621320003131065 -86.87622103698958 moveto
6.2413441995322625 -81.8906801045852 lineto stroke
newpath
8.276095031921836 -86.79081377602047 moveto
7.611611581817969 -79.82242359287643 lineto stroke
newpath
9.930498658806423 -86.68638965895707 moveto
9.361437410825104 -81.71887828040484 lineto stroke
newpath
11.584455181107206 -86.56292621335339 moveto
10.92123295694428 -81.60710778635506 lineto stroke
newpath
13.237888118162173 -86.42039688679145 moveto
12.480817945708054 -81.47804473887845 lineto stroke
newpath
14.890720079837774 -86.2587710499569 moveto
14.040158288704712 -81.33164768642473 lineto stroke
newpath
16.542872634200492 -86.07801400027417 moveto
14.655563969061404 -76.25772551151321 lineto stroke
newpath
18.194266174226104 -85.87808696613892 moveto
17.157960509408166 -80.98665869118014 lineto stroke
newpath
19.844819783426185 -85.65894711179038 moveto
18.71634545279156 -80.78795689571534 lineto stroke
newpath
21.49445110027059 -85.42054754287166 moveto
20.27433149656834 -80.57170147884142 lineto stroke
newpath
23.143076181286304 -85.1628373127314 moveto
21.831874639421454 -80.33782430584621 lineto stroke
newpath
24.79060936271025 -84.88576142952645 moveto
22.828255910633917 -78.16644830026063 lineto stroke
newpath
26.436963120576216 -84.58926086419007 moveto
24.945443257820227 -79.81690625676572 lineto stroke
newpath
28.08204792911452 -84.27327255933626 moveto
26.50136721323638 -79.52970338892766 lineto stroke
newpath
29.72577211734312 -83.93772943917806 moveto
28.056644859420583 -79.22455490423242 lineto stroke
newpath
31.368041723730354 -83.58256042054109 moveto
29.611217573365753 -78.90136731357619 lineto stroke
newpath
33.00876034880697 -83.20769042506367 moveto
29.321286174440502 -73.91239407619021 lineto stroke
newpath
34.64782900560755 -82.81304039267852 moveto
32.71799618210803 -78.20047654235147 lineto stroke
newpath
36.285145967821485 -82.39852729647883 moveto
34.270066767373436 -77.822562281761 lineto stroke
newpath
37.920606615531916 -81.96406415907911 moveto
35.82116144924656 -77.42618690272224 lineto stroke
newpath
39.554103278424215 -81.50956007058784 moveto
37.37120248466644 -77.01123325669228 lineto stroke
newpath
41.18552507634404 -81.03492020831625 moveto
38.01394086506216 -74.79464348442431 lineto stroke
newpath
42.814757757086895 -80.54004585835627 moveto
40.4677907316514 -76.12510013031854 lineto stroke
newpath
44.44168353130087 -80.02483443916789 moveto
42.01416002877169 -75.65366415597502 lineto stroke
newpath
46.066180904386705 -79.48917952732451 moveto
43.559119507851975 -75.16313709179462 lineto stroke
newpath
47.68812450527849 -78.93297088557455 moveto
45.10256796898008 -74.65338008765886 lineto stroke
newpath
49.30738491199088 -78.35609449338541 moveto
38.65544129410954 -61.428717343883584 lineto stroke
newpath
50.9238284738211 -77.758432580145 moveto
48.18450084297296 -73.57560050954116 lineto stroke
newpath
52.537317130093165 -77.13986366120758 moveto
49.72275614732451 -73.00728015034223 lineto stroke
newpath
54.147708225336544 -76.50026257697792 moveto
51.2590418726343 -72.41913446054174 lineto stroke
newpath
55.754854320792354 -75.83950053524026 moveto
52.7932290775852 -71.81100504451446 lineto stroke
newpath
57.358603002142935 -75.15744515694858 moveto
53.11181465296793 -69.5928437590665 lineto stroke
newpath
58.958796683364945 -74.45396052570466 moveto
55.85476164417802 -70.53414337748208 lineto stroke
newpath
60.55527240660739 -73.7289072411644 moveto
57.38181807540616 -69.86507655028518 lineto stroke
newpath
62.147861638001885 -72.98214247662216 moveto
58.90619776700355 -69.17535704170939 lineto stroke
newpath
63.736390059315475 -72.21352004103632 moveto
60.427739654009414 -68.4648092632531 lineto stroke
newpath
65.32067735536222 -71.42289044577274 moveto
58.57187404590544 -64.0436185379037 lineto stroke
newpath
66.90053699709324 -70.61010097635413 moveto
63.46163071209251 -66.98051097705911 lineto stroke
newpath
68.47577602029399 -69.77499576951826 moveto
64.97362214331952 -66.20639405147901 lineto stroke
newpath
70.0461947998197 -68.91741589590195 moveto
66.48205990432224 -65.4107162442783 lineto stroke
newpath
71.61158681931202 -68.0371994486809 moveto
67.9867461619621 -64.59328739858105 lineto stroke
newpath
73.17173843634357 -67.13418163851208 moveto
68.01376981859408 -62.40180805453634 lineto stroke
newpath
74.72642864294843 -66.20819489513921 moveto
70.98403290287298 -62.892403266483235 lineto stroke
newpath
76.27542882150544 -65.25906897603845 moveto
72.47619716605195 -62.008555350747805 lineto stroke
newpath
77.81850249595152 -64.28663108249734 moveto
73.96373706110786 -61.10217140425762 lineto stroke
newpath
79.35540507831342 -63.29070598353603 moveto
75.44641292705798 -60.17304975466419 lineto stroke
newpath
80.885883610559 -62.27111614809844 moveto
72.96206855912287 -56.170857544511684 lineto stroke
newpath
82.40967650178379 -61.227681885955576 moveto
78.39616860916375 -58.24577739454803 lineto stroke
newpath
83.9265132607601 -60.16022149778453 moveto
79.86272309559072 -57.24721454731693 lineto stroke
newpath
85.43611422389652 -59.068551434900925 moveto
81.32336242282014 -56.225090054339745 lineto stroke
newpath
86.93819027866803 -57.95248646914438 moveto
82.7777995101151 -55.179194444683276 lineto stroke
newpath
88.43244258260006 -56.811839873432916 moveto
82.5430548648006 -53.028308149047255 lineto stroke
newpath
89.9185622779062 -55.64642361352175 moveto
85.6668673554444 -53.01524701619644 lineto stroke
newpath
91.39623020190439 -54.45604855152185 moveto
87.10087190397883 -51.89677187784196 lineto stroke
newpath
92.8651165933568 -53.2405246617518 moveto
88.52742127483666 -50.753679406475875 lineto stroke
newpath
94.32488079490686 -51.99966125951578 moveto
89.94617478322066 -49.58575702296807 lineto stroke
newpath
95.77517095181094 -50.73326724342148 moveto
78.1016080623624 -41.371367073439544 lineto stroke
newpath
97.21562370719373 -49.44115135186884 moveto
92.75887362395743 -47.174572719750984 lineto stroke
newpath
98.64586389408639 -48.12312243436124 moveto
94.15207890826629 -45.93088693122344 lineto stroke
newpath
100.06550422453945 -46.77898973830929 moveto
95.53600767216082 -44.66152404036041 lineto stroke
newpath
101.47414497613984 -45.40856321201528 moveto
96.9102588673909 -43.3662744013011 lineto stroke
newpath
102.87137367629714 -44.011653824546094 moveto
96.43563645499428 -41.258240230779826 lineto stroke
newpath
104.25676478470618 -42.588073903218636 moveto
99.62805942923671 -40.69728392750786 lineto stroke
newpath
105.62987937443683 -41.137637489438454 moveto
100.97074089078369 -39.32313243567244 lineto stroke
newpath
106.99026481214582 -39.660160713650285 moveto
102.30200838261325 -37.92227359103656 lineto stroke
newpath
108.33745443795593 -38.15546219017164 moveto
103.62139327617538 -36.49450851280878 lineto stroke
newpath
109.67096724559929 -36.62336343269639 moveto
100.18585782680898 -33.45591977675307 lineto stroke
newpath
110.99030756347577 -35.0636892912662 moveto
106.22256842222242 -33.55748097866105 lineto stroke
newpath
112.2949647373358 -33.476268411519946 moveto
107.50334819067513 -32.0478388998647 lineto stroke
newpath
113.58441281535966 -31.860933717037614 moveto
108.77022379846179 -30.510532254664344 lineto stroke
newpath
114.85811023646653 -30.21752291560519 moveto
110.02265160870363 -28.94538304153736 lineto stroke
newpath
116.11549952275836 -28.54587903022892 moveto
109.31790113040908 -26.874754828881063 lineto stroke
newpath
117.35600697707412 -26.845850955728952 moveto
112.48190957771656 -25.730873583054535 lineto stroke
newpath
118.57904238670338 -25.11729404174295 moveto
113.68757189567211 -24.08118765947788 lineto stroke
newpath
119.78399873439005 -23.360070702963615 moveto
114.87645017717159 -22.403008971128656 lineto stroke
newpath
120.97025191783804 -21.574051057426246 moveto
116.04791854879247 -20.696193321810544 lineto stroke
newpath
122.13716047901643 -19.75911359365036 moveto
112.26550728281457 -18.162096632588973 lineto stroke
newpath
123.2840653446543 -17.915145867420748 moveto
118.3360355388345 -17.196118023231914 lineto stroke
newpath
124.41028957940537 -16.042045228973944 moveto
119.45134514558421 -15.402615715834264 lineto stroke
newpath
125.51513815326355 -14.139719581325704 moveto
120.54656635807433 -13.579992579966925 lineto stroke
newpath
126.59789772490866 -12.208088170443608 moveto
121.62098465821553 -11.728154501506706 lineto stroke
newpath
127.65783644276821 -10.24708240792825 moveto
120.68027944805436 -9.686994570603005 lineto stroke
newpath
128.69420376568618 -8.256646726820382 moveto
123.70446244024119 -7.936519400360399 lineto stroke
newpath
129.7062303052038 -6.236739471095128 moveto
124.71200037755902 -5.996599033398577 lineto stroke
newpath
130.69312769156653 -4.187333819345695 moveto
125.69569203076958 -4.027218810071185 lineto stroke
newpath
131.65408846569295 -2.108418743082732 moveto
126.65472952987857 -2.028354825535598 lineto stroke
newpath
132.58828599945423 0.0 moveto
112.58828599945423 0.0 lineto stroke
newpath
133.494874446737 2.1378988375371386 moveto
128.49551551104696 2.057834912226605 lineto stroke
newpath
134.37298872788244 4.305235318623491 moveto
129.37555306807945 4.1451202783254555 lineto stroke
newpath
135.22174455021687 6.501947014521903 moveto
130.22751462592308 6.261806507134507 lineto stroke
newpath
136.04023846751147 8.727950384027611 moveto
131.05049714999734 8.407822933951168 lineto stroke
newpath
136.82754798133234 10.983139603706894 moveto
129.84999100826158 10.423051496752656 lineto stroke
newpath
137.5827316873606 13.267385363378047 moveto
132.60581864731662 12.787451418089542 lineto stroke
newpath
138.30482946988346 15.580533627367515 moveto
133.3362577168909 15.020806251438493 lineto stroke
newpath
138.99286274777114 17.92240436225313 moveto
134.0339183767289 17.282974362246428 lineto stroke
newpath
139.6458347753669 20.29279023200099 moveto
134.69780505859745 19.57376177500743 lineto stroke
newpath
140.26273100182223 22.691455261612887 moveto
130.3910780488996 21.09443679676849 lineto stroke
newpath
140.84251949251205 25.118133470627843 moveto
135.92018628461304 24.240274831429865 lineto stroke
newpath
141.3841514174384 27.572527478065684 moveto
136.47660306835766 26.61546467895852 lineto stroke
newpath
141.88656160212147 30.054307080656855 moveto
136.9950913742411 29.018199456054234 lineto stroke
newpath
142.34866916978115 32.56310780649763 moveto
137.47457209710055 31.448129005763423 lineto stroke
newpath
142.76937823719655 35.0985294465331 moveto
135.97178040368883 33.42740297199824 lineto stroke
newpath
143.14757870977107 37.660134566626624 moveto
138.3121205630574 36.38799286407125 lineto stroke
newpath
143.48214715487467 40.24744700327269 moveto
138.66795871064963 38.897043499319174 lineto stroke
newpath
143.77194776578241 42.85995034637764 moveto
138.98033189348223 41.43151857260585 lineto stroke
newpath
144.01583341902264 45.49708641289481 moveto
139.24809506414783 43.99087561109585 lineto stroke
newpath
144.21264682908873 48.158253715485856 moveto
134.72753922817844 44.99080461579162 lineto stroke
newpath
144.3612218044137 50.842805930780855 moveto
139.64516168483559 49.18184929422324 lineto stroke
newpath
144.46038460840433 53.55005037222438 moveto
139.77212936513763 51.812160049453006 lineto stroke
newpath
144.50895542921887 56.27924647292588 moveto
139.84981828673676 54.46473797541378 lineto stroke
newpath
144.50574996180592 59.02960428437303 moveto
139.87704611323392 57.13881061974046 lineto stroke
newpath
144.4495811055346 61.8002829973209 moveto
138.0138462409388 59.046863895072576 lineto stroke
newpath
144.33926078050845 64.59038949162932 moveto
139.77537654217772 62.548096501111964 lineto stroke
newpath
144.17360186538505 67.39897692228942 moveto
139.64410738085996 65.28150680097562 lineto stroke
newpath
143.9514202592002 70.22504334934908 moveto
139.45763754877018 68.03280318197683 lineto stroke
newpath
143.6715370693307 73.067530419918 moveto
139.21478947877782 70.80094688646923 lineto stroke
newpath
143.33278092731558 75.92532211089949 moveto
125.65922891515447 66.56340140660829 lineto stroke
newpath
142.93399043378506 78.79724354155434 moveto
138.55528737692563 76.38333394510087 lineto stroke
newpath
142.4740167332278 81.68205986544847 moveto
138.13632461336024 79.19520903091119 lineto stroke
newpath
141.9517262187508 84.57847525176699 moveto
137.65637137101237 82.0191927874794 lineto stroke
newpath
141.36600336635112 87.4851319663824 moveto
137.1143121526419 84.85394937612608 lineto stroke
newpath
140.71575369752995 90.40060956344519 moveto
134.82637154277973 86.61706917971598 lineto stroke
newpath
139.99990686832933 93.32342419861025 moveto
135.83952034371995 90.55012580755157 lineto stroke
newpath
139.21741988206472 96.25202807531645 moveto
135.10467259988474 93.40856015868349 lineto stroke
newpath
138.36728042216103 99.18480903579427 moveto
134.30349505453066 96.27179539253184 lineto stroke
newpath
137.4485103005791 102.12009030867942 moveto
133.43500748684735 99.13817898133127 lineto stroke
newpath
136.4601690163418 105.0561304252511 moveto
128.53636468872068 98.95585789219388 lineto stroke
newpath
135.4013574176432 107.9911233163856 moveto
131.49237091189693 104.87346000905211 lineto stroke
newpath
134.2712214599457 110.92319860230988 moveto
130.41646195366084 107.7387317476062 lineto stroke
newpath
133.06895605135244 113.85042208715117 moveto
129.26973060577802 110.59990120370806 lineto stroke
newpath
131.79380897538275 116.77079647009445 moveto
128.0514197235614 113.45499751843107 lineto stroke
newpath
130.4450848800901 119.68226228467928 moveto
125.28712572974827 114.94987838188729 lineto stroke
newpath
129.02214932124804 122.58269907737694 moveto
125.39731569503869 119.13877962676521 lineto stroke
newpath
127.52443284609893 125.46992683608585 moveto
123.96030524367359 121.96321977195434 lineto stroke
newpath
125.9514351029296 128.34170767856145 moveto
122.44928877286489 124.77309855415257 lineto stroke
newpath
124.30272896050293 131.19574781004582 moveto
120.86383046682572 127.56615042876722 lineto stroke
newpath
122.57796462016721 134.02969975848572 moveto
115.82917736066729 126.65041317196453 lineto stroke
newpath
120.77687370227693 136.8411648947115 moveto
117.46823154351273 133.0924468384624 lineto stroke
newpath
118.89927328742395 139.62769624380377 moveto
115.65761787111556 135.82090360932546 lineto stroke
newpath
116.94506989189371 142.38680159258342 moveto
113.77162420880762 138.5229637988216 lineto stroke
newpath
114.91426335575508 145.1159468967388 moveto
111.81023714210149 141.19612275974598 lineto stroke
newpath
112.80695062107488 147.8125599895423 moveto
108.5601748518682 142.24794899091185 lineto stroke
newpath
110.62332937693607 150.47403459241744 moveto
107.66171326110495 146.4455323915431 lineto stroke
newpath
108.36370154724985 153.097734625799 moveto
105.47504444396613 149.01659996254068 lineto stroke
newpath
106.02847659680286 155.68099881679444 moveto
103.21392496473982 151.54840893749946 lineto stroke
newpath
103.61817463058757 158.22114559810692 moveto
100.87885642992475 154.0383073517104 lineto stroke
newpath
101.1334292612421 160.7154782905441 moveto
90.48152359086001 143.78807726175995 lineto stroke
newpath
98.57499021939257 163.161290559207 moveto
95.98944320296235 158.88169400978455 lineto stroke
newpath
95.94372568185817 165.5558721311699 moveto
93.43667381366636 161.22982417371543 lineto stroke
newpath
93.24062429306184 167.8965147601215 moveto
90.81311030210006 163.52533919470608 lineto stroke
newpath
90.46679685559597 170.1805184210738 moveto
88.11983929906755 165.765567659417 lineto stroke
newpath
87.62347766673675 172.40519771587918 moveto
84.45190661521748 166.16491430363217 lineto stroke
newpath
84.712025478783 174.56788846794444 moveto
82.52913398894046 170.0695571391545 lineto stroke
newpath
81.73392406242748 176.66595448222975 moveto
79.63448807699505 172.1280729783701 lineto stroke
newpath
78.69078235394625 178.69679444438847 moveto
76.67571218395203 174.12082545301632 lineto stroke
newpath
75.58433416881417 180.65784893077358 moveto
73.65451019796527 176.04528137663013 lineto stroke
newpath
72.41643746642413 182.54660749903428 moveto
68.7289805870609 173.25130428919562 lineto stroke
newpath
69.18907315288045 184.3606158271826 moveto
67.4322574177096 179.6794195620538 lineto stroke
newpath
65.90434341136276 186.09748286734845 moveto
64.2352243094837 181.38430544402325 lineto stroke
newpath
62.56446955227704 187.75488797899627 moveto
60.983796706897316 183.01131618593996 lineto stroke
newpath
59.17178937832657 189.33058800516957 moveto
57.68027707470768 184.55823103526956 lineto stroke
newpath
55.72875406271072 190.82242425438284 moveto
53.76641072236989 184.10310817202594 lineto stroke
newpath
52.23792454187583 192.2283293501246 moveto
50.92672986193987 187.4033144785094 lineto stroke
newpath
48.701967427567155 193.54633390958006 moveto
47.481854301747255 188.69748621551892 lineto stroke
newpath
45.12365044633563 194.77457301315252 moveto
43.9951821873152 189.9035813904556 lineto stroke
newpath
41.50583741809967 195.91129242666295 moveto
40.469537397609805 191.0198629558914 lineto stroke
newpath
37.85148278881668 196.95485453875642 moveto
35.964184518359325 187.13456405230292 lineto stroke
newpath
34.16362573574787 197.90374397703602 moveto
33.313068676691 192.9766197966151 lineto stroke
newpath
30.445383867152675 198.75657286778946 moveto
29.68831794475631 193.8142200688539 lineto stroke
newpath
26.699946541502236 199.51208570585845 moveto
26.036728070241 194.55626677662204 lineto stroke
newpath
22.930567834403277 200.16916380322095 moveto
22.361509828730313 195.20165205324193 lineto stroke
newpath
19.14055918434439 200.72682928719976 moveto
18.476079542314835 193.75843874093098 lineto stroke
newpath
15.333281751074566 201.1842486218484 moveto
14.953308135452733 196.19870752268662 lineto stroke
newpath
11.512138522870949 201.54073562898884 moveto
11.227000047127756 196.54887264512692 lineto stroke
newpath
7.680566211107858 201.7957539885444 moveto
7.490398457730492 196.7993716747522 lineto stroke
newpath
3.842026972388184 201.94891920120043 moveto
3.7469204503337177 196.9498238080855 lineto stroke
newpath
0.0 202.0 moveto
1.1144285872240914E-14 182.0 lineto stroke
newpath
-3.842026972388157 201.94891920120043 moveto
-3.7469204503336937 196.9498238080855 lineto stroke
newpath
-7.68056621110778 201.79575398854436 moveto
-7.490398457730466 196.79937167475217 lineto stroke
newpath
-11.512138522870922 201.54073562898887 moveto
-11.227000047127778 196.54887264512695 lineto stroke
newpath
-15.333281751074585 201.1842486218484 moveto
-14.953308135452753 196.19870752268662 lineto stroke
newpath
-19.14055918434437 200.7268292871998 moveto
-18.476079542314856 193.758438740931 lineto stroke
newpath
-22.930567834403245 200.16916380322095 moveto
-22.361509828730288 195.20165205324196 lineto stroke
newpath
-26.699946541502204 199.51208570585845 moveto
-26.036728070241022 194.55626677662204 lineto stroke
newpath
-30.445383867152618 198.75657286778952 moveto
-29.688317944756285 193.81422006885393 lineto stroke
newpath
-34.16362573574791 197.90374397703604 moveto
-33.31306867669103 192.97661979661513 lineto stroke
newpath
-37.851482788816654 196.95485453875642 moveto
-35.96418451835934 187.13456405230292 lineto stroke
newpath
-41.505837418099645 195.91129242666298 moveto
-40.469537397609784 191.0198629558914 lineto stroke
newpath
-45.12365044633562 194.77457301315255 moveto
-43.99518218731518 189.90358139045566 lineto stroke
newpath
-48.70196742756708 193.54633390958006 moveto
-47.481854301747184 188.69748621551892 lineto stroke
newpath
-52.237924541875806 192.2283293501246 moveto
-50.92672986193985 187.4033144785094 lineto stroke
newpath
-55.72875406271075 190.82242425438287 moveto
-53.76641072236991 184.103108172026 lineto stroke
newpath
-59.17178937832654 189.33058800516955 moveto
-57.68027707470764 184.5582310352695 lineto stroke
newpath
-62.56446955227702 187.7548879789963 moveto
-60.9837967068973 183.01131618594 lineto stroke
newpath
-65.90434341136273 186.09748286734848 moveto
-64.23522430948368 181.38430544402325 lineto stroke
newpath
-69.18907315288038 184.36061582718264 moveto
-67.43225741770952 179.67941956205382 lineto stroke
newpath
-72.4164374664241 182.54660749903428 moveto
-68.72898058706087 173.25130428919562 lineto stroke
newpath
-75.58433416881417 180.65784893077353 moveto
-73.65451019796527 176.04528137663007 lineto stroke
newpath
-78.6907823539462 178.69679444438847 moveto
-76.67571218395203 174.1208254530163 lineto stroke
newpath
-81.73392406242749 176.6659544822298 moveto
-79.63448807699505 172.12807297837017 lineto stroke
newpath
-84.71202547878298 174.56788846794453 moveto
-82.52913398894039 170.06955713915463 lineto stroke
newpath
-87.62347766673673 172.4051977158792 moveto
-84.45190661521748 166.16491430363223 lineto stroke
newpath
-90.46679685559599 170.1805184210738 moveto
-88.11983929906755 165.765567659417 lineto stroke
newpath
-93.2406242930618 167.8965147601215 moveto
-90.8131103021001 163.52533919470602 lineto stroke
newpath
-95.94372568185813 165.55587213117 moveto
-93.43667381366636 161.2298241737155 lineto stroke
newpath
-98.5749902193925 163.16129055920698 moveto
-95.98944320296229 158.8816940097845 lineto stroke
newpath
-101.13342926124206 160.71547829054416 moveto
-90.48152359085996 143.78807726176004 lineto stroke
newpath
-103.61817463058753 158.22114559810692 moveto
-100.87885642992472 154.0383073517104 lineto stroke
newpath
-106.02847659680279 155.68099881679439 moveto
-103.21392496473976 151.5484089374994 lineto stroke
newpath
-108.3637015472498 153.097734625799 moveto
-105.4750444439661 149.01659996254068 lineto stroke
newpath
-110.62332937693607 150.47403459241747 moveto
-107.66171326110496 146.4455323915431 lineto stroke
newpath
-112.80695062107485 147.81255998954236 moveto
-108.56017485186815 142.2479489909119 lineto stroke
newpath
-114.91426335575505 145.1159468967388 moveto
-111.81023714210149 141.19612275974598 lineto stroke
newpath
-116.94506989189372 142.3868015925834 moveto
-113.77162420880767 138.5229637988216 lineto stroke
newpath
-118.89927328742397 139.6276962438038 moveto
-115.65761787111555 135.82090360932546 lineto stroke
newpath
-120.77687370227689 136.84116489471157 moveto
-117.4682315435127 133.09244683846245 lineto stroke
newpath
-122.57796462016721 134.02969975848572 moveto
-115.82917736066729 126.65041317196453 lineto stroke
newpath
-124.30272896050295 131.1957478100459 moveto
-120.8638304668257 127.56615042876732 lineto stroke
newpath
-125.95143510292952 128.3417076785615 moveto
-122.44928877286482 124.77309855415263 lineto stroke
newpath
-127.52443284609893 125.46992683608588 moveto
-123.96030524367359 121.96321977195436 lineto stroke
newpath
-129.02214932124804 122.58269907737694 moveto
-125.39731569503866 119.13877962676523 lineto stroke
newpath
-130.44508488009012 119.68226228467933 moveto
-125.28712572974828 114.94987838188732 lineto stroke
newpath
-131.79380897538266 116.77079647009447 moveto
-128.05141972356128 113.45499751843109 lineto stroke
newpath
-133.06895605135242 113.85042208715119 moveto
-129.269730605778 110.59990120370804 lineto stroke
newpath
-134.27122145994576 110.92319860230985 moveto
-130.4164619536609 107.73873174760617 lineto stroke
newpath
-135.4013574176432 107.9911233163856 moveto
-131.49237091189693 104.87346000905211 lineto stroke
newpath
-136.46016901634184 105.05613042525118 moveto
-128.53636468872065 98.95585789219398 lineto stroke
newpath
-137.44851030057907 102.1200903086794 moveto
-133.43500748684733 99.13817898133122 lineto stroke
newpath
-138.36728042216103 99.18480903579429 moveto
-134.30349505453063 96.27179539253187 lineto stroke
newpath
-139.2174198820647 96.25202807531653 moveto
-135.10467259988468 93.40856015868356 lineto stroke
newpath
-139.99990686832933 93.32342419861028 moveto
-135.83952034371998 90.55012580755158 lineto stroke
newpath
-140.71575369752995 90.40060956344516 moveto
-134.82637154277975 86.61706917971593 lineto stroke
newpath
-141.3660033663511 87.48513196638241 moveto
-137.1143121526419 84.85394937612612 lineto stroke
newpath
-141.9517262187508 84.57847525176705 moveto
-137.65637137101237 82.01919278747943 lineto stroke
newpath
-142.4740167332278 81.68205986544847 moveto
-138.13632461336024 79.1952090309112 lineto stroke
newpath
-142.93399043378497 78.79724354155435 moveto
-138.55528737692558 76.3833339451009 lineto stroke
newpath
-143.33278092731558 75.92532211089949 moveto
-125.65922891515447 66.56340140660832 lineto stroke
newpath
-143.67153706933072 73.06753041991803 moveto
-139.21478947877787 70.80094688646923 lineto stroke
newpath
-143.95142025920018 70.22504334934905 moveto
-139.45763754877018 68.03280318197676 lineto stroke
newpath
-144.1736018653851 67.39897692228945 moveto
-139.64410738086 65.28150680097566 lineto stroke
newpath
-144.33926078050845 64.59038949162938 moveto
-139.77537654217772 62.548096501112035 lineto stroke
newpath
-144.44958110553463 61.80028299732091 moveto
-138.01384624093885 59.046863895072605 lineto stroke
newpath
-144.50574996180595 59.029604284373015 moveto
-139.87704611323394 57.13881061974045 lineto stroke
newpath
-144.50895542921884 56.27924647292588 moveto
-139.84981828673673 54.46473797541379 lineto stroke
newpath
-144.46038460840435 53.550050372224426 moveto
-139.77212936513766 51.81216004945305 lineto stroke
newpath
-144.36122180441367 50.84280593078091 moveto
-139.64516168483556 49.181849294223326 lineto stroke
newpath
-144.21264682908878 48.15825371548589 moveto
-134.72753922817847 44.99080461579167 lineto stroke
newpath
-144.01583341902258 45.49708641289479 moveto
-139.24809506414778 43.990875611095845 lineto stroke
newpath
-143.77194776578244 42.85995034637766 moveto
-138.98033189348226 41.43151857260584 lineto stroke
newpath
-143.48214715487458 40.24744700327273 moveto
-138.66795871064954 38.897043499319224 lineto stroke
newpath
-143.14757870977107 37.66013456662663 moveto
-138.3121205630574 36.38799286407126 lineto stroke
newpath
-142.7693782371963 35.098529446533135 moveto
-135.97178040368857 33.427402971998276 lineto stroke
newpath
-142.34866916978115 32.56310780649763 moveto
-137.47457209710058 31.44812900576341 lineto stroke
newpath
-141.8865616021209 30.054307080656876 moveto
-136.9950913742405 29.01819945605424 lineto stroke
newpath
-141.3841514174384 27.572527478065684 moveto
-136.47660306835766 26.61546467895852 lineto stroke
newpath
-140.84251949251194 25.118133470627868 moveto
-135.92018628461292 24.240274831429865 lineto stroke
newpath
-140.26273100182257 22.691455261612933 moveto
-130.3910780488999 21.094436796768544 lineto stroke
newpath
-139.6458347753668 20.292790232001007 moveto
-134.69780505859737 19.573761775007455 lineto stroke
newpath
-138.9928627477712 17.92240436225311 moveto
-134.03391837672896 17.28297436224644 lineto stroke
newpath
-138.30482946988343 15.580533627367528 moveto
-133.33625771689088 15.020806251438485 lineto stroke
newpath
-137.5827316873606 13.267385363378086 moveto
-132.60581864731662 12.787451418089583 lineto stroke
newpath
-136.82754798133232 10.983139603706897 moveto
-129.84999100826155 10.423051496752679 lineto stroke
newpath
-136.0402384675115 8.72795038402764 moveto
-131.05049714999737 8.407822933951167 lineto stroke
newpath
-135.22174455021687 6.501947014521955 moveto
-130.22751462592308 6.261806507134577 lineto stroke
newpath
-134.37298872788247 4.305235318623516 moveto
-129.37555306807948 4.1451202783254875 lineto stroke
newpath
-133.494874446737 2.137898837537128 moveto
-128.49551551104696 2.0578349122266233 lineto stroke
newpath
-132.58828599945423 0.0 moveto
-112.58828599945423 1.3788088407071839E-14 lineto stroke
0 57.486005979522105 translate
NormalFont5 setfont
(10) 10.0 -146.02664533463607 132.5139940204779 outsidecircletext
(20) 10.0 -137.76896371255475 132.5139940204779 outsidecircletext
(10) 10.0 -122.69845030955969 132.5139940204779 outsidecircletext
(20) 10.0 -115.73199887681713 132.5139940204779 outsidecircletext
(10) 10.0 -102.57934313720186 132.5139940204779 outsidecircletext
(20) 10.0 -96.25348949470165 132.5139940204779 outsidecircletext
(10) 10.0 -83.74651050529839 132.5139940204779 outsidecircletext
(20) 10.0 -77.42065686279815 132.5139940204779 outsidecircletext
(10) 10.0 -64.26800112318288 132.5139940204779 outsidecircletext
(20) 10.0 -57.30154969044034 132.5139940204779 outsidecircletext
(10) 10.0 -42.23103628744532 132.5139940204779 outsidecircletext
(20) 10.0 -33.97335466536396 132.5139940204779 outsidecircletext
(10) 10.0 -15.594181239941454 132.5139940204779 outsidecircletext
(20) 10.0 -5.298695194850264 132.5139940204779 outsidecircletext
(10) 10.0 17.88132430171252 132.5139940204779 outsidecircletext
(20) 10.0 30.84244835548314 132.5139940204779 outsidecircletext
(10) 10.0 59.302716518127724 132.5139940204779 outsidecircletext
(20) 10.0 74.49611909266338 132.5139940204779 outsidecircletext
(10) 10.0 105.50388090733664 132.5139940204779 outsidecircletext
(20) 10.0 120.69728348187228 132.5139940204779 outsidecircletext
(10) 10.0 149.15755164451687 132.5139940204779 outsidecircletext
(20) 10.0 162.11867569828743 132.5139940204779 outsidecircletext
(10) 10.0 -174.7013048051498 132.5139940204779 outsidecircletext
(20) 10.0 -164.4058187600586 132.5139940204779 outsidecircletext
NormalFont8 setfont
(Aries) 10.0 -142.34258613245268 124.5139940204779 outsidecircletext
(Taurus) 10.0 -119.56675291858103 124.5139940204779 outsidecircletext
(Gemini) 10.0 -99.55250895886437 124.5139940204779 outsidecircletext
(Cancer) 10.0 -80.44749104113566 124.5139940204779 outsidecircletext
(Leo) 10.0 -60.43324708141903 124.5139940204779 outsidecircletext
(Virgo) 10.0 -37.657413867547376 124.5139940204779 outsidecircletext
(Libra) 10.0 -10.033961122067884 124.5139940204779 outsidecircletext
(Scorpio) 10.0 24.63890910158873 124.5139940204779 outsidecircletext
(Sagittarius) 10.0 66.99208671181596 124.5139940204779 outsidecircletext
(Capricorn) 10.0 113.00791328818407 124.5139940204779 outsidecircletext
(Aquarius) 10.0 155.36109089841128 124.5139940204779 outsidecircletext
(Pisces) 10.0 -169.9660388779321 124.5139940204779 outsidecircletext
0 -57.486005979522105 translate
%% ================ END Ecliptic Zodiac =================

grestore
% Eject the page
end cleartomark
showpage