%!PS-Adobe-3.0 EPSF-30.
%%BoundingBox: 0 0 612 792
%%Title: Astrolabe Generator Alidade and Rules
%%Creator: Richard Wymarc
%%CreationDate: Mon Dec 11 20:27:56 CET 2023
%%EndComments
%% Astrolabe Generator Postscript file
%% for Latitude: 58.47361111111111
%% for Longitude: -15.636944444444444

mark
/Astrolabe 10 dict def %local variable dictionary
Astrolabe begin

%% setup
.1 setlinewidth
%% ================ Set Up Fonts =================
/NormalFont /Times-Roman findfont
dup length dict begin {1 index /FID ne {def} {pop pop} ifelse} forall
/Encoding ISOLatin1Encoding def currentdict end
/Times-Roman-ISOLatin1 exch definefont
def
/NormalFont5 NormalFont 5 scalefont def
/NormalFont6 NormalFont 6 scalefont def
/NormalFont7 NormalFont 7 scalefont def
/NormalFont8 NormalFont 8 scalefont def
/NormalFont10 NormalFont 10 scalefont def
/NormalFont12 NormalFont 12 scalefont def
/NormalFont14 NormalFont 14 scalefont def
/NormalFont16 NormalFont 16 scalefont def
/NormalFont18 NormalFont 18 scalefont def
/NormalFont20 NormalFont 20 scalefont def
%% ================ End Set Up Fonts =================
gsave
306 110 translate

%% ==================== Create Single Rule ====================

%% Draw rule
newpath
0 25 moveto
194.0 25 lineto
224.0 5 lineto
224.0 0 lineto
25 0 lineto
25 5 lineto
224.0 5 lineto
stroke

%% Mark pivot
0 0 25 0 360 arc stroke
0 0 5 0 360 arc stroke
newpath
-5 0 moveto
5 0 lineto stroke
newpath
0 5 moveto
0 -5 lineto stroke

newpath
196.57021770479508 0 moveto
196.57021770479508 5 lineto stroke
newpath
192.9171532254102 0 moveto
192.9171532254102 5 lineto stroke
newpath
189.35569636747394 0 moveto
189.35569636747394 10 lineto stroke
newpath
NormalFont6 setfont
184.35569636747394 10  moveto
( -20) show
newpath
185.88192142447545 0 moveto
185.88192142447545 5 lineto stroke
newpath
182.49211971591 0 moveto
182.49211971591 5 lineto stroke
newpath
179.1827847084385 0 moveto
179.1827847084385 5 lineto stroke
newpath
175.95059834310163 0 moveto
175.95059834310163 5 lineto stroke
newpath
172.79241845601516 0 moveto
172.79241845601516 5 lineto stroke
newpath
169.70526719182416 0 moveto
169.70526719182416 5 lineto stroke
newpath
166.68632031965768 0 moveto
166.68632031965768 5 lineto stroke
newpath
163.73289737058215 0 moveto
163.73289737058215 5 lineto stroke
newpath
160.84245252375487 0 moveto
160.84245252375487 5 lineto stroke
newpath
158.01256617575817 0 moveto
158.01256617575817 10 lineto stroke
newpath
NormalFont6 setfont
153.01256617575817 10  moveto
( -10) show
newpath
155.24093713406626 0 moveto
155.24093713406626 5 lineto stroke
newpath
152.5253753813558 0 moveto
152.5253753813558 5 lineto stroke
newpath
149.8637953625097 0 moveto
149.8637953625097 5 lineto stroke
newpath
147.2542097507461 0 moveto
147.2542097507461 5 lineto stroke
newpath
144.6947236534083 0 moveto
144.6947236534083 5 lineto stroke
newpath
142.18352922161841 0 moveto
142.18352922161841 5 lineto stroke
newpath
139.7189006312929 0 moveto
139.7189006312929 5 lineto stroke
newpath
137.2991894059686 0 moveto
137.2991894059686 5 lineto stroke
newpath
134.92282005454715 0 moveto
134.92282005454715 5 lineto stroke
newpath
132.5882859994542 0 moveto
132.5882859994542 10 lineto stroke
newpath
NormalFont6 setfont
127.5882859994542 10  moveto
( 0) show
newpath
130.29414577286403 0 moveto
130.29414577286403 5 lineto stroke
newpath
128.03901946058286 0 moveto
128.03901946058286 5 lineto stroke
newpath
125.82158537494063 0 moveto
125.82158537494063 5 lineto stroke
newpath
123.64057693962599 0 moveto
123.64057693962599 5 lineto stroke
newpath
121.49477977083778 0 moveto
121.49477977083778 5 lineto stroke
newpath
119.38302894042725 0 moveto
119.38302894042725 5 lineto stroke
newpath
117.30420640788628 0 moveto
117.30420640788628 5 lineto stroke
newpath
115.25723860911044 0 moveto
115.25723860911044 5 lineto stroke
newpath
113.24109419084002 0 moveto
113.24109419084002 5 lineto stroke
newpath
111.25478188056975 0 moveto
111.25478188056975 10 lineto stroke
newpath
NormalFont6 setfont
106.25478188056975 10  moveto
( 10) show
newpath
109.29734848252656 0 moveto
109.29734848252656 5 lineto stroke
newpath
107.36787699105116 0 moveto
107.36787699105116 5 lineto stroke
newpath
105.46548481339207 0 moveto
105.46548481339207 5 lineto stroke
newpath
103.58932209453542 0 moveto
103.58932209453542 5 lineto stroke
newpath
101.73857013725417 0 moveto
101.73857013725417 5 lineto stroke
newpath
99.91243991107633 0 moveto
99.91243991107633 5 lineto stroke
newpath
98.11017064434073 0 moveto
98.11017064434073 5 lineto stroke
newpath
96.33102849394128 0 moveto
96.33102849394128 5 lineto stroke
newpath
94.57430528775626 0 moveto
94.57430528775626 5 lineto stroke
newpath
92.83931733512277 0 moveto
92.83931733512277 10 lineto stroke
newpath
NormalFont6 setfont
87.83931733512277 10  moveto
( 20) show
newpath
91.12540430104977 0 moveto
91.12540430104977 5 lineto stroke
newpath
89.43192814017134 0 moveto
89.43192814017134 5 lineto stroke
newpath
87.75827208672361 0 moveto
87.75827208672361 5 lineto stroke
newpath
86.10383969708873 0 moveto
86.10383969708873 5 lineto stroke
newpath
84.4680539416908 0 moveto
84.4680539416908 5 lineto stroke
newpath
82.85035634324753 0 moveto
82.85035634324753 5 lineto stroke
newpath
81.25020615858826 0 moveto
81.25020615858826 5 lineto stroke
newpath
79.66707960143529 0 moveto
79.66707960143529 5 lineto stroke
newpath
78.10046910372122 0 moveto
78.10046910372122 5 lineto stroke
newpath
76.54988261317598 0 moveto
76.54988261317598 10 lineto stroke
newpath
NormalFont6 setfont
71.54988261317598 10  moveto
( 30) show
newpath
75.01484292506582 0 moveto
75.01484292506582 5 lineto stroke
newpath
73.49488704610593 0 moveto
73.49488704610593 5 lineto stroke
newpath
71.98956558869483 0 moveto
71.98956558869483 5 lineto stroke
newpath
70.49844219373941 0 moveto
70.49844219373941 5 lineto stroke
newpath
69.02109298044728 0 moveto
69.02109298044728 5 lineto stroke
newpath
67.55710602156779 0 moveto
67.55710602156779 5 lineto stroke
newpath
66.10608084265617 0 moveto
66.10608084265617 5 lineto stroke
newpath
64.66762794402457 0 moveto
64.66762794402457 5 lineto stroke
newpath
63.24136834412569 0 moveto
63.24136834412569 5 lineto stroke
newpath
61.826933143190686 0 moveto
61.826933143190686 10 lineto stroke
newpath
NormalFont6 setfont
56.826933143190686 10  moveto
( 40) show
newpath
60.42396310601469 0 moveto
60.42396310601469 5 lineto stroke
newpath
59.03210826284919 0 moveto
59.03210826284919 5 lineto stroke
newpath
57.651027527422194 0 moveto
57.651027527422194 5 lineto stroke
newpath
56.280388331164836 0 moveto
56.280388331164836 5 lineto stroke
newpath
54.919866272776694 0 moveto
54.919866272776694 5 lineto stroke
newpath
53.56914478231185 0 moveto
53.56914478231185 5 lineto stroke
newpath
52.227914799015025 0 moveto
52.227914799015025 5 lineto stroke
newpath
50.895874462180224 0 moveto
50.895874462180224 5 lineto stroke
newpath
49.57272881434556 0 moveto
49.57272881434556 5 lineto stroke
newpath
48.25818951617559 0 moveto
48.25818951617559 10 lineto stroke
newpath
NormalFont6 setfont
43.25818951617559 10  moveto
( 50) show
%% ==================== End Create Single Rule ====================


grestore
gsave
306 220 translate

%% ==================== Create Single Rule ====================

%% Draw rule
newpath
0 25 moveto
194.0 25 lineto
224.0 5 lineto
224.0 0 lineto
25 0 lineto
25 5 lineto
224.0 5 lineto
stroke

%% Mark pivot
0 0 25 0 360 arc stroke
0 0 5 0 360 arc stroke
newpath
-5 0 moveto
5 0 lineto stroke
newpath
0 5 moveto
0 -5 lineto stroke

newpath
NormalFont20 setfont
0 -55  moveto
(Single Rule) show
%% ==================== End Create Single Rule ====================


grestore
gsave
306 330 translate

%% ==================== Create Double Rule ====================

newpath
0 -25 moveto
-194.0 -25 lineto
-224.0 -5 lineto
-224.0 0 lineto
-25 0 lineto
-25 -5 lineto
-224.0 -5 lineto
stroke

%% Draw rule
newpath
0 25 moveto
194.0 25 lineto
224.0 5 lineto
224.0 0 lineto
25 0 lineto
25 5 lineto
224.0 5 lineto
stroke

%% Mark pivot
0 0 25 0 360 arc stroke
0 0 5 0 360 arc stroke
newpath
-5 0 moveto
5 0 lineto stroke
newpath
0 5 moveto
0 -5 lineto stroke

newpath
196.57021770479508 0 moveto
196.57021770479508 5 lineto stroke
newpath
192.9171532254102 0 moveto
192.9171532254102 5 lineto stroke
newpath
189.35569636747394 0 moveto
189.35569636747394 10 lineto stroke
newpath
NormalFont6 setfont
184.35569636747394 10  moveto
( -20) show
newpath
185.88192142447545 0 moveto
185.88192142447545 5 lineto stroke
newpath
182.49211971591 0 moveto
182.49211971591 5 lineto stroke
newpath
179.1827847084385 0 moveto
179.1827847084385 5 lineto stroke
newpath
175.95059834310163 0 moveto
175.95059834310163 5 lineto stroke
newpath
172.79241845601516 0 moveto
172.79241845601516 5 lineto stroke
newpath
169.70526719182416 0 moveto
169.70526719182416 5 lineto stroke
newpath
166.68632031965768 0 moveto
166.68632031965768 5 lineto stroke
newpath
163.73289737058215 0 moveto
163.73289737058215 5 lineto stroke
newpath
160.84245252375487 0 moveto
160.84245252375487 5 lineto stroke
newpath
158.01256617575817 0 moveto
158.01256617575817 10 lineto stroke
newpath
NormalFont6 setfont
153.01256617575817 10  moveto
( -10) show
newpath
155.24093713406626 0 moveto
155.24093713406626 5 lineto stroke
newpath
152.5253753813558 0 moveto
152.5253753813558 5 lineto stroke
newpath
149.8637953625097 0 moveto
149.8637953625097 5 lineto stroke
newpath
147.2542097507461 0 moveto
147.2542097507461 5 lineto stroke
newpath
144.6947236534083 0 moveto
144.6947236534083 5 lineto stroke
newpath
142.18352922161841 0 moveto
142.18352922161841 5 lineto stroke
newpath
139.7189006312929 0 moveto
139.7189006312929 5 lineto stroke
newpath
137.2991894059686 0 moveto
137.2991894059686 5 lineto stroke
newpath
134.92282005454715 0 moveto
134.92282005454715 5 lineto stroke
newpath
132.5882859994542 0 moveto
132.5882859994542 10 lineto stroke
newpath
NormalFont6 setfont
127.5882859994542 10  moveto
( 0) show
newpath
130.29414577286403 0 moveto
130.29414577286403 5 lineto stroke
newpath
128.03901946058286 0 moveto
128.03901946058286 5 lineto stroke
newpath
125.82158537494063 0 moveto
125.82158537494063 5 lineto stroke
newpath
123.64057693962599 0 moveto
123.64057693962599 5 lineto stroke
newpath
121.49477977083778 0 moveto
121.49477977083778 5 lineto stroke
newpath
119.38302894042725 0 moveto
119.38302894042725 5 lineto stroke
newpath
117.30420640788628 0 moveto
117.30420640788628 5 lineto stroke
newpath
115.25723860911044 0 moveto
115.25723860911044 5 lineto stroke
newpath
113.24109419084002 0 moveto
113.24109419084002 5 lineto stroke
newpath
111.25478188056975 0 moveto
111.25478188056975 10 lineto stroke
newpath
NormalFont6 setfont
106.25478188056975 10  moveto
( 10) show
newpath
109.29734848252656 0 moveto
109.29734848252656 5 lineto stroke
newpath
107.36787699105116 0 moveto
107.36787699105116 5 lineto stroke
newpath
105.46548481339207 0 moveto
105.46548481339207 5 lineto stroke
newpath
103.58932209453542 0 moveto
103.58932209453542 5 lineto stroke
newpath
101.73857013725417 0 moveto
101.73857013725417 5 lineto stroke
newpath
99.91243991107633 0 moveto
99.91243991107633 5 lineto stroke
newpath
98.11017064434073 0 moveto
98.11017064434073 5 lineto stroke
newpath
96.33102849394128 0 moveto
96.33102849394128 5 lineto stroke
newpath
94.57430528775626 0 moveto
94.57430528775626 5 lineto stroke
newpath
92.83931733512277 0 moveto
92.83931733512277 10 lineto stroke
newpath
NormalFont6 setfont
87.83931733512277 10  moveto
( 20) show
newpath
91.12540430104977 0 moveto
91.12540430104977 5 lineto stroke
newpath
89.43192814017134 0 moveto
89.43192814017134 5 lineto stroke
newpath
87.75827208672361 0 moveto
87.75827208672361 5 lineto stroke
newpath
86.10383969708873 0 moveto
86.10383969708873 5 lineto stroke
newpath
84.4680539416908 0 moveto
84.4680539416908 5 lineto stroke
newpath
82.85035634324753 0 moveto
82.85035634324753 5 lineto stroke
newpath
81.25020615858826 0 moveto
81.25020615858826 5 lineto stroke
newpath
79.66707960143529 0 moveto
79.66707960143529 5 lineto stroke
newpath
78.10046910372122 0 moveto
78.10046910372122 5 lineto stroke
newpath
76.54988261317598 0 moveto
76.54988261317598 10 lineto stroke
newpath
NormalFont6 setfont
71.54988261317598 10  moveto
( 30) show
newpath
75.01484292506582 0 moveto
75.01484292506582 5 lineto stroke
newpath
73.49488704610593 0 moveto
73.49488704610593 5 lineto stroke
newpath
71.98956558869483 0 moveto
71.98956558869483 5 lineto stroke
newpath
70.49844219373941 0 moveto
70.49844219373941 5 lineto stroke
newpath
69.02109298044728 0 moveto
69.02109298044728 5 lineto stroke
newpath
67.55710602156779 0 moveto
67.55710602156779 5 lineto stroke
newpath
66.10608084265617 0 moveto
66.10608084265617 5 lineto stroke
newpath
64.66762794402457 0 moveto
64.66762794402457 5 lineto stroke
newpath
63.24136834412569 0 moveto
63.24136834412569 5 lineto stroke
newpath
61.826933143190686 0 moveto
61.826933143190686 10 lineto stroke
newpath
NormalFont6 setfont
56.826933143190686 10  moveto
( 40) show
newpath
60.42396310601469 0 moveto
60.42396310601469 5 lineto stroke
newpath
59.03210826284919 0 moveto
59.03210826284919 5 lineto stroke
newpath
57.651027527422194 0 moveto
57.651027527422194 5 lineto stroke
newpath
56.280388331164836 0 moveto
56.280388331164836 5 lineto stroke
newpath
54.919866272776694 0 moveto
54.919866272776694 5 lineto stroke
newpath
53.56914478231185 0 moveto
53.56914478231185 5 lineto stroke
newpath
52.227914799015025 0 moveto
52.227914799015025 5 lineto stroke
newpath
50.895874462180224 0 moveto
50.895874462180224 5 lineto stroke
newpath
49.57272881434556 0 moveto
49.57272881434556 5 lineto stroke
newpath
48.25818951617559 0 moveto
48.25818951617559 10 lineto stroke
newpath
NormalFont6 setfont
43.25818951617559 10  moveto
( 50) show
%% ==================== End Create Double Rule ====================


grestore
gsave
306 440 translate

%% ==================== Create Double Rule ====================

newpath
0 -25 moveto
-194.0 -25 lineto
-224.0 -5 lineto
-224.0 0 lineto
-25 0 lineto
-25 -5 lineto
-224.0 -5 lineto
stroke

%% Draw rule
newpath
0 25 moveto
194.0 25 lineto
224.0 5 lineto
224.0 0 lineto
25 0 lineto
25 5 lineto
224.0 5 lineto
stroke

%% Mark pivot
0 0 25 0 360 arc stroke
0 0 5 0 360 arc stroke
newpath
-5 0 moveto
5 0 lineto stroke
newpath
0 5 moveto
0 -5 lineto stroke

newpath
NormalFont20 setfont
0 -55  moveto
(Double Rule) show
%% ==================== End Create Double Rule ====================


grestore
gsave
306 550 translate

%% ==================== Create Alidade ====================

newpath
0 -25 moveto
-217.0 -25 lineto
-247.0 -5 lineto
-247.0 0 lineto
-25 0 lineto
-25 -5 lineto
-247.0 -5 lineto
stroke

%% Draw rule
newpath
0 25 moveto
217.0 25 lineto
247.0 5 lineto
247.0 0 lineto
25 0 lineto
25 5 lineto
247.0 5 lineto
stroke

%% Mark pivot
0 0 25 0 360 arc stroke
0 0 5 0 360 arc stroke
newpath
-5 0 moveto
5 0 lineto stroke
newpath
0 5 moveto
0 -5 lineto stroke

newpath
172.0 0 moveto
172.0 5 lineto stroke
newpath
168.20588235294116 0 moveto
168.20588235294116 5 lineto stroke
newpath
164.41176470588235 0 moveto
164.41176470588235 7 lineto stroke
newpath
NormalFont6 setfont
159.41176470588235 10  moveto
( -15) show
newpath
160.61764705882354 0 moveto
160.61764705882354 5 lineto stroke
newpath
156.8235294117647 0 moveto
156.8235294117647 5 lineto stroke
newpath
153.02941176470588 0 moveto
153.02941176470588 5 lineto stroke
newpath
149.23529411764707 0 moveto
149.23529411764707 5 lineto stroke
newpath
145.44117647058823 0 moveto
145.44117647058823 10 lineto stroke
newpath
NormalFont6 setfont
140.44117647058823 10  moveto
( -10) show
newpath
141.64705882352942 0 moveto
141.64705882352942 5 lineto stroke
newpath
137.85294117647058 0 moveto
137.85294117647058 5 lineto stroke
newpath
134.05882352941177 0 moveto
134.05882352941177 5 lineto stroke
newpath
130.26470588235293 0 moveto
130.26470588235293 5 lineto stroke
newpath
126.47058823529412 0 moveto
126.47058823529412 7 lineto stroke
newpath
NormalFont6 setfont
121.47058823529412 10  moveto
( -5) show
newpath
122.67647058823529 0 moveto
122.67647058823529 5 lineto stroke
newpath
118.88235294117646 0 moveto
118.88235294117646 5 lineto stroke
newpath
115.08823529411765 0 moveto
115.08823529411765 5 lineto stroke
newpath
111.29411764705883 0 moveto
111.29411764705883 5 lineto stroke
newpath
107.5 0 moveto
107.5 10 lineto stroke
newpath
NormalFont6 setfont
102.5 10  moveto
( 0) show
newpath
103.70588235294117 0 moveto
103.70588235294117 5 lineto stroke
newpath
99.91176470588235 0 moveto
99.91176470588235 5 lineto stroke
newpath
96.11764705882354 0 moveto
96.11764705882354 5 lineto stroke
newpath
92.32352941176471 0 moveto
92.32352941176471 5 lineto stroke
newpath
88.52941176470588 0 moveto
88.52941176470588 7 lineto stroke
newpath
NormalFont6 setfont
83.52941176470588 10  moveto
( 5) show
newpath
84.73529411764706 0 moveto
84.73529411764706 5 lineto stroke
newpath
80.94117647058823 0 moveto
80.94117647058823 5 lineto stroke
newpath
77.14705882352942 0 moveto
77.14705882352942 5 lineto stroke
newpath
73.35294117647058 0 moveto
73.35294117647058 5 lineto stroke
newpath
69.55882352941177 0 moveto
69.55882352941177 10 lineto stroke
newpath
NormalFont6 setfont
64.55882352941177 10  moveto
( 10) show
newpath
65.76470588235294 0 moveto
65.76470588235294 5 lineto stroke
newpath
61.970588235294116 0 moveto
61.970588235294116 5 lineto stroke
newpath
58.1764705882353 0 moveto
58.1764705882353 5 lineto stroke
newpath
54.38235294117647 0 moveto
54.38235294117647 5 lineto stroke
newpath
50.58823529411765 0 moveto
50.58823529411765 7 lineto stroke
newpath
NormalFont6 setfont
45.58823529411765 10  moveto
( 15) show
newpath
46.794117647058826 0 moveto
46.794117647058826 5 lineto stroke
%% ==================== End Create Alidade ====================


grestore
gsave
306 660 translate

%% ==================== Create Alidade ====================

newpath
0 -25 moveto
-217.0 -25 lineto
-247.0 -5 lineto
-247.0 0 lineto
-25 0 lineto
-25 -5 lineto
-247.0 -5 lineto
stroke

%% Draw rule
newpath
0 -25 moveto
217.0 -25 lineto
247.0 -5 lineto
247.0 0 lineto
25 0 lineto
25 -5 lineto
247.0 -5 lineto
stroke

%% Mark pivot
0 0 25 0 360 arc stroke
0 0 5 0 360 arc stroke
newpath
-5 0 moveto
5 0 lineto stroke
newpath
0 5 moveto
0 -5 lineto stroke

newpath
172.0 0 moveto
172.0 -5 lineto stroke
newpath
168.20588235294116 0 moveto
168.20588235294116 -5 lineto stroke
newpath
164.41176470588235 0 moveto
164.41176470588235 -7 lineto stroke
newpath
NormalFont6 setfont
159.41176470588235 -10  moveto
( -15) show
newpath
160.61764705882354 0 moveto
160.61764705882354 -5 lineto stroke
newpath
156.8235294117647 0 moveto
156.8235294117647 -5 lineto stroke
newpath
153.02941176470588 0 moveto
153.02941176470588 -5 lineto stroke
newpath
149.23529411764707 0 moveto
149.23529411764707 -5 lineto stroke
newpath
145.44117647058823 0 moveto
145.44117647058823 -10 lineto stroke
newpath
NormalFont6 setfont
140.44117647058823 -10  moveto
( -10) show
newpath
141.64705882352942 0 moveto
141.64705882352942 -5 lineto stroke
newpath
137.85294117647058 0 moveto
137.85294117647058 -5 lineto stroke
newpath
134.05882352941177 0 moveto
134.05882352941177 -5 lineto stroke
newpath
130.26470588235293 0 moveto
130.26470588235293 -5 lineto stroke
newpath
126.47058823529412 0 moveto
126.47058823529412 -7 lineto stroke
newpath
NormalFont6 setfont
121.47058823529412 -10  moveto
( -5) show
newpath
122.67647058823529 0 moveto
122.67647058823529 -5 lineto stroke
newpath
118.88235294117646 0 moveto
118.88235294117646 -5 lineto stroke
newpath
115.08823529411765 0 moveto
115.08823529411765 -5 lineto stroke
newpath
111.29411764705883 0 moveto
111.29411764705883 -5 lineto stroke
newpath
107.5 0 moveto
107.5 -10 lineto stroke
newpath
NormalFont6 setfont
102.5 -10  moveto
( 0) show
newpath
103.70588235294117 0 moveto
103.70588235294117 -5 lineto stroke
newpath
99.91176470588235 0 moveto
99.91176470588235 -5 lineto stroke
newpath
96.11764705882354 0 moveto
96.11764705882354 -5 lineto stroke
newpath
92.32352941176471 0 moveto
92.32352941176471 -5 lineto stroke
newpath
88.52941176470588 0 moveto
88.52941176470588 -7 lineto stroke
newpath
NormalFont6 setfont
83.52941176470588 -10  moveto
( 5) show
newpath
84.73529411764706 0 moveto
84.73529411764706 -5 lineto stroke
newpath
80.94117647058823 0 moveto
80.94117647058823 -5 lineto stroke
newpath
77.14705882352942 0 moveto
77.14705882352942 -5 lineto stroke
newpath
73.35294117647058 0 moveto
73.35294117647058 -5 lineto stroke
newpath
69.55882352941177 0 moveto
69.55882352941177 -10 lineto stroke
newpath
NormalFont6 setfont
64.55882352941177 -10  moveto
( 10) show
newpath
65.76470588235294 0 moveto
65.76470588235294 -5 lineto stroke
newpath
61.970588235294116 0 moveto
61.970588235294116 -5 lineto stroke
newpath
58.1764705882353 0 moveto
58.1764705882353 -5 lineto stroke
newpath
54.38235294117647 0 moveto
54.38235294117647 -5 lineto stroke
newpath
50.58823529411765 0 moveto
50.58823529411765 -7 lineto stroke
newpath
NormalFont6 setfont
45.58823529411765 -10  moveto
( 15) show
newpath
46.794117647058826 0 moveto
46.794117647058826 -5 lineto stroke
newpath
NormalFont20 setfont
0 -55  moveto
(Alidade) show
%% ==================== End Create Alidade ====================


grestore
% Eject the page
end cleartomark
showpage