<?xml version="1.0" encoding="UTF-8" standalone="no"?>
<!-- Created with Inkscape (http://www.inkscape.org/) -->

<svg
   version="1.1"
   id="svg1"
   width="672.1333"
   height="672.1333"
   viewBox="0 0 672.1333 672.1333"
   sodipodi:docname="AstrolabeFrontCombinedCuts.svg"
   inkscape:version="1.3.2 (091e20ef0f, 2023-11-25, custom)"
   xmlns:inkscape="http://www.inkscape.org/namespaces/inkscape"
   xmlns:sodipodi="http://sodipodi.sourceforge.net/DTD/sodipodi-0.dtd"
   xmlns="http://www.w3.org/2000/svg"
   xmlns:svg="http://www.w3.org/2000/svg">
  <defs
     id="defs1">
    <clipPath
       clipPathUnits="userSpaceOnUse"
       id="clipPath582">
      <path
         d="m 5080,3960 c 0,1115.61 -904.39,2020 -2020,2020 -1115.61,0 -2020,-904.39 -2020,-2020 0,-1115.61 904.39,-2020 2020,-2020 1115.61,0 2020,904.39 2020,2020"
         id="path582" />
    </clipPath>
    <clipPath
       clipPathUnits="userSpaceOnUse"
       id="clipPath584">
      <path
         d="m 5080,3960 c 0,1115.61 -904.39,2020 -2020,2020 -1115.61,0 -2020,-904.39 -2020,-2020 0,-1115.61 904.39,-2020 2020,-2020 1115.61,0 2020,904.39 2020,2020"
         id="path584" />
    </clipPath>
    <clipPath
       clipPathUnits="userSpaceOnUse"
       id="clipPath586">
      <path
         d="m 5080,3960 c 0,1115.61 -904.39,2020 -2020,2020 -1115.61,0 -2020,-904.39 -2020,-2020 0,-1115.61 904.39,-2020 2020,-2020 1115.61,0 2020,904.39 2020,2020"
         id="path586" />
    </clipPath>
    <clipPath
       clipPathUnits="userSpaceOnUse"
       id="clipPath588">
      <path
         d="m 5080,3960 c 0,1115.61 -904.39,2020 -2020,2020 -1115.61,0 -2020,-904.39 -2020,-2020 0,-1115.61 904.39,-2020 2020,-2020 1115.61,0 2020,904.39 2020,2020"
         id="path588" />
    </clipPath>
    <clipPath
       clipPathUnits="userSpaceOnUse"
       id="clipPath590">
      <path
         d="m 5080,3960 c 0,1115.61 -904.39,2020 -2020,2020 -1115.61,0 -2020,-904.39 -2020,-2020 0,-1115.61 904.39,-2020 2020,-2020 1115.61,0 2020,904.39 2020,2020"
         transform="matrix(0.1,0,0,-0.1,-288.10201,228.706)"
         id="path590" />
    </clipPath>
    <clipPath
       clipPathUnits="userSpaceOnUse"
       id="clipPath592">
      <path
         d="m 5080,3960 c 0,1115.61 -904.39,2020 -2020,2020 -1115.61,0 -2020,-904.39 -2020,-2020 0,-1115.61 904.39,-2020 2020,-2020 1115.61,0 2020,904.39 2020,2020"
         id="path592" />
    </clipPath>
    <clipPath
       clipPathUnits="userSpaceOnUse"
       id="clipPath594">
      <path
         d="m 5080,3960 c 0,1115.61 -904.39,2020 -2020,2020 -1115.61,0 -2020,-904.39 -2020,-2020 0,-1115.61 904.39,-2020 2020,-2020 1115.61,0 2020,904.39 2020,2020"
         id="path594" />
    </clipPath>
    <clipPath
       clipPathUnits="userSpaceOnUse"
       id="clipPath596">
      <path
         d="m 5080,3960 c 0,1115.61 -904.39,2020 -2020,2020 -1115.61,0 -2020,-904.39 -2020,-2020 0,-1115.61 904.39,-2020 2020,-2020 1115.61,0 2020,904.39 2020,2020"
         id="path596" />
    </clipPath>
    <clipPath
       clipPathUnits="userSpaceOnUse"
       id="clipPath598">
      <path
         d="m 5080,3960 c 0,1115.61 -904.39,2020 -2020,2020 -1115.61,0 -2020,-904.39 -2020,-2020 0,-1115.61 904.39,-2020 2020,-2020 1115.61,0 2020,904.39 2020,2020"
         transform="matrix(0.1,0,0,-0.1,-302.25001,559.35601)"
         id="path598" />
    </clipPath>
    <clipPath
       clipPathUnits="userSpaceOnUse"
       id="clipPath600">
      <path
         d="m 5080,3960 c 0,1115.61 -904.39,2020 -2020,2020 -1115.61,0 -2020,-904.39 -2020,-2020 0,-1115.61 904.39,-2020 2020,-2020 1115.61,0 2020,904.39 2020,2020"
         id="path600" />
    </clipPath>
    <clipPath
       clipPathUnits="userSpaceOnUse"
       id="clipPath602">
      <path
         d="m 5080,3960 c 0,1115.61 -904.39,2020 -2020,2020 -1115.61,0 -2020,-904.39 -2020,-2020 0,-1115.61 904.39,-2020 2020,-2020 1115.61,0 2020,904.39 2020,2020"
         id="path602" />
    </clipPath>
    <clipPath
       clipPathUnits="userSpaceOnUse"
       id="clipPath604">
      <path
         d="m 5080,3960 c 0,1115.61 -904.39,2020 -2020,2020 -1115.61,0 -2020,-904.39 -2020,-2020 0,-1115.61 904.39,-2020 2020,-2020 1115.61,0 2020,904.39 2020,2020"
         transform="matrix(0.1,0,0,-0.1,-302.25001,511.29802)"
         id="path604" />
    </clipPath>
    <clipPath
       clipPathUnits="userSpaceOnUse"
       id="clipPath606">
      <path
         d="m 5080,3960 c 0,1115.61 -904.39,2020 -2020,2020 -1115.61,0 -2020,-904.39 -2020,-2020 0,-1115.61 904.39,-2020 2020,-2020 1115.61,0 2020,904.39 2020,2020"
         id="path606" />
    </clipPath>
    <clipPath
       clipPathUnits="userSpaceOnUse"
       id="clipPath608">
      <path
         d="m 5080,3960 c 0,1115.61 -904.39,2020 -2020,2020 -1115.61,0 -2020,-904.39 -2020,-2020 0,-1115.61 904.39,-2020 2020,-2020 1115.61,0 2020,904.39 2020,2020"
         id="path608" />
    </clipPath>
    <clipPath
       clipPathUnits="userSpaceOnUse"
       id="clipPath610">
      <path
         d="m 5080,3960 c 0,1115.61 -904.39,2020 -2020,2020 -1115.61,0 -2020,-904.39 -2020,-2020 0,-1115.61 904.39,-2020 2020,-2020 1115.61,0 2020,904.39 2020,2020"
         transform="matrix(0.1,0,0,-0.1,-302.25001,475.92301)"
         id="path610" />
    </clipPath>
    <clipPath
       clipPathUnits="userSpaceOnUse"
       id="clipPath612">
      <path
         d="m 5080,3960 c 0,1115.61 -904.39,2020 -2020,2020 -1115.61,0 -2020,-904.39 -2020,-2020 0,-1115.61 904.39,-2020 2020,-2020 1115.61,0 2020,904.39 2020,2020"
         id="path612" />
    </clipPath>
    <clipPath
       clipPathUnits="userSpaceOnUse"
       id="clipPath614">
      <path
         d="m 5080,3960 c 0,1115.61 -904.39,2020 -2020,2020 -1115.61,0 -2020,-904.39 -2020,-2020 0,-1115.61 904.39,-2020 2020,-2020 1115.61,0 2020,904.39 2020,2020"
         id="path614" />
    </clipPath>
    <clipPath
       clipPathUnits="userSpaceOnUse"
       id="clipPath616">
      <path
         d="m 5080,3960 c 0,1115.61 -904.39,2020 -2020,2020 -1115.61,0 -2020,-904.39 -2020,-2020 0,-1115.61 904.39,-2020 2020,-2020 1115.61,0 2020,904.39 2020,2020"
         id="path616" />
    </clipPath>
    <clipPath
       clipPathUnits="userSpaceOnUse"
       id="clipPath618">
      <path
         d="m 5080,3960 c 0,1115.61 -904.39,2020 -2020,2020 -1115.61,0 -2020,-904.39 -2020,-2020 0,-1115.61 904.39,-2020 2020,-2020 1115.61,0 2020,904.39 2020,2020"
         id="path618" />
    </clipPath>
    <clipPath
       clipPathUnits="userSpaceOnUse"
       id="clipPath620">
      <path
         d="m 5080,3960 c 0,1115.61 -904.39,2020 -2020,2020 -1115.61,0 -2020,-904.39 -2020,-2020 0,-1115.61 904.39,-2020 2020,-2020 1115.61,0 2020,904.39 2020,2020"
         id="path620" />
    </clipPath>
    <clipPath
       clipPathUnits="userSpaceOnUse"
       id="clipPath622">
      <path
         d="m 5080,3960 c 0,1115.61 -904.39,2020 -2020,2020 -1115.61,0 -2020,-904.39 -2020,-2020 0,-1115.61 904.39,-2020 2020,-2020 1115.61,0 2020,904.39 2020,2020"
         id="path622" />
    </clipPath>
    <clipPath
       clipPathUnits="userSpaceOnUse"
       id="clipPath624">
      <path
         d="m 5080,3960 c 0,1115.61 -904.39,2020 -2020,2020 -1115.61,0 -2020,-904.39 -2020,-2020 0,-1115.61 904.39,-2020 2020,-2020 1115.61,0 2020,904.39 2020,2020"
         id="path624" />
    </clipPath>
    <clipPath
       clipPathUnits="userSpaceOnUse"
       id="clipPath626">
      <path
         d="m 5080,3960 c 0,1115.61 -904.39,2020 -2020,2020 -1115.61,0 -2020,-904.39 -2020,-2020 0,-1115.61 904.39,-2020 2020,-2020 1115.61,0 2020,904.39 2020,2020"
         id="path626" />
    </clipPath>
    <clipPath
       clipPathUnits="userSpaceOnUse"
       id="clipPath628">
      <path
         d="m 5080,3960 c 0,1115.61 -904.39,2020 -2020,2020 -1115.61,0 -2020,-904.39 -2020,-2020 0,-1115.61 904.39,-2020 2020,-2020 1115.61,0 2020,904.39 2020,2020"
         id="path628" />
    </clipPath>
    <clipPath
       clipPathUnits="userSpaceOnUse"
       id="clipPath630">
      <path
         d="m 5080,3960 c 0,1115.61 -904.39,2020 -2020,2020 -1115.61,0 -2020,-904.39 -2020,-2020 0,-1115.61 904.39,-2020 2020,-2020 1115.61,0 2020,904.39 2020,2020"
         id="path630" />
    </clipPath>
    <clipPath
       clipPathUnits="userSpaceOnUse"
       id="clipPath632">
      <path
         d="m 5080,3960 c 0,1115.61 -904.39,2020 -2020,2020 -1115.61,0 -2020,-904.39 -2020,-2020 0,-1115.61 904.39,-2020 2020,-2020 1115.61,0 2020,904.39 2020,2020"
         id="path632" />
    </clipPath>
    <clipPath
       clipPathUnits="userSpaceOnUse"
       id="clipPath634">
      <path
         d="m 5080,3960 c 0,1115.61 -904.39,2020 -2020,2020 -1115.61,0 -2020,-904.39 -2020,-2020 0,-1115.61 904.39,-2020 2020,-2020 1115.61,0 2020,904.39 2020,2020"
         id="path634" />
    </clipPath>
    <clipPath
       clipPathUnits="userSpaceOnUse"
       id="clipPath636">
      <path
         d="m 5080,3960 c 0,1115.61 -904.39,2020 -2020,2020 -1115.61,0 -2020,-904.39 -2020,-2020 0,-1115.61 904.39,-2020 2020,-2020 1115.61,0 2020,904.39 2020,2020"
         id="path636" />
    </clipPath>
    <clipPath
       clipPathUnits="userSpaceOnUse"
       id="clipPath638">
      <path
         d="m 5080,3960 c 0,1115.61 -904.39,2020 -2020,2020 -1115.61,0 -2020,-904.39 -2020,-2020 0,-1115.61 904.39,-2020 2020,-2020 1115.61,0 2020,904.39 2020,2020"
         id="path638" />
    </clipPath>
    <clipPath
       clipPathUnits="userSpaceOnUse"
       id="clipPath640">
      <path
         d="m 5080,3960 c 0,1115.61 -904.39,2020 -2020,2020 -1115.61,0 -2020,-904.39 -2020,-2020 0,-1115.61 904.39,-2020 2020,-2020 1115.61,0 2020,904.39 2020,2020"
         id="path640" />
    </clipPath>
    <clipPath
       clipPathUnits="userSpaceOnUse"
       id="clipPath642">
      <path
         d="m 5080,3960 c 0,1115.61 -904.39,2020 -2020,2020 -1115.61,0 -2020,-904.39 -2020,-2020 0,-1115.61 904.39,-2020 2020,-2020 1115.61,0 2020,904.39 2020,2020"
         id="path642" />
    </clipPath>
    <clipPath
       clipPathUnits="userSpaceOnUse"
       id="clipPath644">
      <path
         d="m 5080,3960 c 0,1115.61 -904.39,2020 -2020,2020 -1115.61,0 -2020,-904.39 -2020,-2020 0,-1115.61 904.39,-2020 2020,-2020 1115.61,0 2020,904.39 2020,2020"
         id="path644" />
    </clipPath>
    <clipPath
       clipPathUnits="userSpaceOnUse"
       id="clipPath646">
      <path
         d="m 5080,3960 c 0,1115.61 -904.39,2020 -2020,2020 -1115.61,0 -2020,-904.39 -2020,-2020 0,-1115.61 904.39,-2020 2020,-2020 1115.61,0 2020,904.39 2020,2020"
         id="path646" />
    </clipPath>
    <clipPath
       clipPathUnits="userSpaceOnUse"
       id="clipPath648">
      <path
         d="m 5080,3960 c 0,1115.61 -904.39,2020 -2020,2020 -1115.61,0 -2020,-904.39 -2020,-2020 0,-1115.61 904.39,-2020 2020,-2020 1115.61,0 2020,904.39 2020,2020"
         id="path648" />
    </clipPath>
    <clipPath
       clipPathUnits="userSpaceOnUse"
       id="clipPath650">
      <path
         d="m 5080,3960 c 0,1115.61 -904.39,2020 -2020,2020 -1115.61,0 -2020,-904.39 -2020,-2020 0,-1115.61 904.39,-2020 2020,-2020 1115.61,0 2020,904.39 2020,2020"
         id="path650" />
    </clipPath>
    <clipPath
       clipPathUnits="userSpaceOnUse"
       id="clipPath652">
      <path
         d="m 5080,3960 c 0,1115.61 -904.39,2020 -2020,2020 -1115.61,0 -2020,-904.39 -2020,-2020 0,-1115.61 904.39,-2020 2020,-2020 1115.61,0 2020,904.39 2020,2020"
         id="path652" />
    </clipPath>
    <clipPath
       clipPathUnits="userSpaceOnUse"
       id="clipPath654">
      <path
         d="m 5080,3960 c 0,1115.61 -904.39,2020 -2020,2020 -1115.61,0 -2020,-904.39 -2020,-2020 0,-1115.61 904.39,-2020 2020,-2020 1115.61,0 2020,904.39 2020,2020"
         id="path654" />
    </clipPath>
    <clipPath
       clipPathUnits="userSpaceOnUse"
       id="clipPath656">
      <path
         d="m 5080,3960 c 0,1115.61 -904.39,2020 -2020,2020 -1115.61,0 -2020,-904.39 -2020,-2020 0,-1115.61 904.39,-2020 2020,-2020 1115.61,0 2020,904.39 2020,2020"
         id="path656" />
    </clipPath>
    <clipPath
       clipPathUnits="userSpaceOnUse"
       id="clipPath658">
      <path
         d="m 5080,3960 c 0,1115.61 -904.39,2020 -2020,2020 -1115.61,0 -2020,-904.39 -2020,-2020 0,-1115.61 904.39,-2020 2020,-2020 1115.61,0 2020,904.39 2020,2020"
         id="path658" />
    </clipPath>
    <clipPath
       clipPathUnits="userSpaceOnUse"
       id="clipPath660">
      <path
         d="m 5080,3960 c 0,1115.61 -904.39,2020 -2020,2020 -1115.61,0 -2020,-904.39 -2020,-2020 0,-1115.61 904.39,-2020 2020,-2020 1115.61,0 2020,904.39 2020,2020"
         id="path660" />
    </clipPath>
  </defs>
  <sodipodi:namedview
     id="namedview1"
     pagecolor="#ffffff"
     bordercolor="#666666"
     borderopacity="1.0"
     inkscape:showpageshadow="2"
     inkscape:pageopacity="0.0"
     inkscape:pagecheckerboard="0"
     inkscape:deskcolor="#d1d1d1"
     showguides="true"
     inkscape:zoom="1.2567082"
     inkscape:cx="99.068344"
     inkscape:cy="321.47479"
     inkscape:window-width="2525"
     inkscape:window-height="1070"
     inkscape:window-x="0"
     inkscape:window-y="0"
     inkscape:window-maximized="1"
     inkscape:current-layer="layer2">
    <inkscape:page
       x="0"
       y="0"
       inkscape:label="1"
       id="page1"
       width="672.1333"
       height="672.1333"
       margin="0"
       bleed="0" />
    <sodipodi:guide
       position="336.06667,719.93335"
       orientation="1,0"
       id="guide663"
       inkscape:locked="false" />
    <sodipodi:guide
       position="336.06667,719.93335"
       orientation="0,-1"
       id="guide664"
       inkscape:locked="false" />
  </sodipodi:namedview>
  <g
     inkscape:groupmode="layer"
     id="layer2"
     inkscape:label="cuts"
     style="display:inline"
     transform="translate(-71.933334,-191.93335)">
    <path
       id="path20"
       d="M 5580,3960 C 5580,5351.75 4451.75,6480 3060,6480 1668.25,6480 540,5351.75 540,3960 540,2568.25 1668.25,1440 3060,1440 c 1391.75,0 2520,1128.25 2520,2520"
       style="display:inline;fill:none;fill-opacity:1;fill-rule:nonzero;stroke:#000000;stroke-width:1;stroke-linecap:butt;stroke-linejoin:miter;stroke-miterlimit:10;stroke-dasharray:none;stroke-opacity:1"
       transform="matrix(0.13333333,0,0,-0.13333333,0,1056)" />
    <path
       id="path21"
       d="m 5220,3960 c 0,1192.93 -967.07,2160 -2160,2160 -1192.93,0 -2160,-967.07 -2160,-2160 0,-1192.93 967.07,-2160 2160,-2160 1192.93,0 2160,967.07 2160,2160"
       style="display:inline;fill:none;stroke:#000000;stroke-width:1;stroke-linecap:butt;stroke-linejoin:miter;stroke-miterlimit:10;stroke-dasharray:none;stroke-opacity:1"
       transform="matrix(0.13333333,0,0,-0.13333333,0,1056)" />
    <path
       id="path14"
       d="m 414.67231,527.99083 c 0,-3.68133 -2.98534,-6.66666 -6.66667,-6.66666 -3.68133,0 -6.66667,2.98533 -6.66667,6.66666 0,3.68134 2.98534,6.66667 6.66667,6.66667 3.68133,0 6.66667,-2.98533 6.66667,-6.66667"
       style="display:inline;fill:#ffffff;fill-opacity:1;fill-rule:nonzero;stroke:#000000;stroke-width:0.133333;stroke-linecap:butt;stroke-linejoin:miter;stroke-miterlimit:10;stroke-dasharray:none;stroke-opacity:1" />
    <path
       id="path1"
       d="m 694.43948,527.99995 c 0,-158.19548 -128.244,-286.43947 -286.43948,-286.43947 -158.19549,0 -286.43948,128.24399 -286.43948,286.43947 0,158.19549 128.24399,286.43948 286.43948,286.43948 158.19548,0 286.43948,-128.24399 286.43948,-286.43948"
       style="display:inline;fill:none;stroke:#000000;stroke-width:0.133334;stroke-linecap:butt;stroke-linejoin:miter;stroke-miterlimit:10;stroke-dasharray:none;stroke-opacity:1" />
  </g>
  <g
     inkscape:groupmode="layer"
     id="layer3"
     inkscape:label="lines"
     style="display:none"
     transform="translate(-71.933334,-191.93335)" />
</svg>
