%!PS-Adobe-3.0 EPSF-30.
%%BoundingBox: 0 0 612 792
%%Title: Sine Quadrant
%%Creator: Richard Wymarc
%%CreationDate: 
%%EndComments
mark
/Quadrant 10 dict def %local variable dictionary
Quadrant begin

%% setup
% Fill Background
1 setgray
newpath
0 0 moveto
0 792 lineto
612 792 lineto
612 0 lineto
0 0 lineto
fill
0 setgray
36 626 translate
.4 setlinewidth

%% ================ Set Up Fonts =================
/NormalFont /Times-Roman findfont
dup length dict begin {1 index /FID ne {def} {pop pop} ifelse} forall
/Encoding ISOLatin1Encoding def currentdict end
/Times-Roman-ISOLatin1 exch definefont
def
/NormalFont5 NormalFont 5 scalefont def
/NormalFont6 NormalFont 6 scalefont def
/NormalFont7 NormalFont 7 scalefont def
/NormalFont8 NormalFont 8 scalefont def
/NormalFont10 NormalFont 10 scalefont def
/NormalFont12 NormalFont 12 scalefont def
/NormalFont14 NormalFont 14 scalefont def
/NormalFont16 NormalFont 16 scalefont def
/NormalFont18 NormalFont 18 scalefont def
/NormalFont20 NormalFont 20 scalefont def
%% ================ End Set Up Fonts =================
/drawX
{gsave
newpath
moveto
-1.5 -1.5 rmoveto
3 3 rlineto
-3 0 rmoveto
3 -3 rlineto stroke
grestore}def

/drawSmallX
{gsave
newpath
moveto
-1 -1 rmoveto
2 2 rlineto
-2 0 rmoveto
2 -2 rlineto stroke
grestore}def

/cross
{gsave
newpath
moveto
-4 6 rlineto
8 0 rlineto
-4 -6 rlineto
6 4 rlineto
0 -8 rlineto
-6 4 rlineto
4 -6 rlineto
-8 0 rlineto
4 6 rlineto
-6 -4 rlineto
0 8 rlineto
+6 -4 rlineto fill
grestore}def

/diamond
{
/y exch def
/x exch def
gsave
newpath
x y moveto
0 6 rmoveto
6 -6 rlineto
-6 -6 rlineto
-6 6 rlineto
6 6 rlineto
-3 -3 rmoveto
6 -6 rlineto
0 6 rmoveto
-6 -6 rlineto stroke
grestore
gsave
newpath
1 setgray
x y 2 0 360 arc fill
0 setgray
x y 2 0 360 arc stroke
grestore}def
%% ================ Set Up Circular Text Routine =================
/outsidecircletext
{ circtextdict begin
/radius exch def
/centerangle exch def
/ptsize exch def
/str exch def
/xradius radius ptsize 4 div add def

gsave
centerangle str findhalfangle add rotate

str
{ /charcode exch def
( ) dup 0 charcode put outsideplacechar
} forall
grestore
end
} def

/insidecircletext
{ circtextdict begin
/radius exch def /centerangle exch def
/ptsize exch def /str exch def
/xradius radius ptsize 3 div sub def
gsave
centerangle str findhalfangle sub rotate
str
{ /charcode exch def
( ) dup 0 charcode put insideplacechar
} forall
grestore
end
} def

/circtextdict 16 dict def
circtextdict begin
/findhalfangle
{ stringwidth pop 2 div
2 xradius mul pi mul div 360 mul
} def

/outsideplacechar
{ /char exch def
/halfangle char findhalfangle def
gsave
halfangle neg rotate
radius 0 translate
-90 rotate
char stringwidth pop 2 div neg 0 moveto
char show
grestore
halfangle 2 mul neg rotate
} def

/insideplacechar
{ /char exch def
/halfangle char findhalfangle def
gsave
halfangle rotate
radius 0 translate
90 rotate
char stringwidth pop 2 div neg 0 moveto
char show
grestore
halfangle 2 mul rotate
} def
/pi 3.1415923 def
end

%% ================ End Circular Text Routine =================
gsave
%% ================ Draw Outlines =================
newpath
0 0 moveto
540 0 lineto
540 -36 lineto stroke
0 0 moveto
0 -540 lineto
36 -540 lineto stroke
36 -36 504 270 360 arc stroke
newpath
10 -10 moveto
540 -10 lineto stroke
newpath
13 -13 moveto
540 -13 lineto stroke
newpath
13 -33 moveto
540 -33 lineto stroke
newpath
13 -36 moveto
540 -36 lineto stroke
newpath
10 -10 moveto
10 -540 lineto stroke
newpath
13 -13 moveto
13 -540  lineto stroke
newpath
33 -13 moveto
33 -540 lineto stroke
newpath
36 -13 moveto
36 -540 lineto stroke
newpath
0 0 moveto
0 36 lineto
150.66666666666666 36 lineto
150.66666666666666 18 lineto
376.66666666666663 18 lineto
376.66666666666663 36 lineto
540 36 lineto
540 0 lineto stroke
%% ================ End Draw Outlines =================
grestore
36 -36 translate
gsave
%% ================ Draw Degree Scale =================
0 0 494 270 360 arc stroke
0 0 491 270 360 arc stroke
0 0 467 270 360 arc stroke
0 0 464 270 360 arc stroke
0 0 458 270 360 arc stroke
0 0 452 270 360 arc stroke
-0.5 rotate
458 0 moveto
452 0 lineto stroke
-0.5 rotate
458 0 moveto
452 0 lineto stroke
-0.5 rotate
458 0 moveto
452 0 lineto stroke
-0.5 rotate
458 0 moveto
452 0 lineto stroke
-0.5 rotate
458 0 moveto
452 0 lineto stroke
-0.5 rotate
458 0 moveto
452 0 lineto stroke
-0.5 rotate
458 0 moveto
452 0 lineto stroke
-0.5 rotate
458 0 moveto
452 0 lineto stroke
-0.5 rotate
458 0 moveto
452 0 lineto stroke
-0.5 rotate
458 0 moveto
452 0 lineto stroke
-0.5 rotate
458 0 moveto
452 0 lineto stroke
-0.5 rotate
458 0 moveto
452 0 lineto stroke
-0.5 rotate
458 0 moveto
452 0 lineto stroke
-0.5 rotate
458 0 moveto
452 0 lineto stroke
-0.5 rotate
458 0 moveto
452 0 lineto stroke
-0.5 rotate
458 0 moveto
452 0 lineto stroke
-0.5 rotate
458 0 moveto
452 0 lineto stroke
-0.5 rotate
458 0 moveto
452 0 lineto stroke
-0.5 rotate
458 0 moveto
452 0 lineto stroke
-0.5 rotate
458 0 moveto
452 0 lineto stroke
-0.5 rotate
458 0 moveto
452 0 lineto stroke
-0.5 rotate
458 0 moveto
452 0 lineto stroke
-0.5 rotate
458 0 moveto
452 0 lineto stroke
-0.5 rotate
458 0 moveto
452 0 lineto stroke
-0.5 rotate
458 0 moveto
452 0 lineto stroke
-0.5 rotate
458 0 moveto
452 0 lineto stroke
-0.5 rotate
458 0 moveto
452 0 lineto stroke
-0.5 rotate
458 0 moveto
452 0 lineto stroke
-0.5 rotate
458 0 moveto
452 0 lineto stroke
-0.5 rotate
458 0 moveto
452 0 lineto stroke
-0.5 rotate
458 0 moveto
452 0 lineto stroke
-0.5 rotate
458 0 moveto
452 0 lineto stroke
-0.5 rotate
458 0 moveto
452 0 lineto stroke
-0.5 rotate
458 0 moveto
452 0 lineto stroke
-0.5 rotate
458 0 moveto
452 0 lineto stroke
-0.5 rotate
458 0 moveto
452 0 lineto stroke
-0.5 rotate
458 0 moveto
452 0 lineto stroke
-0.5 rotate
458 0 moveto
452 0 lineto stroke
-0.5 rotate
458 0 moveto
452 0 lineto stroke
-0.5 rotate
458 0 moveto
452 0 lineto stroke
-0.5 rotate
458 0 moveto
452 0 lineto stroke
-0.5 rotate
458 0 moveto
452 0 lineto stroke
-0.5 rotate
458 0 moveto
452 0 lineto stroke
-0.5 rotate
458 0 moveto
452 0 lineto stroke
-0.5 rotate
458 0 moveto
452 0 lineto stroke
-0.5 rotate
458 0 moveto
452 0 lineto stroke
-0.5 rotate
458 0 moveto
452 0 lineto stroke
-0.5 rotate
458 0 moveto
452 0 lineto stroke
-0.5 rotate
458 0 moveto
452 0 lineto stroke
-0.5 rotate
458 0 moveto
452 0 lineto stroke
-0.5 rotate
458 0 moveto
452 0 lineto stroke
-0.5 rotate
458 0 moveto
452 0 lineto stroke
-0.5 rotate
458 0 moveto
452 0 lineto stroke
-0.5 rotate
458 0 moveto
452 0 lineto stroke
-0.5 rotate
458 0 moveto
452 0 lineto stroke
-0.5 rotate
458 0 moveto
452 0 lineto stroke
-0.5 rotate
458 0 moveto
452 0 lineto stroke
-0.5 rotate
458 0 moveto
452 0 lineto stroke
-0.5 rotate
458 0 moveto
452 0 lineto stroke
-0.5 rotate
458 0 moveto
452 0 lineto stroke
-0.5 rotate
458 0 moveto
452 0 lineto stroke
-0.5 rotate
458 0 moveto
452 0 lineto stroke
-0.5 rotate
458 0 moveto
452 0 lineto stroke
-0.5 rotate
458 0 moveto
452 0 lineto stroke
-0.5 rotate
458 0 moveto
452 0 lineto stroke
-0.5 rotate
458 0 moveto
452 0 lineto stroke
-0.5 rotate
458 0 moveto
452 0 lineto stroke
-0.5 rotate
458 0 moveto
452 0 lineto stroke
-0.5 rotate
458 0 moveto
452 0 lineto stroke
-0.5 rotate
458 0 moveto
452 0 lineto stroke
-0.5 rotate
458 0 moveto
452 0 lineto stroke
-0.5 rotate
458 0 moveto
452 0 lineto stroke
-0.5 rotate
458 0 moveto
452 0 lineto stroke
-0.5 rotate
458 0 moveto
452 0 lineto stroke
-0.5 rotate
458 0 moveto
452 0 lineto stroke
-0.5 rotate
458 0 moveto
452 0 lineto stroke
-0.5 rotate
458 0 moveto
452 0 lineto stroke
-0.5 rotate
458 0 moveto
452 0 lineto stroke
-0.5 rotate
458 0 moveto
452 0 lineto stroke
-0.5 rotate
458 0 moveto
452 0 lineto stroke
-0.5 rotate
458 0 moveto
452 0 lineto stroke
-0.5 rotate
458 0 moveto
452 0 lineto stroke
-0.5 rotate
458 0 moveto
452 0 lineto stroke
-0.5 rotate
458 0 moveto
452 0 lineto stroke
-0.5 rotate
458 0 moveto
452 0 lineto stroke
-0.5 rotate
458 0 moveto
452 0 lineto stroke
-0.5 rotate
458 0 moveto
452 0 lineto stroke
-0.5 rotate
458 0 moveto
452 0 lineto stroke
-0.5 rotate
458 0 moveto
452 0 lineto stroke
-0.5 rotate
458 0 moveto
452 0 lineto stroke
-0.5 rotate
458 0 moveto
452 0 lineto stroke
-0.5 rotate
458 0 moveto
452 0 lineto stroke
-0.5 rotate
458 0 moveto
452 0 lineto stroke
-0.5 rotate
458 0 moveto
452 0 lineto stroke
-0.5 rotate
458 0 moveto
452 0 lineto stroke
-0.5 rotate
458 0 moveto
452 0 lineto stroke
-0.5 rotate
458 0 moveto
452 0 lineto stroke
-0.5 rotate
458 0 moveto
452 0 lineto stroke
-0.5 rotate
458 0 moveto
452 0 lineto stroke
-0.5 rotate
458 0 moveto
452 0 lineto stroke
-0.5 rotate
458 0 moveto
452 0 lineto stroke
-0.5 rotate
458 0 moveto
452 0 lineto stroke
-0.5 rotate
458 0 moveto
452 0 lineto stroke
-0.5 rotate
458 0 moveto
452 0 lineto stroke
-0.5 rotate
458 0 moveto
452 0 lineto stroke
-0.5 rotate
458 0 moveto
452 0 lineto stroke
-0.5 rotate
458 0 moveto
452 0 lineto stroke
-0.5 rotate
458 0 moveto
452 0 lineto stroke
-0.5 rotate
458 0 moveto
452 0 lineto stroke
-0.5 rotate
458 0 moveto
452 0 lineto stroke
-0.5 rotate
458 0 moveto
452 0 lineto stroke
-0.5 rotate
458 0 moveto
452 0 lineto stroke
-0.5 rotate
458 0 moveto
452 0 lineto stroke
-0.5 rotate
458 0 moveto
452 0 lineto stroke
-0.5 rotate
458 0 moveto
452 0 lineto stroke
-0.5 rotate
458 0 moveto
452 0 lineto stroke
-0.5 rotate
458 0 moveto
452 0 lineto stroke
-0.5 rotate
458 0 moveto
452 0 lineto stroke
-0.5 rotate
458 0 moveto
452 0 lineto stroke
-0.5 rotate
458 0 moveto
452 0 lineto stroke
-0.5 rotate
458 0 moveto
452 0 lineto stroke
-0.5 rotate
458 0 moveto
452 0 lineto stroke
-0.5 rotate
458 0 moveto
452 0 lineto stroke
-0.5 rotate
458 0 moveto
452 0 lineto stroke
-0.5 rotate
458 0 moveto
452 0 lineto stroke
-0.5 rotate
458 0 moveto
452 0 lineto stroke
-0.5 rotate
458 0 moveto
452 0 lineto stroke
-0.5 rotate
458 0 moveto
452 0 lineto stroke
-0.5 rotate
458 0 moveto
452 0 lineto stroke
-0.5 rotate
458 0 moveto
452 0 lineto stroke
-0.5 rotate
458 0 moveto
452 0 lineto stroke
-0.5 rotate
458 0 moveto
452 0 lineto stroke
-0.5 rotate
458 0 moveto
452 0 lineto stroke
-0.5 rotate
458 0 moveto
452 0 lineto stroke
-0.5 rotate
458 0 moveto
452 0 lineto stroke
-0.5 rotate
458 0 moveto
452 0 lineto stroke
-0.5 rotate
458 0 moveto
452 0 lineto stroke
-0.5 rotate
458 0 moveto
452 0 lineto stroke
-0.5 rotate
458 0 moveto
452 0 lineto stroke
-0.5 rotate
458 0 moveto
452 0 lineto stroke
-0.5 rotate
458 0 moveto
452 0 lineto stroke
-0.5 rotate
458 0 moveto
452 0 lineto stroke
-0.5 rotate
458 0 moveto
452 0 lineto stroke
-0.5 rotate
458 0 moveto
452 0 lineto stroke
-0.5 rotate
458 0 moveto
452 0 lineto stroke
-0.5 rotate
458 0 moveto
452 0 lineto stroke
-0.5 rotate
458 0 moveto
452 0 lineto stroke
-0.5 rotate
458 0 moveto
452 0 lineto stroke
-0.5 rotate
458 0 moveto
452 0 lineto stroke
-0.5 rotate
458 0 moveto
452 0 lineto stroke
-0.5 rotate
458 0 moveto
452 0 lineto stroke
-0.5 rotate
458 0 moveto
452 0 lineto stroke
-0.5 rotate
458 0 moveto
452 0 lineto stroke
-0.5 rotate
458 0 moveto
452 0 lineto stroke
-0.5 rotate
458 0 moveto
452 0 lineto stroke
-0.5 rotate
458 0 moveto
452 0 lineto stroke
-0.5 rotate
458 0 moveto
452 0 lineto stroke
-0.5 rotate
458 0 moveto
452 0 lineto stroke
-0.5 rotate
458 0 moveto
452 0 lineto stroke
-0.5 rotate
458 0 moveto
452 0 lineto stroke
-0.5 rotate
458 0 moveto
452 0 lineto stroke
-0.5 rotate
458 0 moveto
452 0 lineto stroke
-0.5 rotate
458 0 moveto
452 0 lineto stroke
-0.5 rotate
458 0 moveto
452 0 lineto stroke
-0.5 rotate
458 0 moveto
452 0 lineto stroke
-0.5 rotate
458 0 moveto
452 0 lineto stroke
-0.5 rotate
458 0 moveto
452 0 lineto stroke
-0.5 rotate
458 0 moveto
452 0 lineto stroke
-0.5 rotate
458 0 moveto
452 0 lineto stroke
-0.5 rotate
458 0 moveto
452 0 lineto stroke
-0.5 rotate
458 0 moveto
452 0 lineto stroke
-0.5 rotate
458 0 moveto
452 0 lineto stroke
-0.5 rotate
458 0 moveto
452 0 lineto stroke
-0.5 rotate
458 0 moveto
452 0 lineto stroke
-0.5 rotate
458 0 moveto
452 0 lineto stroke
-0.5 rotate
458 0 moveto
452 0 lineto stroke
-0.5 rotate
458 0 moveto
452 0 lineto stroke
-0.5 rotate
458 0 moveto
452 0 lineto stroke
-0.5 rotate
458 0 moveto
452 0 lineto stroke
89.5 rotate
-1 rotate
464 0 moveto
458 0 lineto stroke
-1 rotate
464 0 moveto
458 0 lineto stroke
-1 rotate
464 0 moveto
458 0 lineto stroke
-1 rotate
464 0 moveto
458 0 lineto stroke
-1 rotate
464 0 moveto
458 0 lineto stroke
-1 rotate
464 0 moveto
458 0 lineto stroke
-1 rotate
464 0 moveto
458 0 lineto stroke
-1 rotate
464 0 moveto
458 0 lineto stroke
-1 rotate
464 0 moveto
458 0 lineto stroke
-1 rotate
464 0 moveto
458 0 lineto stroke
-1 rotate
464 0 moveto
458 0 lineto stroke
-1 rotate
464 0 moveto
458 0 lineto stroke
-1 rotate
464 0 moveto
458 0 lineto stroke
-1 rotate
464 0 moveto
458 0 lineto stroke
-1 rotate
464 0 moveto
458 0 lineto stroke
-1 rotate
464 0 moveto
458 0 lineto stroke
-1 rotate
464 0 moveto
458 0 lineto stroke
-1 rotate
464 0 moveto
458 0 lineto stroke
-1 rotate
464 0 moveto
458 0 lineto stroke
-1 rotate
464 0 moveto
458 0 lineto stroke
-1 rotate
464 0 moveto
458 0 lineto stroke
-1 rotate
464 0 moveto
458 0 lineto stroke
-1 rotate
464 0 moveto
458 0 lineto stroke
-1 rotate
464 0 moveto
458 0 lineto stroke
-1 rotate
464 0 moveto
458 0 lineto stroke
-1 rotate
464 0 moveto
458 0 lineto stroke
-1 rotate
464 0 moveto
458 0 lineto stroke
-1 rotate
464 0 moveto
458 0 lineto stroke
-1 rotate
464 0 moveto
458 0 lineto stroke
-1 rotate
464 0 moveto
458 0 lineto stroke
-1 rotate
464 0 moveto
458 0 lineto stroke
-1 rotate
464 0 moveto
458 0 lineto stroke
-1 rotate
464 0 moveto
458 0 lineto stroke
-1 rotate
464 0 moveto
458 0 lineto stroke
-1 rotate
464 0 moveto
458 0 lineto stroke
-1 rotate
464 0 moveto
458 0 lineto stroke
-1 rotate
464 0 moveto
458 0 lineto stroke
-1 rotate
464 0 moveto
458 0 lineto stroke
-1 rotate
464 0 moveto
458 0 lineto stroke
-1 rotate
464 0 moveto
458 0 lineto stroke
-1 rotate
464 0 moveto
458 0 lineto stroke
-1 rotate
464 0 moveto
458 0 lineto stroke
-1 rotate
464 0 moveto
458 0 lineto stroke
-1 rotate
464 0 moveto
458 0 lineto stroke
-1 rotate
464 0 moveto
458 0 lineto stroke
-1 rotate
464 0 moveto
458 0 lineto stroke
-1 rotate
464 0 moveto
458 0 lineto stroke
-1 rotate
464 0 moveto
458 0 lineto stroke
-1 rotate
464 0 moveto
458 0 lineto stroke
-1 rotate
464 0 moveto
458 0 lineto stroke
-1 rotate
464 0 moveto
458 0 lineto stroke
-1 rotate
464 0 moveto
458 0 lineto stroke
-1 rotate
464 0 moveto
458 0 lineto stroke
-1 rotate
464 0 moveto
458 0 lineto stroke
-1 rotate
464 0 moveto
458 0 lineto stroke
-1 rotate
464 0 moveto
458 0 lineto stroke
-1 rotate
464 0 moveto
458 0 lineto stroke
-1 rotate
464 0 moveto
458 0 lineto stroke
-1 rotate
464 0 moveto
458 0 lineto stroke
-1 rotate
464 0 moveto
458 0 lineto stroke
-1 rotate
464 0 moveto
458 0 lineto stroke
-1 rotate
464 0 moveto
458 0 lineto stroke
-1 rotate
464 0 moveto
458 0 lineto stroke
-1 rotate
464 0 moveto
458 0 lineto stroke
-1 rotate
464 0 moveto
458 0 lineto stroke
-1 rotate
464 0 moveto
458 0 lineto stroke
-1 rotate
464 0 moveto
458 0 lineto stroke
-1 rotate
464 0 moveto
458 0 lineto stroke
-1 rotate
464 0 moveto
458 0 lineto stroke
-1 rotate
464 0 moveto
458 0 lineto stroke
-1 rotate
464 0 moveto
458 0 lineto stroke
-1 rotate
464 0 moveto
458 0 lineto stroke
-1 rotate
464 0 moveto
458 0 lineto stroke
-1 rotate
464 0 moveto
458 0 lineto stroke
-1 rotate
464 0 moveto
458 0 lineto stroke
-1 rotate
464 0 moveto
458 0 lineto stroke
-1 rotate
464 0 moveto
458 0 lineto stroke
-1 rotate
464 0 moveto
458 0 lineto stroke
-1 rotate
464 0 moveto
458 0 lineto stroke
-1 rotate
464 0 moveto
458 0 lineto stroke
-1 rotate
464 0 moveto
458 0 lineto stroke
-1 rotate
464 0 moveto
458 0 lineto stroke
-1 rotate
464 0 moveto
458 0 lineto stroke
-1 rotate
464 0 moveto
458 0 lineto stroke
-1 rotate
464 0 moveto
458 0 lineto stroke
-1 rotate
464 0 moveto
458 0 lineto stroke
-1 rotate
464 0 moveto
458 0 lineto stroke
-1 rotate
464 0 moveto
458 0 lineto stroke
-1 rotate
464 0 moveto
458 0 lineto stroke
89 rotate
-5 rotate
467 0 moveto
491 0 lineto stroke
-5 rotate
467 0 moveto
491 0 lineto stroke
-5 rotate
467 0 moveto
491 0 lineto stroke
-5 rotate
467 0 moveto
491 0 lineto stroke
-5 rotate
467 0 moveto
491 0 lineto stroke
-5 rotate
467 0 moveto
491 0 lineto stroke
-5 rotate
467 0 moveto
491 0 lineto stroke
-5 rotate
467 0 moveto
491 0 lineto stroke
-5 rotate
467 0 moveto
491 0 lineto stroke
-5 rotate
467 0 moveto
491 0 lineto stroke
-5 rotate
467 0 moveto
491 0 lineto stroke
-5 rotate
467 0 moveto
491 0 lineto stroke
-5 rotate
467 0 moveto
491 0 lineto stroke
-5 rotate
467 0 moveto
491 0 lineto stroke
-5 rotate
467 0 moveto
491 0 lineto stroke
-5 rotate
467 0 moveto
491 0 lineto stroke
-5 rotate
467 0 moveto
491 0 lineto stroke
85 rotate
NormalFont20 setfont
(  5) 20.0 -85.0 487.0 insidecircletext
(10) 20.0 -80.0 487.0 insidecircletext
(15) 20.0 -75.0 487.0 insidecircletext
(20) 20.0 -70.0 487.0 insidecircletext
(25) 20.0 -65.0 487.0 insidecircletext
(30) 20.0 -60.0 487.0 insidecircletext
(35) 20.0 -55.0 487.0 insidecircletext
(40) 20.0 -50.0 487.0 insidecircletext
(45) 20.0 -45.0 487.0 insidecircletext
(50) 20.0 -40.0 487.0 insidecircletext
(55) 20.0 -35.0 487.0 insidecircletext
(60) 20.0 -30.0 487.0 insidecircletext
(65) 20.0 -25.0 487.0 insidecircletext
(70) 20.0 -20.0 487.0 insidecircletext
(75) 20.0 -15.0 487.0 insidecircletext
(80) 20.0 -10.0 487.0 insidecircletext
(85) 20.0 -5.0 487.0 insidecircletext
%% ================ End Draw Degree Scale =================
grestore
gsave
%% ================ Draw Sine Scale =================
NormalFont12 setfont
newpath
37.666666666666664 3 moveto
37.666666666666664 23 lineto stroke
29.666666666666664 5 moveto
(5) show
newpath
-3 -37.666666666666664 moveto
-23 -37.666666666666664 lineto stroke
-11 -35.666666666666664 moveto
(5) show
newpath
75.33333333333333 3 moveto
75.33333333333333 23 lineto stroke
61.33333333333333 5 moveto
(10) show
newpath
-3 -75.33333333333333 moveto
-23 -75.33333333333333 lineto stroke
-17 -73.33333333333333 moveto
(10) show
newpath
113.0 3 moveto
113.0 23 lineto stroke
99.0 5 moveto
(15) show
newpath
-3 -113.0 moveto
-23 -113.0 lineto stroke
-17 -111.0 moveto
(15) show
newpath
150.66666666666666 3 moveto
150.66666666666666 23 lineto stroke
136.66666666666666 5 moveto
(20) show
newpath
-3 -150.66666666666666 moveto
-23 -150.66666666666666 lineto stroke
-17 -148.66666666666666 moveto
(20) show
newpath
188.33333333333331 3 moveto
188.33333333333331 23 lineto stroke
174.33333333333331 5 moveto
(25) show
newpath
-3 -188.33333333333331 moveto
-23 -188.33333333333331 lineto stroke
-17 -186.33333333333331 moveto
(25) show
newpath
226.0 3 moveto
226.0 23 lineto stroke
212.0 5 moveto
(30) show
newpath
-3 -226.0 moveto
-23 -226.0 lineto stroke
-17 -224.0 moveto
(30) show
newpath
263.66666666666663 3 moveto
263.66666666666663 23 lineto stroke
249.66666666666663 5 moveto
(35) show
newpath
-3 -263.66666666666663 moveto
-23 -263.66666666666663 lineto stroke
-17 -261.66666666666663 moveto
(35) show
newpath
301.3333333333333 3 moveto
301.3333333333333 23 lineto stroke
287.3333333333333 5 moveto
(40) show
newpath
-3 -301.3333333333333 moveto
-23 -301.3333333333333 lineto stroke
-17 -299.3333333333333 moveto
(40) show
newpath
339.0 3 moveto
339.0 23 lineto stroke
325.0 5 moveto
(45) show
newpath
-3 -339.0 moveto
-23 -339.0 lineto stroke
-17 -337.0 moveto
(45) show
newpath
376.66666666666663 3 moveto
376.66666666666663 23 lineto stroke
362.66666666666663 5 moveto
(50) show
newpath
-3 -376.66666666666663 moveto
-23 -376.66666666666663 lineto stroke
-17 -374.66666666666663 moveto
(50) show
newpath
414.3333333333333 3 moveto
414.3333333333333 23 lineto stroke
400.3333333333333 5 moveto
(55) show
newpath
-3 -414.3333333333333 moveto
-23 -414.3333333333333 lineto stroke
-17 -412.3333333333333 moveto
(55) show
newpath
452.0 3 moveto
452.0 23 lineto stroke
438.0 5 moveto
(60) show
newpath
-3 -452.0 moveto
-23 -452.0 lineto stroke
-17 -450.0 moveto
(60) show
newpath
452 0 moveto
0 0 lineto
0 -452 lineto
0 0 452 270 360 arc clip
.4 setlinewidth
.5 setgray
newpath
7.533333333333333 0 moveto
7.533333333333333 -452 lineto stroke
newpath
0 -7.533333333333333 moveto
452 -7.533333333333333 lineto stroke
.4 setlinewidth
.5 setgray
newpath
15.066666666666666 0 moveto
15.066666666666666 -452 lineto stroke
newpath
0 -15.066666666666666 moveto
452 -15.066666666666666 lineto stroke
.4 setlinewidth
.5 setgray
newpath
22.6 0 moveto
22.6 -452 lineto stroke
newpath
0 -22.6 moveto
452 -22.6 lineto stroke
.4 setlinewidth
.5 setgray
newpath
30.133333333333333 0 moveto
30.133333333333333 -452 lineto stroke
newpath
0 -30.133333333333333 moveto
452 -30.133333333333333 lineto stroke
0 setgray
.8 setlinewidth
newpath
37.666666666666664 0 moveto
37.666666666666664 -452 lineto stroke
newpath
0 -37.666666666666664 moveto
452 -37.666666666666664 lineto stroke
.4 setlinewidth
.5 setgray
newpath
45.2 0 moveto
45.2 -452 lineto stroke
newpath
0 -45.2 moveto
452 -45.2 lineto stroke
.4 setlinewidth
.5 setgray
newpath
52.733333333333334 0 moveto
52.733333333333334 -452 lineto stroke
newpath
0 -52.733333333333334 moveto
452 -52.733333333333334 lineto stroke
.4 setlinewidth
.5 setgray
newpath
60.266666666666666 0 moveto
60.266666666666666 -452 lineto stroke
newpath
0 -60.266666666666666 moveto
452 -60.266666666666666 lineto stroke
.4 setlinewidth
.5 setgray
newpath
67.8 0 moveto
67.8 -452 lineto stroke
newpath
0 -67.8 moveto
452 -67.8 lineto stroke
0 setgray
.8 setlinewidth
newpath
75.33333333333333 0 moveto
75.33333333333333 -452 lineto stroke
newpath
0 -75.33333333333333 moveto
452 -75.33333333333333 lineto stroke
.4 setlinewidth
.5 setgray
newpath
82.86666666666666 0 moveto
82.86666666666666 -452 lineto stroke
newpath
0 -82.86666666666666 moveto
452 -82.86666666666666 lineto stroke
.4 setlinewidth
.5 setgray
newpath
90.4 0 moveto
90.4 -452 lineto stroke
newpath
0 -90.4 moveto
452 -90.4 lineto stroke
.4 setlinewidth
.5 setgray
newpath
97.93333333333334 0 moveto
97.93333333333334 -452 lineto stroke
newpath
0 -97.93333333333334 moveto
452 -97.93333333333334 lineto stroke
.4 setlinewidth
.5 setgray
newpath
105.46666666666667 0 moveto
105.46666666666667 -452 lineto stroke
newpath
0 -105.46666666666667 moveto
452 -105.46666666666667 lineto stroke
0 setgray
.8 setlinewidth
newpath
113.0 0 moveto
113.0 -452 lineto stroke
newpath
0 -113.0 moveto
452 -113.0 lineto stroke
.4 setlinewidth
.5 setgray
newpath
120.53333333333333 0 moveto
120.53333333333333 -452 lineto stroke
newpath
0 -120.53333333333333 moveto
452 -120.53333333333333 lineto stroke
.4 setlinewidth
.5 setgray
newpath
128.06666666666666 0 moveto
128.06666666666666 -452 lineto stroke
newpath
0 -128.06666666666666 moveto
452 -128.06666666666666 lineto stroke
.4 setlinewidth
.5 setgray
newpath
135.6 0 moveto
135.6 -452 lineto stroke
newpath
0 -135.6 moveto
452 -135.6 lineto stroke
.4 setlinewidth
.5 setgray
newpath
143.13333333333333 0 moveto
143.13333333333333 -452 lineto stroke
newpath
0 -143.13333333333333 moveto
452 -143.13333333333333 lineto stroke
0 setgray
.8 setlinewidth
newpath
150.66666666666666 0 moveto
150.66666666666666 -452 lineto stroke
newpath
0 -150.66666666666666 moveto
452 -150.66666666666666 lineto stroke
.4 setlinewidth
.5 setgray
newpath
158.2 0 moveto
158.2 -452 lineto stroke
newpath
0 -158.2 moveto
452 -158.2 lineto stroke
.4 setlinewidth
.5 setgray
newpath
165.73333333333332 0 moveto
165.73333333333332 -452 lineto stroke
newpath
0 -165.73333333333332 moveto
452 -165.73333333333332 lineto stroke
.4 setlinewidth
.5 setgray
newpath
173.26666666666665 0 moveto
173.26666666666665 -452 lineto stroke
newpath
0 -173.26666666666665 moveto
452 -173.26666666666665 lineto stroke
.4 setlinewidth
.5 setgray
newpath
180.8 0 moveto
180.8 -452 lineto stroke
newpath
0 -180.8 moveto
452 -180.8 lineto stroke
0 setgray
.8 setlinewidth
newpath
188.33333333333334 0 moveto
188.33333333333334 -452 lineto stroke
newpath
0 -188.33333333333334 moveto
452 -188.33333333333334 lineto stroke
.4 setlinewidth
.5 setgray
newpath
195.86666666666667 0 moveto
195.86666666666667 -452 lineto stroke
newpath
0 -195.86666666666667 moveto
452 -195.86666666666667 lineto stroke
.4 setlinewidth
.5 setgray
newpath
203.4 0 moveto
203.4 -452 lineto stroke
newpath
0 -203.4 moveto
452 -203.4 lineto stroke
.4 setlinewidth
.5 setgray
newpath
210.93333333333334 0 moveto
210.93333333333334 -452 lineto stroke
newpath
0 -210.93333333333334 moveto
452 -210.93333333333334 lineto stroke
.4 setlinewidth
.5 setgray
newpath
218.46666666666667 0 moveto
218.46666666666667 -452 lineto stroke
newpath
0 -218.46666666666667 moveto
452 -218.46666666666667 lineto stroke
0 setgray
.8 setlinewidth
newpath
226.0 0 moveto
226.0 -452 lineto stroke
newpath
0 -226.0 moveto
452 -226.0 lineto stroke
.4 setlinewidth
.5 setgray
newpath
233.53333333333333 0 moveto
233.53333333333333 -452 lineto stroke
newpath
0 -233.53333333333333 moveto
452 -233.53333333333333 lineto stroke
.4 setlinewidth
.5 setgray
newpath
241.06666666666666 0 moveto
241.06666666666666 -452 lineto stroke
newpath
0 -241.06666666666666 moveto
452 -241.06666666666666 lineto stroke
.4 setlinewidth
.5 setgray
newpath
248.6 0 moveto
248.6 -452 lineto stroke
newpath
0 -248.6 moveto
452 -248.6 lineto stroke
.4 setlinewidth
.5 setgray
newpath
256.1333333333333 0 moveto
256.1333333333333 -452 lineto stroke
newpath
0 -256.1333333333333 moveto
452 -256.1333333333333 lineto stroke
0 setgray
.8 setlinewidth
newpath
263.6666666666667 0 moveto
263.6666666666667 -452 lineto stroke
newpath
0 -263.6666666666667 moveto
452 -263.6666666666667 lineto stroke
.4 setlinewidth
.5 setgray
newpath
271.2 0 moveto
271.2 -452 lineto stroke
newpath
0 -271.2 moveto
452 -271.2 lineto stroke
.4 setlinewidth
.5 setgray
newpath
278.73333333333335 0 moveto
278.73333333333335 -452 lineto stroke
newpath
0 -278.73333333333335 moveto
452 -278.73333333333335 lineto stroke
.4 setlinewidth
.5 setgray
newpath
286.26666666666665 0 moveto
286.26666666666665 -452 lineto stroke
newpath
0 -286.26666666666665 moveto
452 -286.26666666666665 lineto stroke
.4 setlinewidth
.5 setgray
newpath
293.8 0 moveto
293.8 -452 lineto stroke
newpath
0 -293.8 moveto
452 -293.8 lineto stroke
0 setgray
.8 setlinewidth
newpath
301.3333333333333 0 moveto
301.3333333333333 -452 lineto stroke
newpath
0 -301.3333333333333 moveto
452 -301.3333333333333 lineto stroke
.4 setlinewidth
.5 setgray
newpath
308.8666666666667 0 moveto
308.8666666666667 -452 lineto stroke
newpath
0 -308.8666666666667 moveto
452 -308.8666666666667 lineto stroke
.4 setlinewidth
.5 setgray
newpath
316.4 0 moveto
316.4 -452 lineto stroke
newpath
0 -316.4 moveto
452 -316.4 lineto stroke
.4 setlinewidth
.5 setgray
newpath
323.93333333333334 0 moveto
323.93333333333334 -452 lineto stroke
newpath
0 -323.93333333333334 moveto
452 -323.93333333333334 lineto stroke
.4 setlinewidth
.5 setgray
newpath
331.46666666666664 0 moveto
331.46666666666664 -452 lineto stroke
newpath
0 -331.46666666666664 moveto
452 -331.46666666666664 lineto stroke
0 setgray
.8 setlinewidth
newpath
339.0 0 moveto
339.0 -452 lineto stroke
newpath
0 -339.0 moveto
452 -339.0 lineto stroke
.4 setlinewidth
.5 setgray
newpath
346.5333333333333 0 moveto
346.5333333333333 -452 lineto stroke
newpath
0 -346.5333333333333 moveto
452 -346.5333333333333 lineto stroke
.4 setlinewidth
.5 setgray
newpath
354.06666666666666 0 moveto
354.06666666666666 -452 lineto stroke
newpath
0 -354.06666666666666 moveto
452 -354.06666666666666 lineto stroke
.4 setlinewidth
.5 setgray
newpath
361.6 0 moveto
361.6 -452 lineto stroke
newpath
0 -361.6 moveto
452 -361.6 lineto stroke
.4 setlinewidth
.5 setgray
newpath
369.1333333333333 0 moveto
369.1333333333333 -452 lineto stroke
newpath
0 -369.1333333333333 moveto
452 -369.1333333333333 lineto stroke
0 setgray
.8 setlinewidth
newpath
376.6666666666667 0 moveto
376.6666666666667 -452 lineto stroke
newpath
0 -376.6666666666667 moveto
452 -376.6666666666667 lineto stroke
.4 setlinewidth
.5 setgray
newpath
384.2 0 moveto
384.2 -452 lineto stroke
newpath
0 -384.2 moveto
452 -384.2 lineto stroke
.4 setlinewidth
.5 setgray
newpath
391.73333333333335 0 moveto
391.73333333333335 -452 lineto stroke
newpath
0 -391.73333333333335 moveto
452 -391.73333333333335 lineto stroke
.4 setlinewidth
.5 setgray
newpath
399.26666666666665 0 moveto
399.26666666666665 -452 lineto stroke
newpath
0 -399.26666666666665 moveto
452 -399.26666666666665 lineto stroke
.4 setlinewidth
.5 setgray
newpath
406.8 0 moveto
406.8 -452 lineto stroke
newpath
0 -406.8 moveto
452 -406.8 lineto stroke
0 setgray
.8 setlinewidth
newpath
414.3333333333333 0 moveto
414.3333333333333 -452 lineto stroke
newpath
0 -414.3333333333333 moveto
452 -414.3333333333333 lineto stroke
.4 setlinewidth
.5 setgray
newpath
421.8666666666667 0 moveto
421.8666666666667 -452 lineto stroke
newpath
0 -421.8666666666667 moveto
452 -421.8666666666667 lineto stroke
.4 setlinewidth
.5 setgray
newpath
429.4 0 moveto
429.4 -452 lineto stroke
newpath
0 -429.4 moveto
452 -429.4 lineto stroke
.4 setlinewidth
.5 setgray
newpath
436.93333333333334 0 moveto
436.93333333333334 -452 lineto stroke
newpath
0 -436.93333333333334 moveto
452 -436.93333333333334 lineto stroke
.4 setlinewidth
.5 setgray
newpath
444.46666666666664 0 moveto
444.46666666666664 -452 lineto stroke
newpath
0 -444.46666666666664 moveto
452 -444.46666666666664 lineto stroke
0 setgray
newpath
0 0 moveto
452 -452 lineto stroke
%% ================ Draw asr lines =================
0.0 -90.4 drawSmallX
90.4 -0.0 drawSmallX
0.0 -52.733333333333334 drawSmallX
52.733333333333334 -0.0 drawSmallX
7.533333333333333 -90.4 drawSmallX
90.4 -7.533333333333333 drawSmallX
7.533333333333333 -52.733333333333334 drawSmallX
52.733333333333334 -7.533333333333333 drawSmallX
15.066666666666666 -90.4 drawSmallX
90.4 -15.066666666666666 drawSmallX
15.066666666666666 -52.733333333333334 drawSmallX
52.733333333333334 -15.066666666666666 drawSmallX
22.6 -90.4 drawSmallX
90.4 -22.6 drawSmallX
22.6 -52.733333333333334 drawSmallX
52.733333333333334 -22.6 drawSmallX
30.133333333333333 -90.4 drawSmallX
90.4 -30.133333333333333 drawSmallX
30.133333333333333 -52.733333333333334 drawSmallX
52.733333333333334 -30.133333333333333 drawSmallX
37.666666666666664 -90.4 drawSmallX
90.4 -37.666666666666664 drawSmallX
37.666666666666664 -52.733333333333334 drawSmallX
52.733333333333334 -37.666666666666664 drawSmallX
45.2 -90.4 drawSmallX
90.4 -45.2 drawSmallX
45.2 -52.733333333333334 drawSmallX
52.733333333333334 -45.2 drawSmallX
52.733333333333334 -90.4 drawSmallX
90.4 -52.733333333333334 drawSmallX
52.733333333333334 -52.733333333333334 drawSmallX
52.733333333333334 -52.733333333333334 drawSmallX
60.266666666666666 -90.4 drawSmallX
90.4 -60.266666666666666 drawSmallX
60.266666666666666 -52.733333333333334 drawSmallX
52.733333333333334 -60.266666666666666 drawSmallX
67.8 -90.4 drawSmallX
90.4 -67.8 drawSmallX
67.8 -52.733333333333334 drawSmallX
52.733333333333334 -67.8 drawSmallX
75.33333333333333 -90.4 drawSmallX
90.4 -75.33333333333333 drawSmallX
75.33333333333333 -52.733333333333334 drawSmallX
52.733333333333334 -75.33333333333333 drawSmallX
82.86666666666666 -90.4 drawSmallX
90.4 -82.86666666666666 drawSmallX
82.86666666666666 -52.733333333333334 drawSmallX
52.733333333333334 -82.86666666666666 drawSmallX
90.4 -90.4 drawSmallX
90.4 -90.4 drawSmallX
90.4 -52.733333333333334 drawSmallX
52.733333333333334 -90.4 drawSmallX
97.93333333333334 -90.4 drawSmallX
90.4 -97.93333333333334 drawSmallX
97.93333333333334 -52.733333333333334 drawSmallX
52.733333333333334 -97.93333333333334 drawSmallX
105.46666666666667 -90.4 drawSmallX
90.4 -105.46666666666667 drawSmallX
105.46666666666667 -52.733333333333334 drawSmallX
52.733333333333334 -105.46666666666667 drawSmallX
113.0 -90.4 drawSmallX
90.4 -113.0 drawSmallX
113.0 -52.733333333333334 drawSmallX
52.733333333333334 -113.0 drawSmallX
120.53333333333333 -90.4 drawSmallX
90.4 -120.53333333333333 drawSmallX
120.53333333333333 -52.733333333333334 drawSmallX
52.733333333333334 -120.53333333333333 drawSmallX
128.06666666666666 -90.4 drawSmallX
90.4 -128.06666666666666 drawSmallX
128.06666666666666 -52.733333333333334 drawSmallX
52.733333333333334 -128.06666666666666 drawSmallX
135.6 -90.4 drawSmallX
90.4 -135.6 drawSmallX
135.6 -52.733333333333334 drawSmallX
52.733333333333334 -135.6 drawSmallX
143.13333333333333 -90.4 drawSmallX
90.4 -143.13333333333333 drawSmallX
143.13333333333333 -52.733333333333334 drawSmallX
52.733333333333334 -143.13333333333333 drawSmallX
150.66666666666666 -90.4 drawSmallX
90.4 -150.66666666666666 drawSmallX
150.66666666666666 -52.733333333333334 drawSmallX
52.733333333333334 -150.66666666666666 drawSmallX
158.2 -90.4 drawSmallX
90.4 -158.2 drawSmallX
158.2 -52.733333333333334 drawSmallX
52.733333333333334 -158.2 drawSmallX
165.73333333333332 -90.4 drawSmallX
90.4 -165.73333333333332 drawSmallX
165.73333333333332 -52.733333333333334 drawSmallX
52.733333333333334 -165.73333333333332 drawSmallX
173.26666666666665 -90.4 drawSmallX
90.4 -173.26666666666665 drawSmallX
173.26666666666665 -52.733333333333334 drawSmallX
52.733333333333334 -173.26666666666665 drawSmallX
180.8 -90.4 drawSmallX
90.4 -180.8 drawSmallX
180.8 -52.733333333333334 drawSmallX
52.733333333333334 -180.8 drawSmallX
188.33333333333334 -90.4 drawSmallX
90.4 -188.33333333333334 drawSmallX
188.33333333333334 -52.733333333333334 drawSmallX
52.733333333333334 -188.33333333333334 drawSmallX
195.86666666666667 -90.4 drawSmallX
90.4 -195.86666666666667 drawSmallX
195.86666666666667 -52.733333333333334 drawSmallX
52.733333333333334 -195.86666666666667 drawSmallX
203.4 -90.4 drawSmallX
90.4 -203.4 drawSmallX
203.4 -52.733333333333334 drawSmallX
52.733333333333334 -203.4 drawSmallX
210.93333333333334 -90.4 drawSmallX
90.4 -210.93333333333334 drawSmallX
210.93333333333334 -52.733333333333334 drawSmallX
52.733333333333334 -210.93333333333334 drawSmallX
218.46666666666667 -90.4 drawSmallX
90.4 -218.46666666666667 drawSmallX
218.46666666666667 -52.733333333333334 drawSmallX
52.733333333333334 -218.46666666666667 drawSmallX
226.0 -90.4 drawSmallX
90.4 -226.0 drawSmallX
226.0 -52.733333333333334 drawSmallX
52.733333333333334 -226.0 drawSmallX
233.53333333333333 -90.4 drawSmallX
90.4 -233.53333333333333 drawSmallX
233.53333333333333 -52.733333333333334 drawSmallX
52.733333333333334 -233.53333333333333 drawSmallX
241.06666666666666 -90.4 drawSmallX
90.4 -241.06666666666666 drawSmallX
241.06666666666666 -52.733333333333334 drawSmallX
52.733333333333334 -241.06666666666666 drawSmallX
248.6 -90.4 drawSmallX
90.4 -248.6 drawSmallX
248.6 -52.733333333333334 drawSmallX
52.733333333333334 -248.6 drawSmallX
256.1333333333333 -90.4 drawSmallX
90.4 -256.1333333333333 drawSmallX
256.1333333333333 -52.733333333333334 drawSmallX
52.733333333333334 -256.1333333333333 drawSmallX
263.6666666666667 -90.4 drawSmallX
90.4 -263.6666666666667 drawSmallX
263.6666666666667 -52.733333333333334 drawSmallX
52.733333333333334 -263.6666666666667 drawSmallX
271.2 -90.4 drawSmallX
90.4 -271.2 drawSmallX
271.2 -52.733333333333334 drawSmallX
52.733333333333334 -271.2 drawSmallX
278.73333333333335 -90.4 drawSmallX
90.4 -278.73333333333335 drawSmallX
278.73333333333335 -52.733333333333334 drawSmallX
52.733333333333334 -278.73333333333335 drawSmallX
286.26666666666665 -90.4 drawSmallX
90.4 -286.26666666666665 drawSmallX
286.26666666666665 -52.733333333333334 drawSmallX
52.733333333333334 -286.26666666666665 drawSmallX
293.8 -90.4 drawSmallX
90.4 -293.8 drawSmallX
293.8 -52.733333333333334 drawSmallX
52.733333333333334 -293.8 drawSmallX
301.3333333333333 -90.4 drawSmallX
90.4 -301.3333333333333 drawSmallX
301.3333333333333 -52.733333333333334 drawSmallX
52.733333333333334 -301.3333333333333 drawSmallX
308.8666666666667 -90.4 drawSmallX
90.4 -308.8666666666667 drawSmallX
308.8666666666667 -52.733333333333334 drawSmallX
52.733333333333334 -308.8666666666667 drawSmallX
316.4 -90.4 drawSmallX
90.4 -316.4 drawSmallX
316.4 -52.733333333333334 drawSmallX
52.733333333333334 -316.4 drawSmallX
323.93333333333334 -90.4 drawSmallX
90.4 -323.93333333333334 drawSmallX
323.93333333333334 -52.733333333333334 drawSmallX
52.733333333333334 -323.93333333333334 drawSmallX
331.46666666666664 -90.4 drawSmallX
90.4 -331.46666666666664 drawSmallX
331.46666666666664 -52.733333333333334 drawSmallX
52.733333333333334 -331.46666666666664 drawSmallX
339.0 -90.4 drawSmallX
90.4 -339.0 drawSmallX
339.0 -52.733333333333334 drawSmallX
52.733333333333334 -339.0 drawSmallX
346.5333333333333 -90.4 drawSmallX
90.4 -346.5333333333333 drawSmallX
346.5333333333333 -52.733333333333334 drawSmallX
52.733333333333334 -346.5333333333333 drawSmallX
354.06666666666666 -90.4 drawSmallX
90.4 -354.06666666666666 drawSmallX
354.06666666666666 -52.733333333333334 drawSmallX
52.733333333333334 -354.06666666666666 drawSmallX
361.6 -90.4 drawSmallX
90.4 -361.6 drawSmallX
361.6 -52.733333333333334 drawSmallX
52.733333333333334 -361.6 drawSmallX
369.1333333333333 -90.4 drawSmallX
90.4 -369.1333333333333 drawSmallX
369.1333333333333 -52.733333333333334 drawSmallX
52.733333333333334 -369.1333333333333 drawSmallX
376.6666666666667 -90.4 drawSmallX
90.4 -376.6666666666667 drawSmallX
376.6666666666667 -52.733333333333334 drawSmallX
52.733333333333334 -376.6666666666667 drawSmallX
384.2 -90.4 drawSmallX
90.4 -384.2 drawSmallX
384.2 -52.733333333333334 drawSmallX
52.733333333333334 -384.2 drawSmallX
391.73333333333335 -90.4 drawSmallX
90.4 -391.73333333333335 drawSmallX
391.73333333333335 -52.733333333333334 drawSmallX
52.733333333333334 -391.73333333333335 drawSmallX
399.26666666666665 -90.4 drawSmallX
90.4 -399.26666666666665 drawSmallX
399.26666666666665 -52.733333333333334 drawSmallX
52.733333333333334 -399.26666666666665 drawSmallX
406.8 -90.4 drawSmallX
90.4 -406.8 drawSmallX
406.8 -52.733333333333334 drawSmallX
52.733333333333334 -406.8 drawSmallX
414.3333333333333 -90.4 drawSmallX
90.4 -414.3333333333333 drawSmallX
414.3333333333333 -52.733333333333334 drawSmallX
52.733333333333334 -414.3333333333333 drawSmallX
421.8666666666667 -90.4 drawSmallX
90.4 -421.8666666666667 drawSmallX
421.8666666666667 -52.733333333333334 drawSmallX
52.733333333333334 -421.8666666666667 drawSmallX
429.4 -90.4 drawSmallX
90.4 -429.4 drawSmallX
429.4 -52.733333333333334 drawSmallX
52.733333333333334 -429.4 drawSmallX
436.93333333333334 -90.4 drawSmallX
90.4 -436.93333333333334 drawSmallX
436.93333333333334 -52.733333333333334 drawSmallX
52.733333333333334 -436.93333333333334 drawSmallX
444.46666666666664 -90.4 drawSmallX
90.4 -444.46666666666664 drawSmallX
444.46666666666664 -52.733333333333334 drawSmallX
52.733333333333334 -444.46666666666664 drawSmallX
452.0 -90.4 drawSmallX
90.4 -452.0 drawSmallX
452.0 -52.733333333333334 drawSmallX
52.733333333333334 -452.0 drawSmallX
459.5333333333333 -90.4 drawSmallX
90.4 -459.5333333333333 drawSmallX
459.5333333333333 -52.733333333333334 drawSmallX
52.733333333333334 -459.5333333333333 drawSmallX
467.06666666666666 -90.4 drawSmallX
90.4 -467.06666666666666 drawSmallX
467.06666666666666 -52.733333333333334 drawSmallX
52.733333333333334 -467.06666666666666 drawSmallX
474.59999999999997 -90.4 drawSmallX
90.4 -474.59999999999997 drawSmallX
474.59999999999997 -52.733333333333334 drawSmallX
52.733333333333334 -474.59999999999997 drawSmallX
482.1333333333333 -90.4 drawSmallX
90.4 -482.1333333333333 drawSmallX
482.1333333333333 -52.733333333333334 drawSmallX
52.733333333333334 -482.1333333333333 drawSmallX
489.6666666666667 -90.4 drawSmallX
90.4 -489.6666666666667 drawSmallX
489.6666666666667 -52.733333333333334 drawSmallX
52.733333333333334 -489.6666666666667 drawSmallX
497.2 -90.4 drawSmallX
90.4 -497.2 drawSmallX
497.2 -52.733333333333334 drawSmallX
52.733333333333334 -497.2 drawSmallX
504.73333333333335 -90.4 drawSmallX
90.4 -504.73333333333335 drawSmallX
504.73333333333335 -52.733333333333334 drawSmallX
52.733333333333334 -504.73333333333335 drawSmallX
512.2666666666667 -90.4 drawSmallX
90.4 -512.2666666666667 drawSmallX
512.2666666666667 -52.733333333333334 drawSmallX
52.733333333333334 -512.2666666666667 drawSmallX
519.8 -90.4 drawSmallX
90.4 -519.8 drawSmallX
519.8 -52.733333333333334 drawSmallX
52.733333333333334 -519.8 drawSmallX
527.3333333333334 -90.4 drawSmallX
90.4 -527.3333333333334 drawSmallX
527.3333333333334 -52.733333333333334 drawSmallX
52.733333333333334 -527.3333333333334 drawSmallX
534.8666666666667 -90.4 drawSmallX
90.4 -534.8666666666667 drawSmallX
534.8666666666667 -52.733333333333334 drawSmallX
52.733333333333334 -534.8666666666667 drawSmallX
542.4 -90.4 drawSmallX
90.4 -542.4 drawSmallX
542.4 -52.733333333333334 drawSmallX
52.733333333333334 -542.4 drawSmallX
549.9333333333333 -90.4 drawSmallX
90.4 -549.9333333333333 drawSmallX
549.9333333333333 -52.733333333333334 drawSmallX
52.733333333333334 -549.9333333333333 drawSmallX
557.4666666666667 -90.4 drawSmallX
90.4 -557.4666666666667 drawSmallX
557.4666666666667 -52.733333333333334 drawSmallX
52.733333333333334 -557.4666666666667 drawSmallX
565.0 -90.4 drawSmallX
90.4 -565.0 drawSmallX
565.0 -52.733333333333334 drawSmallX
52.733333333333334 -565.0 drawSmallX
572.5333333333333 -90.4 drawSmallX
90.4 -572.5333333333333 drawSmallX
572.5333333333333 -52.733333333333334 drawSmallX
52.733333333333334 -572.5333333333333 drawSmallX
580.0666666666666 -90.4 drawSmallX
90.4 -580.0666666666666 drawSmallX
580.0666666666666 -52.733333333333334 drawSmallX
52.733333333333334 -580.0666666666666 drawSmallX
587.6 -90.4 drawSmallX
90.4 -587.6 drawSmallX
587.6 -52.733333333333334 drawSmallX
52.733333333333334 -587.6 drawSmallX
595.1333333333333 -90.4 drawSmallX
90.4 -595.1333333333333 drawSmallX
595.1333333333333 -52.733333333333334 drawSmallX
52.733333333333334 -595.1333333333333 drawSmallX
602.6666666666666 -90.4 drawSmallX
90.4 -602.6666666666666 drawSmallX
602.6666666666666 -52.733333333333334 drawSmallX
52.733333333333334 -602.6666666666666 drawSmallX
610.2 -90.4 drawSmallX
90.4 -610.2 drawSmallX
610.2 -52.733333333333334 drawSmallX
52.733333333333334 -610.2 drawSmallX
617.7333333333333 -90.4 drawSmallX
90.4 -617.7333333333333 drawSmallX
617.7333333333333 -52.733333333333334 drawSmallX
52.733333333333334 -617.7333333333333 drawSmallX
625.2666666666667 -90.4 drawSmallX
90.4 -625.2666666666667 drawSmallX
625.2666666666667 -52.733333333333334 drawSmallX
52.733333333333334 -625.2666666666667 drawSmallX
632.8 -90.4 drawSmallX
90.4 -632.8 drawSmallX
632.8 -52.733333333333334 drawSmallX
52.733333333333334 -632.8 drawSmallX
640.3333333333334 -90.4 drawSmallX
90.4 -640.3333333333334 drawSmallX
640.3333333333334 -52.733333333333334 drawSmallX
52.733333333333334 -640.3333333333334 drawSmallX
647.8666666666667 -90.4 drawSmallX
90.4 -647.8666666666667 drawSmallX
647.8666666666667 -52.733333333333334 drawSmallX
52.733333333333334 -647.8666666666667 drawSmallX
655.4 -90.4 drawSmallX
90.4 -655.4 drawSmallX
655.4 -52.733333333333334 drawSmallX
52.733333333333334 -655.4 drawSmallX
662.9333333333333 -90.4 drawSmallX
90.4 -662.9333333333333 drawSmallX
662.9333333333333 -52.733333333333334 drawSmallX
52.733333333333334 -662.9333333333333 drawSmallX
670.4666666666667 -90.4 drawSmallX
90.4 -670.4666666666667 drawSmallX
670.4666666666667 -52.733333333333334 drawSmallX
52.733333333333334 -670.4666666666667 drawSmallX
678.0 -90.4 drawSmallX
90.4 -678.0 drawSmallX
678.0 -52.733333333333334 drawSmallX
52.733333333333334 -678.0 drawSmallX
685.5333333333333 -90.4 drawSmallX
90.4 -685.5333333333333 drawSmallX
685.5333333333333 -52.733333333333334 drawSmallX
52.733333333333334 -685.5333333333333 drawSmallX
693.0666666666666 -90.4 drawSmallX
90.4 -693.0666666666666 drawSmallX
693.0666666666666 -52.733333333333334 drawSmallX
52.733333333333334 -693.0666666666666 drawSmallX
700.6 -90.4 drawSmallX
90.4 -700.6 drawSmallX
700.6 -52.733333333333334 drawSmallX
52.733333333333334 -700.6 drawSmallX
708.1333333333333 -90.4 drawSmallX
90.4 -708.1333333333333 drawSmallX
708.1333333333333 -52.733333333333334 drawSmallX
52.733333333333334 -708.1333333333333 drawSmallX
715.6666666666666 -90.4 drawSmallX
90.4 -715.6666666666666 drawSmallX
715.6666666666666 -52.733333333333334 drawSmallX
52.733333333333334 -715.6666666666666 drawSmallX
723.2 -90.4 drawSmallX
90.4 -723.2 drawSmallX
723.2 -52.733333333333334 drawSmallX
52.733333333333334 -723.2 drawSmallX
730.7333333333333 -90.4 drawSmallX
90.4 -730.7333333333333 drawSmallX
730.7333333333333 -52.733333333333334 drawSmallX
52.733333333333334 -730.7333333333333 drawSmallX
738.2666666666667 -90.4 drawSmallX
90.4 -738.2666666666667 drawSmallX
738.2666666666667 -52.733333333333334 drawSmallX
52.733333333333334 -738.2666666666667 drawSmallX
745.8 -90.4 drawSmallX
90.4 -745.8 drawSmallX
745.8 -52.733333333333334 drawSmallX
52.733333333333334 -745.8 drawSmallX
%% ================ Draw Asr start Arc  =================
0 setgray
newpath
0.0 -452.0 moveto
7.753196036423352 -444.18030344244994 lineto
15.242915564745447 -436.4999908821472 lineto
22.480828834775515 -428.9597678497734 lineto
29.47830620786509 -421.559418891838 lineto
36.246375058954655 -414.297962709356 lineto
42.79568941653242 -407.1737861786058 lineto
49.136509997441955 -400.1847596808043 lineto
55.278692650993186 -393.32833598185937 lineto
61.23168354118297 -386.6016347042469 lineto
67.00451966914817 -380.00151423185724 lineto
72.60583357342118 -373.524632693016 lineto
78.04386124680163 -367.16749948166165 lineto
83.32645247951966 -360.92651860472455 lineto
88.4610829825879 -354.7980249864957 lineto
93.45486776634164 -348.778314718618 lineto
98.31457535037956 -342.863670116999 lineto
103.04664246533798 -337.0503803337498 lineto
107.6571889767243 -331.3347581722296 lineto
112.15203281863648 -325.7131536653399 lineto
116.53670477254775 -320.18196490022467 lineto
120.8164629650977 -314.7376465053597 lineto
124.99630699042834 -309.3767161575966 lineto
129.08099158823384 -304.0957594160167 lineto
133.07503982938096 -298.89143314555787 lineto
136.98275577755274 -293.7604677554326 lineto
140.80823660859014 -288.6996684445989 lineto
144.5553841796613 -283.7059156183364 lineto
148.2279160485616 -278.77616461566413 lineto
151.8293759497724 -273.907444866448 lineto
155.36314373871502 -269.09685857908096 lineto
158.83244481921696 -264.3415790441936 lineto
162.24035907180271 -259.6388486266243 lineto
165.58982930221418 -254.9859765065171 lineto
168.88366923072658 -250.3803362206913 lineto
172.1245710434789 -245.81936304708591 lineto
175.31511252729462 -241.30055126793764 lineto
178.45776380941373 -236.8214513412407 lineto
181.5548937232652 -232.379667004797 lineto
184.60877582093508 -227.97285233268946 lineto
187.62159405237693 -223.59870876017268 lineto
190.5954481307096 -219.25498208969896 lineto
193.53235860217356 -214.93945948798515 lineto
196.4342716385079 -210.64996648162477 lineto
199.30306356867055 -206.38436395668725 lineto
202.14054516598097 -202.140545165981 lineto
204.94846570592054 -197.9164327461401 lineto
207.72851680899456 -193.70997574538825 lineto
210.48233608224388 -189.51914666170956 lineto
213.2115105722017 -185.34193849017922 lineto
215.9175800413205 -181.17636177736287 lineto
218.60204007915195 -177.0204416799523 lineto
221.26634505884635 -172.87221502415233 lineto
223.911910948846 -168.7297273617591 lineto
226.54011798898557 -164.59103001835032 lineto
229.15231323956894 -160.45417712853884 lineto
231.74981301137677 -156.31722265281346 lineto
234.33390518395916 -152.17821737008862 lineto
236.90585141898785 -148.03520583971036 lineto
239.4668892748757 -143.88622332630612 lineto
242.0182342283151 -139.72929268051567 lineto
244.5610816078385 -135.56242116830418 lineto
247.09660844395904 -131.38359724121645 lineto
249.6259752399003 -127.19078723959537 lineto
252.1503276663721 -122.98193202044982 lineto
254.67079818328327 -118.75494350131109 lineto
257.1885075906983 -114.50770111107113 lineto
259.7045665107374 -110.2380481384403 lineto
262.22007680147993 -105.94378796830695 lineto
264.7361329032532 -101.62268019591484 lineto
267.25382311695665 -97.27243660841694 lineto
269.77423081329135 -92.89071702299591 lineto
272.2984355708992 -88.4751249703922 lineto
274.82751424048075 -84.02320321233188 lineto
277.36254193092105 -79.5324290810255 lineto
279.9045929122967 -75.00020962861205 lineto
282.45474142935484 -70.42387657416803 lineto
285.0140624176083 -65.80068103570161 lineto
287.58363211257586 -61.127788034425656 lineto
290.16452854086504 -56.40227075857372 lineto
292.75783187973167 -51.6211045741095 lineto
295.3646246694063 -46.78116076993066 lineto
297.98599185982476 -41.87920002559981 lineto
300.6230206703758 -36.91186559031691 lineto
303.27680023784194 -31.875676162819694 lineto
305.94842102379255 -26.767018463238376 lineto
308.63897394822027 -21.582139489715185 lineto
311.34954921111324 -16.31713845493044 lineto
314.081234757838 -10.967958400661999 lineto
316.83511433755757 -5.530377492301337 lineto
319.61226509631945 -1.9570606870922145E-14 lineto stroke
%% ================ Draw Asr End arc =================
newpath
0.0 -452.0 moveto
7.622466112086001 -436.690791093171 lineto
14.745908998522802 -422.2675849685233 lineto
21.41688699371539 -408.65854815271194 lineto
27.676896164974277 -395.7980550769674 lineto
33.562950499426115 -383.62627964343045 lineto
39.10810370202239 -372.0887517345725 lineto
44.34191388736971 -361.13590797815647 lineto
49.29085465943041 -350.72265483415174 lineto
53.97867714031576 -340.8079545548238 lineto
58.426727880168734 -331.35443960655215 lineto
62.65422754167594 -322.3280579170466 lineto
66.67851498705727 -313.69774926342 lineto
70.51526101605462 -305.43515185989065 lineto
74.178655579878 -297.51433747509697 lineto
77.68157186935751 -289.91157302825553 lineto
81.03571026881542 -282.60510645837394 lineto
84.25172479229835 -275.57497464869425 lineto
87.33933428078788 -268.8028312638271 lineto
90.3074203387136 -262.27179248253486 lineto
93.16411372406661 -255.96629876037548 lineto
95.91687067595635 -249.87199091758347 lineto
98.57254046333702 -243.97559900865136 lineto
101.13742526547051 -238.26484258498172 lineto
103.61733334522768 -232.72834110727294 lineto
106.01762634750845 -227.35553339822843 lineto
108.3432614441319 -222.1366051481337 lineto
110.59882895105666 -217.062423595911 lineto
112.78858596158535 -212.12447860694334 lineto
114.9164864684092 -207.3148294570126 lineto
116.98620838633937 -202.62605670998008 lineto
119.00117783495064 -198.0512186462536 lineto
120.96459099493458 -193.58381176052194 lineto
122.87943381269466 -189.21773490154155 lineto
124.74849979373892 -184.94725667471695 lineto
126.57440609598498 -180.7669857705479 lineto
128.35960810855101 -176.67184391937468 lineto
130.10641267941213 -172.6570412058219 lineto
131.81699013599606 -168.71805350544577 lineto
133.4933852259684 -164.8506018317866 lineto
135.13752709077966 -161.05063340473404 lineto
136.75123837172174 -157.31430427117814 lineto
138.33624353702047 -153.637963326674 lineto
139.89417650865641 -150.0181376025531 lineto
141.42658765898057 -146.45151869683366 lineto
142.93495023961074 -142.93495023961077 lineto
144.42066629842518 -139.4654162945475 lineto
145.88507213459897 -136.04003060779453 lineto
147.3294433364455 -132.656026624285 lineto
148.75499944225442 -129.310748199012 lineto
150.1629082602737 -126.00164093770339 lineto
151.55428988040913 -122.72624410736297 lineto
152.93022040704727 -119.48218306253032 lineto
154.29173543960243 -116.26716213790125 lineto
155.63983332490153 -113.07895796220699 lineto
156.9754782033141 -109.91541315203453 lineto
158.29960286857718 -106.77443034762915 lineto
159.6131114595297 -103.65396655569921 lineto
160.91688200043015 -100.55202776687851 lineto
162.21176880516848 -97.46666381782909 lineto
163.49860475947517 -94.39596347001125 lineto
164.778203494164 -91.33804967894139 lineto
166.05136146150627 -88.2910750293123 lineto
167.31885992600877 -85.253217312695 lineto
168.58146688014622 -82.22267522568376 lineto
169.83993889497506 -79.19766416730388 lineto
171.09502291501525 -76.17641211528614 lineto
172.3474580063293 -73.15715556142919 lineto
173.5979770663449 -70.13813548673347 lineto
174.84730850365492 -67.11759335729512 lineto
176.09617789578118 -64.09376712211034 lineto
177.3453096327069 -61.06488719394666 lineto
178.5954285538599 -58.029172394305895 lineto
179.84726158616664 -54.984825843212676 lineto
181.10153939079342 -51.930030774127005 lineto
182.3589980262466 -48.86294625368148 lineto
183.6203806356156 -45.781702785182674 lineto
184.88643916591744 -42.684397773881855 lineto
186.15793612773618 -39.56909083089917 lineto
187.43564640364764 -36.43379889136914 lineto
188.72035911428912 -33.27649112083986 lineto
190.01287955136698 -30.095083582196793 lineto
191.3140311874094 -26.887433633357876 lineto
192.6246577726641 -23.651334023688833 lineto
193.94562553022095 -20.38450665447713 lineto
195.27782546121549 -17.084595965850433 lineto
196.6221757728467 -13.749161909191688 lineto
197.97962444293495 -10.37567246034475 lineto
199.35115193586054 -6.961495624666587 lineto
200.73777408597527 -3.503890880216589 lineto
202.14054516598097 -1.2377538580770979E-14 lineto stroke
0 setgray
%% ================ Draw tangent Line =================
newpath
452 0 moveto
0 -452 lineto stroke
%% ================ Draw sine/cosine arcs =================
0 setgray
226 0 226 180 360 arc stroke
0 -226 226 270 90 arc stroke
0 setgray
%% ================ Draw obliquity arc =================
0 setgray
0 0 179.77362648363962 270 0 arc stroke
grestore
% Eject the page
end cleartomark
showpage